Project_2_SCC/src/dump.vcd
$date
	Sun Oct 26 23:41:16 2025
$end
$version
	Icarus Verilog
$end
$timescale
	1ps
$end
$scope module kadane_tb $end
$var wire 32 ! instruction_memory_v [31:0] $end
$var wire 1 " halt_f $end
$var wire 2 # err_bits [1:0] $end
$var wire 32 $ data_memory_in_v [31:0] $end
$var reg 32 % addr [31:0] $end
$var reg 1 & clk $end
$var reg 1 ' clk_en $end
$var reg 32 ( correct_value [31:0] $end
$var reg 256 ) line [255:0] $end
$var reg 1 * rst $end
$var reg 1 + seen_halt $end
$var reg 32 , test_output [31:0] $end
$var reg 32 - value [31:0] $end
$var integer 32 . fd [31:0] $end
$var integer 32 / mem [31:0] $end
$scope module topMod $end
$var wire 1 & clk $end
$var wire 1 ' clk_en $end
$var wire 1 " halt_f $end
$var wire 1 * rst $end
$var wire 1 0 writeBit $end
$var wire 1 1 readBit $end
$var wire 32 2 programCounter [31:0] $end
$var wire 32 3 instruction_memory_v [31:0] $end
$var wire 32 4 instruction [31:0] $end
$var wire 1 5 halt $end
$var wire 2 6 err_bits [1:0] $end
$var wire 32 7 data_memory_in_v [31:0] $end
$var wire 32 8 dataOutMem [31:0] $end
$var wire 32 9 dataIn [31:0] $end
$var wire 32 : addressFetch [31:0] $end
$scope module memMod $end
$var wire 1 ; instruction_memory_en $end
$var wire 1 & mem_Clk $end
$var wire 32 < instruction_memory_a [31:0] $end
$var wire 1 5 halt_f $end
$var wire 1 0 data_memory_write $end
$var wire 1 1 data_memory_read $end
$var wire 32 = data_memory_out_v [31:0] $end
$var wire 32 > data_memory_a [31:0] $end
$var reg 8 ? a [7:0] $end
$var reg 8 @ b [7:0] $end
$var reg 8 A c [7:0] $end
$var reg 8 B d [7:0] $end
$var reg 32 C data_memory_in_v [31:0] $end
$var reg 32 D instruction_memory_v [31:0] $end
$var integer 32 E fd [31:0] $end
$var integer 32 F i [31:0] $end
$upscope $end
$scope module scc $end
$var wire 1 & clk $end
$var wire 1 ' clk_en $end
$var wire 32 G dataIn [31:0] $end
$var wire 32 H instruction [31:0] $end
$var wire 32 I memoryDataIn [31:0] $end
$var wire 1 * rst $end
$var wire 1 0 writeFlag $end
$var wire 1 J specialEncoding $end
$var wire 1 K setFlags $end
$var wire 4 L secondLevelDecode [3:0] $end
$var wire 1 M regWrite $end
$var wire 1 N regRead $end
$var wire 32 O readDataSec [31:0] $end
$var wire 32 P readDataFirst [31:0] $end
$var wire 32 Q readDataDest [31:0] $end
$var wire 32 R programCounter [31:0] $end
$var wire 4 S out_sourceSecReg [3:0] $end
$var wire 4 T out_sourceFirstReg [3:0] $end
$var wire 16 U out_imm [15:0] $end
$var wire 4 V out_destRegister [3:0] $end
$var wire 1 1 memoryRead $end
$var wire 1 W loadStore $end
$var wire 32 X instructionForID [31:0] $end
$var wire 1 5 halt $end
$var wire 2 Y firstLevelDecode [1:0] $end
$var wire 1 Z exe_writeToReg $end
$var wire 32 [ exe_writeData [31:0] $end
$var wire 4 \ exe_readRegSec [3:0] $end
$var wire 4 ] exe_readRegFirst [3:0] $end
$var wire 4 ^ exe_readRegDest [3:0] $end
$var wire 1 _ exeOverride $end
$var wire 16 ` exeData [15:0] $end
$var wire 1 a dataRegisterImm $end
$var wire 1 b dataRegister $end
$var wire 32 c dataOut [31:0] $end
$var wire 4 d branchInstruction [3:0] $end
$var wire 1 e branch $end
$var wire 3 f aluFunction [2:0] $end
$var wire 32 g addressIn [31:0] $end
$var reg 32 h data_memory_v [31:0] $end
$var reg 2 i err_bits [1:0] $end
$var reg 32 j instruction_memory_v [31:0] $end
$scope module EXE $end
$var wire 1 & clk $end
$var wire 16 k exeData [15:0] $end
$var wire 32 l memoryDataIn [31:0] $end
$var wire 1 * rst $end
$var wire 1 J specialEncoding $end
$var wire 4 m sourceSecReg [3:0] $end
$var wire 4 n sourceFirstReg [3:0] $end
$var wire 1 K setFlags $end
$var wire 4 o secondLevelDecode [3:0] $end
$var wire 32 p readDataSec [31:0] $end
$var wire 32 q readDataFirst [31:0] $end
$var wire 32 r readDataDest [31:0] $end
$var wire 16 s imm [15:0] $end
$var wire 2 t firstLevelDecode [1:0] $end
$var wire 4 u destReg [3:0] $end
$var wire 4 v branchInstruction [3:0] $end
$var wire 3 w aluFunctions [2:0] $end
$var reg 33 x aluRegister [32:0] $end
$var reg 1 _ exeOverride $end
$var reg 4 y flags [3:0] $end
$var reg 4 z flags_next [3:0] $end
$var reg 32 { immExt [31:0] $end
$var reg 32 | memoryAddressOut [31:0] $end
$var reg 32 } memoryDataOut [31:0] $end
$var reg 1 1 memoryRead $end
$var reg 1 0 memoryWrite $end
$var reg 4 ~ readRegDest [3:0] $end
$var reg 4 !" readRegFirst [3:0] $end
$var reg 4 "" readRegSec [3:0] $end
$var reg 33 #" tempDiff [32:0] $end
$var reg 32 $" writeData [31:0] $end
$var reg 1 Z writeToReg $end
$upscope $end
$scope module ID $end
$var wire 1 & clk $end
$var wire 1 * rst $end
$var wire 32 %" uc_instr [31:0] $end
$var wire 8 &" uc_addr [7:0] $end
$var wire 1 '" uc_active $end
$var wire 1 (" specialBit $end
$var wire 4 )" sourceSecReg [3:0] $end
$var wire 4 *" sourceFirstReg [3:0] $end
$var wire 4 +" secondLevelDecode [3:0] $end
$var wire 32 ," instruction_eff [31:0] $end
$var wire 32 -" instruction [31:0] $end
$var wire 16 ." imm [15:0] $end
$var wire 1 /" hold_if $end
$var wire 2 0" firstLevelDecode [1:0] $end
$var wire 4 1" destReg [3:0] $end
$var wire 4 2" branchCondition [3:0] $end
$var wire 3 3" aluOperationCommands [2:0] $end
$var reg 3 4" aluFunction [2:0] $end
$var reg 1 e branch $end
$var reg 4 5" branchInstruction [3:0] $end
$var reg 1 b dataRegister $end
$var reg 1 a dataRegisterImm $end
$var reg 2 6" firstLevelDecode_out [1:0] $end
$var reg 1 5 halt $end
$var reg 1 7" hold_if_cal $end
$var reg 32 8" ifid_instr [31:0] $end
$var reg 1 W loadStore $end
$var reg 4 9" out_destRegister [3:0] $end
$var reg 16 :" out_imm [15:0] $end
$var reg 4 ;" out_sourceFirstReg [3:0] $end
$var reg 4 <" out_sourceSecReg [3:0] $end
$var reg 1 N regRead $end
$var reg 1 M regWrite $end
$var reg 4 =" secondLevelDecode_out [3:0] $end
$var reg 1 K setFlags $end
$var reg 1 J specialEncoding $end
$scope module URom $end
$var wire 1 & clk $end
$var wire 1 * rst $end
$var wire 8 >" u_addr [7:0] $end
$var reg 32 ?" uc_instr [31:0] $end
$upscope $end
$scope module Ucontrol $end
$var wire 1 & clk $end
$var wire 32 @" ifid_instr [31:0] $end
$var wire 1 * rst $end
$var wire 1 A" start_seq $end
$var wire 1 B" uc_op $end
$var wire 1 C" muls $end
$var wire 1 D" mul $end
$var wire 4 E" id_rn [3:0] $end
$var wire 16 F" id_rm [15:0] $end
$var wire 4 G" id_rd [3:0] $end
$var parameter 32 H" usFilter $end
$var parameter 32 I" usIdle $end
$var reg 1 /" hold_if $end
$var reg 8 J" next_uc_addr [7:0] $end
$var reg 32 K" uPC [31:0] $end
$var reg 32 L" uPC_next [31:0] $end
$var reg 1 '" uc_active $end
$var reg 8 M" uc_addr [7:0] $end
$var reg 2 N" ustate [1:0] $end
$var reg 2 O" ustateNext [1:0] $end
$upscope $end
$upscope $end
$scope module IF $end
$var wire 1 & clk $end
$var wire 16 P" exeData [15:0] $end
$var wire 1 _ exeOverride $end
$var wire 32 Q" fetchedInstruction [31:0] $end
$var wire 16 R" imm16_exe [15:0] $end
$var wire 1 * rst $end
$var wire 16 S" imm16 [15:0] $end
$var wire 32 T" branchOffsetAddress_exe [31:0] $end
$var wire 32 U" branchOffsetAddress [31:0] $end
$var parameter 32 V" sFilter $end
$var parameter 32 W" sIdle $end
$var reg 32 X" PC [31:0] $end
$var reg 32 Y" PC_next [31:0] $end
$var reg 32 Z" filteredInstruction [31:0] $end
$var reg 32 [" programCounter [31:0] $end
$var reg 2 \" state [1:0] $end
$var reg 2 ]" stateNext [1:0] $end
$upscope $end
$scope module REGFILE $end
$var wire 1 & clk $end
$var wire 32 ^" dbg_R0 [31:0] $end
$var wire 32 _" dbg_R1 [31:0] $end
$var wire 32 `" dbg_R10 [31:0] $end
$var wire 32 a" dbg_R11 [31:0] $end
$var wire 32 b" dbg_R12 [31:0] $end
$var wire 32 c" dbg_R13 [31:0] $end
$var wire 32 d" dbg_R14 [31:0] $end
$var wire 32 e" dbg_R15 [31:0] $end
$var wire 32 f" dbg_R2 [31:0] $end
$var wire 32 g" dbg_R3 [31:0] $end
$var wire 32 h" dbg_R4 [31:0] $end
$var wire 32 i" dbg_R5 [31:0] $end
$var wire 32 j" dbg_R6 [31:0] $end
$var wire 32 k" dbg_R7 [31:0] $end
$var wire 32 l" dbg_R8 [31:0] $end
$var wire 32 m" dbg_R9 [31:0] $end
$var wire 32 n" out_rd [31:0] $end
$var wire 32 o" out_rs1 [31:0] $end
$var wire 32 p" out_rs2 [31:0] $end
$var wire 4 q" rd [3:0] $end
$var wire 4 r" rs1 [3:0] $end
$var wire 4 s" rs2 [3:0] $end
$var wire 1 * rst $end
$var wire 1 Z write $end
$var wire 32 t" writeData [31:0] $end
$var integer 32 u" i [31:0] $end
$upscope $end
$upscope $end
$upscope $end
$upscope $end
$enddefinitions $end
$comment Show the parameter values. $end
$dumpall
b0 W"
b1 V"
b0 I"
b1 H"
$end
#0
$dumpvars
b10000 u"
b0 t"
b0 s"
b0 r"
b0 q"
b0 p"
b0 o"
b0 n"
b0 m"
b0 l"
b0 k"
b0 j"
b0 i"
b0 h"
b0 g"
b0 f"
b0 e"
b0 d"
b0 c"
b0 b"
b0 a"
b0 `"
b0 _"
b0 ^"
b0 ]"
b0 \"
b0 ["
bx Z"
b100 Y"
b0 X"
b0 U"
b0 T"
b0 S"
b0 R"
b100100000000000000000000000 Q"
b0 P"
b0 O"
b0 N"
b0 M"
b0 L"
b0 K"
b0 J"
b0 G"
b0 F"
b0 E"
0D"
0C"
0B"
0A"
b0 @"
bx ?"
b0 >"
b0 ="
b0 <"
b0 ;"
b0 :"
b0 9"
b0 8"
17"
b0 6"
b0 5"
b0 4"
b0 3"
b0 2"
b0 1"
b0 0"
0/"
b0 ."
bx -"
b0 ,"
b0 +"
b0 *"
b0 )"
0("
0'"
b0 &"
bx %"
b0 $"
b0 #"
b0 ""
b0 !"
b0 ~
b0 }
b0 |
b0 {
b0 z
b0 y
bx x
b0 w
b0 v
b0 u
b0 t
b0 s
b0 r
b0 q
b0 p
b0 o
b0 n
b0 m
bx l
b0 k
bx j
bx i
bx h
b0 g
b0 f
0e
b0 d
b0 c
0b
1a
b0 `
0_
b0 ^
b0 ]
b0 \
b0 [
1Z
b0 Y
bx X
0W
b0 V
b0 U
b0 T
b0 S
b0 R
b0 Q
b0 P
b0 O
1N
1M
b0 L
0K
0J
bx I
b100100000000000000000000000 H
bx G
bx F
bx E
b100100000000000000000000000 D
bx C
bx B
bx A
bx @
bx ?
b0 >
b0 =
b0 <
1;
b0 :
bx 9
b0 8
bx 7
bx 6
05
b100100000000000000000000000 4
bx 3
b0 2
01
00
bx /
bx .
bx -
bx ,
0+
1*
bx )
bx (
1'
1&
bx %
bx $
bx #
0"
bx !
$end
#5
0&
#10
b10000 u"
1&
#15
0&
#20
b10000 u"
1&
#25
0&
#30
b0 Y"
b1 ]"
0*
b10000 u"
1&
#35
0&
#40
b100100000000000000000000000 X
b100100000000000000000000000 -"
b100100000000000000000000000 Z"
b100 Y"
b1 \"
07"
1&
#45
0&
#50
b10000000000 U"
b10000000000 S"
b100010100010000000010000000000 X
b100010100010000000010000000000 -"
b100010100010000000010000000000 Z"
b100010100010000000010000000000 4
b100010100010000000010000000000 D
b100010100010000000010000000000 H
b100010100010000000010000000000 Q"
b100 ^
b100 ~
b100 q"
1Z
b100 V
b100 u
b100 9"
b10 f
b10 w
b10 4"
b10 L
b10 o
b10 ="
b10 +"
b10 3"
b100 2"
b100 1"
1N
1M
1a
b100100000000000000000000000 ,"
b100 G"
b1000 Y"
b100100000000000000000000000 8"
b100100000000000000000000000 @"
b100 2
b100 <
b100 R
b100 ["
b100 X"
1&
#55
0&
#60
b0 U"
b0 S"
b100101000000000000000000000 X
b100101000000000000000000000 -"
b100101000000000000000000000 Z"
b100101000000000000000000000 4
b100101000000000000000000000 D
b100101000000000000000000000 H
b100101000000000000000000000 Q"
b10000000000 [
b10000000000 $"
b10000000000 t"
b10000000000 #"
b10000000000 {
b100 ]
b100 !"
b100 r"
b100 T
b100 n
b100 ;"
b10000000000 T"
b10000000000 R"
b10000000000 `
b10000000000 k
b10000000000 P"
b10000000000 U
b10000000000 s
b10000000000 :"
1K
1J
b1 L
b1 o
b1 ="
1Z
b100 ^
b100 ~
b100 q"
1("
b1 +"
b1 3"
b100 *"
b10000000000 ."
b100 V
b100 u
b100 9"
1N
1M
b1 f
b1 w
b1 4"
1a
b1100 Y"
b100010100010000000010000000000 ,"
b100 E"
b10000000000 F"
b1000 2
b1000 <
b1000 R
b1000 ["
b1000 X"
b100010100010000000010000000000 8"
b100010100010000000010000000000 @"
1&
#65
0&
#70
b1010 U"
b1010 S"
b100010101010100000000000001010 X
b100010101010100000000000001010 -"
b100010101010100000000000001010 Z"
b100010101010100000000000001010 4
b100010101010100000000000001010 D
b100010101010100000000000001010 H
b100010101010100000000000001010 Q"
b10 L
b10 o
b10 ="
0("
b10 +"
b10 3"
b101 2"
b101 1"
b0 *"
b0 ."
b0 T"
b0 R"
b0 `
b0 k
b0 P"
b0 U
b0 s
b0 :"
b0 T
b0 n
b0 ;"
b101 V
b101 u
b101 9"
1N
1M
b10 f
b10 w
b10 4"
0K
0J
1a
b0 #"
b0 {
b0 [
b0 $"
b0 t"
1Z
b0 ]
b0 !"
b0 r"
b101 ^
b101 ~
b101 q"
b100101000000000000000000000 ,"
b101 G"
b0 E"
b0 F"
b10000 Y"
b0 Q
b0 r
b0 n"
b0 P
b0 q
b0 o"
b10000000000 h"
b100101000000000000000000000 8"
b100101000000000000000000000 @"
b1100 2
b1100 <
b1100 R
b1100 ["
b1100 X"
1&
#75
0&
#80
b0 U"
b0 S"
b100110000000000000000000000 X
b100110000000000000000000000 -"
b100110000000000000000000000 Z"
b100110000000000000000000000 4
b100110000000000000000000000 D
b100110000000000000000000000 H
b100110000000000000000000000 Q"
b1010 [
b1010 $"
b1010 t"
b1010 #"
b1010 {
b101 ]
b101 !"
b101 r"
b101 T
b101 n
b101 ;"
b1010 T"
b1010 R"
b1010 `
b1010 k
b1010 P"
b1010 U
b1010 s
b1010 :"
1K
1J
b1 L
b1 o
b1 ="
1Z
b101 ^
b101 ~
b101 q"
1("
b1 +"
b1 3"
b101 *"
b1010 ."
b101 V
b101 u
b101 9"
1N
1M
b1 f
b1 w
b1 4"
1a
b10100 Y"
b100010101010100000000000001010 ,"
b101 E"
b1010 F"
b10000 2
b10000 <
b10000 R
b10000 ["
b10000 X"
b100010101010100000000000001010 8"
b100010101010100000000000001010 @"
1&
#85
0&
#90
b10100000000 U"
b10100000000 S"
b100010110011000000010100000000 X
b100010110011000000010100000000 -"
b100010110011000000010100000000 Z"
b100010110011000000010100000000 4
b100010110011000000010100000000 D
b100010110011000000010100000000 H
b100010110011000000010100000000 Q"
b10 L
b10 o
b10 ="
0("
b10 +"
b10 3"
b110 2"
b110 1"
b0 *"
b0 ."
b0 T"
b0 R"
b0 `
b0 k
b0 P"
b0 U
b0 s
b0 :"
b0 T
b0 n
b0 ;"
b110 V
b110 u
b110 9"
1N
1M
b10 f
b10 w
b10 4"
0K
0J
1a
b0 #"
b0 {
b0 [
b0 $"
b0 t"
1Z
b0 ]
b0 !"
b0 r"
b110 ^
b110 ~
b110 q"
b100110000000000000000000000 ,"
b110 G"
b0 E"
b0 F"
b11000 Y"
b0 Q
b0 r
b0 n"
b0 P
b0 q
b0 o"
b1010 i"
b100110000000000000000000000 8"
b100110000000000000000000000 @"
b10100 2
b10100 <
b10100 R
b10100 ["
b10100 X"
1&
#95
0&
#100
b0 U"
b0 S"
b10000000000010000000000000000000 X
b10000000000010000000000000000000 -"
b10000000000010000000000000000000 Z"
b10000000000010000000000000000000 4
b10000000000010000000000000000000 D
b10000000000010000000000000000000 H
b10000000000010000000000000000000 Q"
b10100000000 [
b10100000000 $"
b10100000000 t"
b10100000000 #"
b10100000000 {
b110 ]
b110 !"
b110 r"
b110 T
b110 n
b110 ;"
b10100000000 T"
b10100000000 R"
b10100000000 `
b10100000000 k
b10100000000 P"
b10100000000 U
b10100000000 s
b10100000000 :"
1K
1J
b1 L
b1 o
b1 ="
1Z
b110 ^
b110 ~
b110 q"
1("
b1 +"
b1 3"
b110 *"
b10100000000 ."
b110 V
b110 u
b110 9"
1N
1M
b1 f
b1 w
b1 4"
1a
b11100 Y"
b100010110011000000010100000000 ,"
b110 E"
b10100000000 F"
b11000 2
b11000 <
b11000 R
b11000 ["
b11000 X"
b100010110011000000010100000000 8"
b100010110011000000010100000000 @"
1&
#105
0&
#110
b100010001000000000000000000000 X
b100010001000000000000000000000 -"
b100010001000000000000000000000 Z"
b1 9
b1 C
b1 G
b1 I
b1 l
b100010001000000000000000000000 4
b100010001000000000000000000000 D
b100010001000000000000000000000 H
b100010001000000000000000000000 Q"
11
b10000000000 :
b10000000000 >
b10000000000 g
b10000000000 |
1W
b0 L
b0 o
b0 ="
b10 Y
b10 t
b10 6"
b10 0"
0("
b0 +"
b0 3"
b0 2"
b0 1"
b100 *"
b0 ."
b0 T"
b0 R"
b0 `
b0 k
b0 P"
b0 U
b0 s
b0 :"
b100 T
b100 n
b100 ;"
b0 V
b0 u
b0 9"
0N
0M
b0 f
b0 w
b0 4"
0K
0J
0a
b0 #"
b0 {
b1 [
b1 $"
b1 t"
1Z
b100 ]
b100 !"
b100 r"
b0 ^
b0 ~
b0 q"
b10000000000010000000000000000000 ,"
b0 G"
b100 E"
b0 F"
b100000 Y"
b0 Q
b0 r
b0 n"
b10000000000 P
b10000000000 q
b10000000000 o"
b10100000000 j"
b10000000000010000000000000000000 8"
b10000000000010000000000000000000 @"
b11100 2
b11100 <
b11100 R
b11100 ["
b11100 X"
1&
#115
0&
#120
b100010010000000000000000000000 X
b100010010000000000000000000000 -"
b100010010000000000000000000000 Z"
b100010010000000000000000000000 4
b100010010000000000000000000000 D
b100010010000000000000000000000 H
b100010010000000000000000000000 Q"
b1 #"
b1 ^
b1 ~
b1 q"
1M
1N
b1 V
b1 u
b1 9"
1a
1K
1J
b1 f
b1 w
b1 4"
b1 L
b1 o
b1 ="
b0 Y
b0 t
b0 6"
b0 0"
1("
b1 +"
b1 3"
b1 2"
b1 1"
b0 *"
b0 T
b0 n
b0 ;"
0W
b100100 Y"
b100010001000000000000000000000 ,"
b1 G"
b0 E"
b0 :
b0 >
b0 g
b0 |
01
b1 [
b1 $"
b1 t"
1Z
b1 P
b1 q
b1 o"
b0 ]
b0 !"
b0 r"
b100000 2
b100000 <
b100000 R
b100000 ["
b100000 X"
b100010001000000000000000000000 8"
b100010001000000000000000000000 @"
b0 Q
b0 r
b0 n"
b1 O
b1 p
b1 p"
b1 ^"
1&
#125
0&
#130
b100 U"
b100 S"
b100010100010000000000000000100 X
b100010100010000000000000000100 -"
b100010100010000000000000000100 Z"
b100010100010000000000000000100 4
b100010100010000000000000000100 D
b100010100010000000000000000100 H
b100010100010000000000000000100 Q"
b10 2"
b10 1"
b10 V
b10 u
b10 9"
1N
1M
b1 f
b1 w
b1 4"
1K
1J
1a
b1 #"
b1 [
b1 $"
b1 t"
1Z
b10 ^
b10 ~
b10 q"
b100010010000000000000000000000 ,"
b10 G"
b101000 Y"
b0 Q
b0 r
b0 n"
b1 _"
b100010010000000000000000000000 8"
b100010010000000000000000000000 @"
b100100 2
b100100 <
b100100 R
b100100 ["
b100100 X"
1&
#135
0&
#140
b1 U"
b1 S"
b100100101010100000000000000001 X
b100100101010100000000000000001 -"
b100100101010100000000000000001 Z"
b100100101010100000000000000001 4
b100100101010100000000000000001 D
b100100101010100000000000000001 H
b100100101010100000000000000001 Q"
b100 {
b10000000000 P
b10000000000 q
b10000000000 o"
b100 ]
b100 !"
b100 r"
b100 T
b100 n
b100 ;"
b100 T"
b100 R"
b100 `
b100 k
b100 P"
b100 U
b100 s
b100 :"
b100 2"
b100 1"
b100 *"
b100 ."
b100 V
b100 u
b100 9"
1N
1M
b1 f
b1 w
b1 4"
1K
1J
1a
b101100 Y"
b100010100010000000000000000100 ,"
b100 G"
b100 E"
b100 F"
b10000000100 #"
b10000000100 [
b10000000100 $"
b10000000100 t"
1Z
b100 ^
b100 ~
b100 q"
b101000 2
b101000 <
b101000 R
b101000 ["
b101000 X"
b100010100010000000000000000100 8"
b100010100010000000000000000100 @"
b10000000000 Q
b10000000000 r
b10000000000 n"
b1 f"
1&
#145
0&
#150
b0 U"
b0 S"
b110100111010100000000000000000 X
b110100111010100000000000000000 -"
b110100111010100000000000000000 Z"
b110100111010100000000000000000 4
b110100111010100000000000000000 D
b110100111010100000000000000000 H
b110100111010100000000000000000 Q"
b10 L
b10 o
b10 ="
b10 +"
b10 3"
b101 2"
b101 1"
b101 *"
b1 ."
b1 T"
b1 R"
b1 `
b1 k
b1 P"
b1 U
b1 s
b1 :"
b101 T
b101 n
b101 ;"
b101 V
b101 u
b101 9"
1N
1M
b10 f
b10 w
b10 4"
0K
1J
1a
b1001 #"
b1 {
b1001 [
b1001 $"
b1001 t"
1Z
b101 ]
b101 !"
b101 r"
b101 ^
b101 ~
b101 q"
b100100101010100000000000000001 ,"
b101 G"
b101 E"
b1 F"
b110000 Y"
b1010 Q
b1010 r
b1010 n"
b1010 P
b1010 q
b1010 o"
b10000000100 h"
b100100101010100000000000000001 8"
b100100101010100000000000000001 @"
b101100 2
b101100 <
b101100 R
b101100 ["
b101100 X"
1&
#155
0&
#160
b111100 U"
b111100 S"
b11000010000000000000000000111100 X
b11000010000000000000000000111100 -"
b11000010000000000000000000111100 Z"
b11000010000000000000000000111100 4
b11000010000000000000000000111100 D
b11000010000000000000000000111100 H
b11000010000000000000000000111100 Q"
b10 z
b1010 L
b1010 o
b1010 ="
b1010 +"
b111 2"
b111 1"
b0 ."
b0 T"
b0 R"
b0 `
b0 k
b0 P"
b0 U
b0 s
b0 :"
b101 T
b101 n
b101 ;"
b111 V
b111 u
b111 9"
1N
1M
b10 f
b10 w
b10 4"
1J
1a
b110100 Y"
b110100111010100000000000000000 ,"
b111 G"
b0 F"
b1001 #"
b0 {
b1001 [
b1001 $"
b1001 t"
1Z
b101 ]
b101 !"
b101 r"
b111 ^
b111 ~
b111 q"
b110000 2
b110000 <
b110000 R
b110000 ["
b110000 X"
b110100111010100000000000000000 8"
b110100111010100000000000000000 @"
b0 Q
b0 r
b0 n"
b1001 P
b1001 q
b1001 o"
b1001 i"
1&
#165
0&
#170
b0 U"
b0 S"
b10000000000010000000000000000000 X
b10000000000010000000000000000000 -"
b10000000000010000000000000000000 Z"
b10000000000010000000000000000000 4
b10000000000010000000000000000000 D
b10000000000010000000000000000000 H
b10000000000010000000000000000000 Q"
1e
b111100 T"
b111100 R"
b111100 `
b111100 k
b111100 P"
b111100 U
b111100 s
b111100 :"
1K
b1 L
b1 o
b1 ="
b11 Y
b11 t
b11 6"
b11 0"
0("
b1 +"
b1 3"
b0 2"
b0 1"
b0 *"
b111100 ."
b0 T
b0 n
b0 ;"
b0 V
b0 u
b0 9"
1N
0M
b1 f
b1 w
b1 4"
0J
0a
b0 #"
b0 [
b0 $"
b0 t"
0Z
b1 P
b1 q
b1 o"
b0 ]
b0 !"
b0 r"
b0 ^
b0 ~
b0 q"
b11000010000000000000000000111100 ,"
b0 G"
b0 E"
b111100 F"
b111000 Y"
b10 y
b1 Q
b1 r
b1 n"
b1001 k"
b11000010000000000000000000111100 8"
b11000010000000000000000000111100 @"
b110100 2
b110100 <
b110100 R
b110100 ["
b110100 X"
1&
#175
0&
#180
b1110010011000100000000000000000 X
b1110010011000100000000000000000 -"
b1110010011000100000000000000000 Z"
b10 9
b10 C
b10 G
b10 I
b10 l
b1110010011000100000000000000000 4
b1110010011000100000000000000000 D
b1110010011000100000000000000000 H
b1110010011000100000000000000000 Q"
1Z
b10 [
b10 $"
b10 t"
11
b10000000100 :
b10000000100 >
b10000000100 g
b10000000100 |
b10000000100 P
b10000000100 q
b10000000100 o"
b100 ]
b100 !"
b100 r"
b100 T
b100 n
b100 ;"
1W
b0 L
b0 o
b0 ="
b10 Y
b10 t
b10 6"
b10 0"
b0 +"
b0 3"
b100 *"
b0 ."
b0 T"
b0 R"
b0 `
b0 k
b0 P"
b0 U
b0 s
b0 :"
0N
b0 f
b0 w
b0 4"
0K
0e
b111100 Y"
b10000000000010000000000000000000 ,"
b100 E"
b0 F"
b111000 2
b111000 <
b111000 R
b111000 ["
b111000 X"
b10000000000010000000000000000000 8"
b10000000000010000000000000000000 @"
1&
#185
0&
#190
b1110100111001100000000000000000 X
b1110100111001100000000000000000 -"
b1110100111001100000000000000000 Z"
b1110100111001100000000000000000 4
b1110100111001100000000000000000 D
b1110100111001100000000000000000 H
b1110100111001100000000000000000 Q"
b0 z
b11 x
b11 ^
b11 ~
b11 q"
b11 V
b11 u
b11 9"
1b
1K
1J
b1 f
b1 w
b1 4"
b1001 L
b1001 o
b1001 ="
b1 Y
b1 t
b1 6"
b1 0"
1("
b1001 +"
b1 3"
b11 2"
b11 1"
b1 *"
b1 T
b1 n
b1 ;"
0W
b0 :
b0 >
b0 g
b0 |
01
b11 [
b11 $"
b11 t"
1Z
b1 P
b1 q
b1 o"
b1 ]
b1 !"
b1 r"
b1110010011000100000000000000000 ,"
b11 G"
b1 E"
b1000000 Y"
b0 Q
b0 r
b0 n"
b10 O
b10 p
b10 p"
b10 ^"
b1110010011000100000000000000000 8"
b1110010011000100000000000000000 @"
b111100 2
b111100 <
b111100 R
b111100 ["
b111100 X"
1&
#195
0&
#200
b1100 U"
b1100 S"
b11000011011000000000000000001100 X
b11000011011000000000000000001100 -"
b11000011011000000000000000001100 Z"
b11000011011000000000000000001100 4
b11000011011000000000000000001100 D
b11000011011000000000000000001100 H
b11000011011000000000000000001100 Q"
b10 z
b1 x
b1010 L
b1010 o
b1010 ="
b1010 +"
b10 3"
b111 2"
b111 1"
b11 *"
b11 T
b11 n
b11 ;"
b111 V
b111 u
b111 9"
b10 f
b10 w
b10 4"
0K
1J
1b
b1000100 Y"
b1110100111001100000000000000000 ,"
b111 G"
b11 E"
b1 [
b1 $"
b1 t"
1Z
b11 P
b11 q
b11 o"
b11 ]
b11 !"
b11 r"
b111 ^
b111 ~
b111 q"
b0 y
b1000000 2
b1000000 <
b1000000 R
b1000000 ["
b1000000 X"
b1110100111001100000000000000000 8"
b1110100111001100000000000000000 @"
b1001 Q
b1001 r
b1001 n"
b11 g"
1&
#205
0&
#210
b0 U"
b0 S"
b100010001001100000000000000000 X
b100010001001100000000000000000 -"
b100010001001100000000000000000 Z"
b100010001001100000000000000000 4
b100010001001100000000000000000 D
b100010001001100000000000000000 H
b100010001001100000000000000000 Q"
1N
b1011 d
b1011 v
b1011 5"
1e
b1100 T"
b1100 R"
b1100 `
b1100 k
b1100 P"
b1100 U
b1100 s
b1100 :"
1K
b1 L
b1 o
b1 ="
b11 Y
b11 t
b11 6"
b11 0"
0("
b1 +"
b1 3"
b1011 2"
b1011 1"
b0 *"
b1100 ."
b0 T
b0 n
b0 ;"
b0 V
b0 u
b0 9"
b1 f
b1 w
b1 4"
0J
0b
b0 [
b0 $"
b0 t"
0Z
b10 P
b10 q
b10 o"
b0 ]
b0 !"
b0 r"
b0 ^
b0 ~
b0 q"
b11000011011000000000000000001100 ,"
b1011 G"
b0 E"
b1100 F"
b1001000 Y"
b10 y
b10 Q
b10 r
b10 n"
b1 k"
b11000011011000000000000000001100 8"
b11000011011000000000000000001100 @"
b1000100 2
b1000100 <
b1000100 R
b1000100 ["
b1000100 X"
1&
#215
0&
#220
b1000 U"
b1000 S"
b11000000000000000000000000001000 X
b11000000000000000000000000001000 -"
b11000000000000000000000000001000 Z"
b11000000000000000000000000001000 4
b11000000000000000000000000001000 D
b11000000000000000000000000001000 H
b11000000000000000000000000001000 Q"
b11 [
b11 $"
b11 t"
b11 #"
1Z
b11 P
b11 q
b11 o"
b11 ]
b11 !"
b11 r"
b1 Q
b1 r
b1 n"
b1 ^
b1 ~
b1 q"
1M
b11 T
b11 n
b11 ;"
b1 V
b1 u
b1 9"
1a
1J
b0 Y
b0 t
b0 6"
b0 0"
1("
b1 2"
b1 1"
b11 *"
b0 ."
b0 T"
b0 R"
b0 `
b0 k
b0 P"
b0 U
b0 s
b0 :"
1N
b0 d
b0 v
b0 5"
b1 f
b1 w
b1 4"
1K
0e
b1010000 Y"
b100010001001100000000000000000 ,"
b1 G"
b11 E"
b0 F"
b1001000 2
b1001000 <
b1001000 R
b1001000 ["
b1001000 X"
b100010001001100000000000000000 8"
b100010001001100000000000000000 @"
1&
#225
0&
