Project_2_SCC/src/dump.vcd
$date
	Sun Nov 02 16:04:32 2025
$end
$version
	Icarus Verilog
$end
$timescale
	1ps
$end
$scope module oct_10_checkpoint $end
$var wire 32 ! instruction_memory_v [31:0] $end
$var wire 1 " halt_f $end
$var wire 2 # err_bits [1:0] $end
$var wire 32 $ data_memory_in_v [31:0] $end
$var reg 1 % clk $end
$var reg 1 & clk_en $end
$var reg 1 ' rst $end
$scope module topMod $end
$var wire 1 % clk $end
$var wire 1 & clk_en $end
$var wire 1 ' rst $end
$var wire 1 ( writeBit $end
$var wire 1 ) readBit $end
$var wire 32 * programCounter [31:0] $end
$var wire 32 + instruction_memory_v [31:0] $end
$var wire 32 , instruction [31:0] $end
$var wire 1 " halt_f $end
$var wire 2 - err_bits [1:0] $end
$var wire 32 . data_memory_in_v [31:0] $end
$var wire 32 / dataOutMem [31:0] $end
$var wire 32 0 dataIn [31:0] $end
$var wire 32 1 addressFetch [31:0] $end
$scope module memMod $end
$var wire 1 2 instruction_memory_en $end
$var wire 1 % mem_Clk $end
$var wire 32 3 instruction_memory_a [31:0] $end
$var wire 1 " halt_f $end
$var wire 1 ( data_memory_write $end
$var wire 1 ) data_memory_read $end
$var wire 32 4 data_memory_out_v [31:0] $end
$var wire 32 5 data_memory_a [31:0] $end
$var reg 8 6 a [7:0] $end
$var reg 8 7 b [7:0] $end
$var reg 8 8 c [7:0] $end
$var reg 8 9 d [7:0] $end
$var reg 32 : data_memory_in_v [31:0] $end
$var reg 32 ; instruction_memory_v [31:0] $end
$var integer 32 < fd [31:0] $end
$var integer 32 = i [31:0] $end
$upscope $end
$scope module scc $end
$var wire 1 % clk $end
$var wire 1 & clk_en $end
$var wire 32 > dataIn [31:0] $end
$var wire 32 ? instruction [31:0] $end
$var wire 32 @ memoryDataIn [31:0] $end
$var wire 1 ' rst $end
$var wire 1 ( writeFlag $end
$var wire 1 A specialEncoding $end
$var wire 1 B setFlags $end
$var wire 4 C secondLevelDecode [3:0] $end
$var wire 1 D regWrite $end
$var wire 1 E regRead $end
$var wire 32 F readDataSec [31:0] $end
$var wire 32 G readDataFirst [31:0] $end
$var wire 32 H readDataDest [31:0] $end
$var wire 32 I programCounter [31:0] $end
$var wire 4 J out_sourceSecReg [3:0] $end
$var wire 4 K out_sourceFirstReg [3:0] $end
$var wire 16 L out_imm [15:0] $end
$var wire 4 M out_destRegister [3:0] $end
$var wire 1 ) memoryRead $end
$var wire 1 N loadStore $end
$var wire 32 O instrcutionForID [31:0] $end
$var wire 1 " halt $end
$var wire 2 P firstLevelDecode [1:0] $end
$var wire 1 Q exe_writeToReg $end
$var wire 32 R exe_writeData [31:0] $end
$var wire 4 S exe_readRegSec [3:0] $end
$var wire 4 T exe_readRegFirst [3:0] $end
$var wire 4 U exe_readRegDest [3:0] $end
$var wire 1 V exeOverride $end
$var wire 16 W exeData [15:0] $end
$var wire 1 X dataRegisterImm $end
$var wire 1 Y dataRegister $end
$var wire 32 Z dataOut [31:0] $end
$var wire 4 [ branchInstruction [3:0] $end
$var wire 1 \ branch $end
$var wire 3 ] aluFunction [2:0] $end
$var wire 32 ^ addressIn [31:0] $end
$var reg 32 _ data_memory_v [31:0] $end
$var reg 2 ` err_bits [1:0] $end
$var reg 32 a instruction_memory_v [31:0] $end
$scope module EXE $end
$var wire 1 % clk $end
$var wire 4 b flags_back_in [3:0] $end
$var wire 32 c memoryDataIn [31:0] $end
$var wire 7 d opcode_in [6:0] $end
$var wire 1 ' rst $end
$var wire 1 A specialEncoding $end
$var wire 4 e sourceSecReg [3:0] $end
$var wire 4 f sourceFirstReg [3:0] $end
$var wire 1 B setFlags $end
$var wire 4 g secondLevelDecode [3:0] $end
$var wire 32 h readDataSec [31:0] $end
$var wire 32 i readDataFirst [31:0] $end
$var wire 32 j readDataDest [31:0] $end
$var wire 16 k imm [15:0] $end
$var wire 2 l firstLevelDecode [1:0] $end
$var wire 4 m destReg [3:0] $end
$var wire 4 n branchInstruction [3:0] $end
$var wire 3 o aluFunctions [2:0] $end
$var reg 33 p aluRegister [32:0] $end
$var reg 16 q exeData [15:0] $end
$var reg 1 V exeOverride $end
$var reg 4 r flags [3:0] $end
$var reg 4 s flags_next [3:0] $end
$var reg 4 t flags_out [3:0] $end
$var reg 32 u immExt [31:0] $end
$var reg 32 v memoryAddressOut [31:0] $end
$var reg 32 w memoryAddressOut_next [31:0] $end
$var reg 32 x memoryDataOut [31:0] $end
$var reg 32 y memoryDataOut_next [31:0] $end
$var reg 1 ) memoryRead $end
$var reg 1 ( memoryWrite $end
$var reg 1 z memoryWrite_next $end
$var reg 4 { readDestinationRegister_next [3:0] $end
$var reg 4 | readFirstRegister_next [3:0] $end
$var reg 4 } readRegDest [3:0] $end
$var reg 4 ~ readRegFirst [3:0] $end
$var reg 4 !" readRegSec [3:0] $end
$var reg 33 "" tempDiff [32:0] $end
$var reg 32 #" writeData [31:0] $end
$var reg 1 Q writeToReg $end
$var reg 1 $" writeToReg_next $end
$upscope $end
$scope module ID $end
$var wire 1 % clk $end
$var wire 1 ' rst $end
$var wire 1 %" specialBit $end
$var wire 4 &" sourceSecReg [3:0] $end
$var wire 4 '" sourceFirstReg [3:0] $end
$var wire 4 (" secondLevelDecode [3:0] $end
$var wire 32 )" instruction [31:0] $end
$var wire 16 *" imm [15:0] $end
$var wire 2 +" firstLevelDecode [1:0] $end
$var wire 4 ," destReg [3:0] $end
$var wire 4 -" branchCondition [3:0] $end
$var wire 3 ." aluOperationCommands [2:0] $end
$var reg 3 /" aluFunction [2:0] $end
$var reg 1 \ branch $end
$var reg 4 0" branchInstruction [3:0] $end
$var reg 1 Y dataRegister $end
$var reg 1 X dataRegisterImm $end
$var reg 2 1" firstLevelDecode_out [1:0] $end
$var reg 1 " halt $end
$var reg 1 N loadStore $end
$var reg 4 2" out_destRegister [3:0] $end
$var reg 16 3" out_imm [15:0] $end
$var reg 4 4" out_sourceFirstReg [3:0] $end
$var reg 4 5" out_sourceSecReg [3:0] $end
$var reg 1 E regRead $end
$var reg 1 D regWrite $end
$var reg 4 6" secondLevelDecode_out [3:0] $end
$var reg 1 B setFlags $end
$var reg 1 A specialEncoding $end
$upscope $end
$scope module IF $end
$var wire 1 % clk $end
$var wire 16 7" exeData [15:0] $end
$var wire 1 V exeOverride $end
$var wire 32 8" fetchedInstruction [31:0] $end
$var wire 16 9" imm16_exe [15:0] $end
$var wire 1 ' rst $end
$var wire 16 :" imm16 [15:0] $end
$var wire 32 ;" branchOffsetAddress_exe [31:0] $end
$var wire 32 <" branchOffsetAddress [31:0] $end
$var parameter 32 =" sFilter $end
$var parameter 32 >" sIdle $end
$var reg 32 ?" PC [31:0] $end
$var reg 32 @" PC_next [31:0] $end
$var reg 32 A" filteredInstruction [31:0] $end
$var reg 32 B" programCounter [31:0] $end
$var reg 2 C" state [1:0] $end
$var reg 2 D" stateNext [1:0] $end
$upscope $end
$scope module REGFILE $end
$var wire 1 % clk $end
$var wire 32 E" dbg_R0 [31:0] $end
$var wire 32 F" dbg_R1 [31:0] $end
$var wire 32 G" dbg_R10 [31:0] $end
$var wire 32 H" dbg_R11 [31:0] $end
$var wire 32 I" dbg_R12 [31:0] $end
$var wire 32 J" dbg_R13 [31:0] $end
$var wire 32 K" dbg_R14 [31:0] $end
$var wire 32 L" dbg_R15 [31:0] $end
$var wire 32 M" dbg_R2 [31:0] $end
$var wire 32 N" dbg_R3 [31:0] $end
$var wire 32 O" dbg_R4 [31:0] $end
$var wire 32 P" dbg_R5 [31:0] $end
$var wire 32 Q" dbg_R6 [31:0] $end
$var wire 32 R" dbg_R7 [31:0] $end
$var wire 32 S" dbg_R8 [31:0] $end
$var wire 32 T" dbg_R9 [31:0] $end
$var wire 32 U" out_rd [31:0] $end
$var wire 32 V" out_rs1 [31:0] $end
$var wire 32 W" out_rs2 [31:0] $end
$var wire 4 X" rd [3:0] $end
$var wire 4 Y" rs1 [3:0] $end
$var wire 4 Z" rs2 [3:0] $end
$var wire 1 ' rst $end
$var wire 1 Q write $end
$var wire 32 [" writeData [31:0] $end
$var integer 32 \" i [31:0] $end
$upscope $end
$upscope $end
$upscope $end
$upscope $end
$enddefinitions $end
$comment Show the parameter values. $end
$dumpall
b0 >"
b1 ="
$end
#0
$dumpvars
b10000 \"
b0 ["
b0 Z"
b0 Y"
b0 X"
b0 W"
b0 V"
b0 U"
b0 T"
b0 S"
b0 R"
b0 Q"
b0 P"
b0 O"
b0 N"
b0 M"
b0 L"
b0 K"
b0 J"
b0 I"
b0 H"
b0 G"
b0 F"
b0 E"
b0 D"
b0 C"
b0 B"
bx A"
b100 @"
b0 ?"
b10000000000 <"
bx ;"
b10000000000 :"
bx 9"
b10000000000 8"
bx 7"
bx 6"
bx 5"
bx 4"
bx 3"
bx 2"
bx 1"
bx 0"
bx /"
bx ."
bx -"
bx ,"
bx +"
bx *"
bx )"
bx ("
bx '"
bx &"
x%"
0$"
b0 #"
b0 ""
b0 !"
b0 ~
b0 }
b0 |
b0 {
0z
b0 y
b0 x
b0 w
b0 v
b0 u
b0 t
b0 s
b0 r
bx q
bx p
bx o
bx n
bx m
bx l
bx k
b0 j
b0 i
b0 h
bx g
bx f
bx e
bz d
bx c
bz b
bx a
bx `
bx _
b0 ^
bx ]
x\
bx [
b0 Z
xY
xX
bx W
0V
b0 U
b0 T
b0 S
b0 R
0Q
bx P
bx O
xN
bx M
bx L
bx K
bx J
b0 I
b0 H
b0 G
b0 F
xE
xD
bx C
xB
xA
bx @
b10000000000 ?
bx >
bx =
bx <
b10000000000 ;
bx :
bx 9
bx 8
bx 7
bx 6
b0 5
b0 4
b0 3
12
b0 1
bx 0
b0 /
bx .
bx -
b10000000000 ,
bx +
b0 *
x)
0(
1'
1&
1%
bx $
bx #
x"
bx !
$end
#5
0%
#10
b10000 \"
1%
#15
0%
#20
b10000 \"
1%
#25
0%
#30
b0 @"
b1 D"
0'
b10000 \"
1%
#35
0%
#40
1Q
b10000000000 R
b10000000000 #"
b10000000000 ["
b0 C
b0 g
b0 6"
b0 P
b0 l
b0 1"
b10000000000 *"
b0 &"
b0 '"
b0 ,"
b0 -"
b0 ."
b0 ("
0%"
b0 +"
0"
b10000000000 L
b10000000000 k
b10000000000 3"
b0 J
b0 e
b0 5"
b0 K
b0 f
b0 4"
b0 M
b0 m
b0 2"
1E
1D
b0 [
b0 n
b0 0"
b0 ]
b0 o
b0 /"
0B
0A
1X
0Y
0N
0\
b10000000000 O
b10000000000 )"
b10000000000 A"
b100 @"
b1 C"
1%
#45
0%
#50
b100 U
b100 }
b100 X"
b100 M
b100 m
b100 2"
b100 ,"
b100 -"
b10000000000 L
b10000000000 k
b10000000000 3"
1E
1D
1X
b100000000000010000000000 O
b100000000000010000000000 )"
b100000000000010000000000 A"
b100000000000010000000000 ,
b100000000000010000000000 ;
b100000000000010000000000 ?
b100000000000010000000000 8"
b10000000000 R
b10000000000 #"
b10000000000 ["
b1000 @"
1Q
b0 H
b0 j
b0 U"
b10000000000 G
b10000000000 i
b10000000000 V"
b10000000000 F
b10000000000 h
b10000000000 W"
b10000000000 E"
b100 *
b100 3
b100 I
b100 B"
b100 ?"
1%
#55
0%
#60
b1001 *"
b101 ,"
b101 -"
b1001 L
b1001 k
b1001 3"
b101 M
b101 m
b101 2"
1E
1D
1X
b1001 <"
b1001 :"
b101000000000000000001001 O
b101000000000000000001001 )"
b101000000000000000001001 A"
b101000000000000000001001 ,
b101000000000000000001001 ;
b101000000000000000001001 ?
b101000000000000000001001 8"
b1100 @"
b1001 R
b1001 #"
b1001 ["
1Q
b101 U
b101 }
b101 X"
b1000 *
b1000 3
b1000 I
b1000 B"
b1000 ?"
b0 H
b0 j
b0 U"
b10000000000 O"
1%
#65
0%
#70
b0 *"
b111 ,"
b111 -"
b0 L
b0 k
b0 3"
b111 M
b111 m
b111 2"
1E
1D
1X
b0 <"
b0 :"
b111000000000000000000000 O
b111000000000000000000000 )"
b111000000000000000000000 A"
b111000000000000000000000 ,
b111000000000000000000000 ;
b111000000000000000000000 ?
b111000000000000000000000 8"
b0 R
b0 #"
b0 ["
b10000 @"
1Q
b111 U
b111 }
b111 X"
b0 H
b0 j
b0 U"
b1001 P"
b1100 *
b1100 3
b1100 I
b1100 B"
b1100 ?"
1%
#75
0%
#80
b10 s
b1001 R
b1001 #"
b1001 ["
b1001 ""
b1001 G
b1001 i
b1001 V"
b101 T
b101 ~
b101 Y"
b101 K
b101 f
b101 4"
1A
b10 ]
b10 o
b10 /"
b1010 C
b1010 g
b1010 6"
b101 '"
b1110 ,"
b1110 -"
b10 ."
b1010 ("
1%"
b1110 M
b1110 m
b1110 2"
1E
1D
1X
b110101110010100000000000000000 O
b110101110010100000000000000000 )"
b110101110010100000000000000000 A"
b110101110010100000000000000000 ,
b110101110010100000000000000000 ;
b110101110010100000000000000000 ?
b110101110010100000000000000000 8"
b10100 @"
1Q
b0 H
b0 j
b0 U"
b1110 U
b1110 }
b1110 X"
b10000 *
b10000 3
b10000 I
b10000 B"
b10000 ?"
1%
#85
0%
#90
1\
b1010100 L
b1010100 k
b1010100 3"
1B
b1 C
b1 g
b1 6"
b11 P
b11 l
b11 1"
b1010100 *"
b0 '"
b0 ,"
b0 -"
b1 ."
b1 ("
0%"
b11 +"
b0 K
b0 f
b0 4"
b0 M
b0 m
b0 2"
1E
0D
b1 ]
b1 o
b1 /"
0A
0X
b1010100 <"
b1010100 :"
b11000010000000000000000001010100 O
b11000010000000000000000001010100 )"
b11000010000000000000000001010100 A"
b11000010000000000000000001010100 ,
b11000010000000000000000001010100 ;
b11000010000000000000000001010100 ?
b11000010000000000000000001010100 8"
b10 t
b0 ""
b0 R
b0 #"
b0 ["
b11000 @"
0Q
b10000000000 H
b10000000000 j
b10000000000 U"
b0 U
b0 }
b0 X"
b10000000000 G
b10000000000 i
b10000000000 V"
b0 T
b0 ~
b0 Y"
b10 r
b10100 *
b10100 3
b10100 I
b10100 B"
b10100 ?"
1%
#95
0%
#100
b10000000000 w
b101 0
b101 :
b101 >
b101 @
b101 c
1Q
b101 R
b101 #"
b101 ["
b0 H
b0 j
b0 U"
b1 U
b1 }
b1 X"
1)
b10000000000 1
b10000000000 5
b10000000000 ^
b10000000000 v
b100 T
b100 ~
b100 Y"
b100 K
b100 f
b100 4"
b1 M
b1 m
b1 2"
1N
b0 C
b0 g
b0 6"
b10 P
b10 l
b10 1"
b0 *"
b100 '"
b1 ,"
b1 -"
b0 ."
b0 ("
b10 +"
b0 L
b0 k
b0 3"
0E
b0 ]
b0 o
b0 /"
0B
0\
b0 <"
b0 :"
b10000000001010000000000000000000 O
b10000000001010000000000000000000 )"
b10000000001010000000000000000000 A"
b10000000001010000000000000000000 ,
b10000000001010000000000000000000 ;
b10000000001010000000000000000000 ?
b10000000001010000000000000000000 8"
b11100 @"
b11000 *
b11000 3
b11000 I
b11000 B"
b11000 ?"
1%
#105
0%
#110
b1001 p
b0 F
b0 h
b0 W"
b111 S
b111 !"
b111 Z"
b1001 G
b1001 i
b1001 V"
b111 J
b111 e
b111 5"
1Y
b1110000000000000 L
b1110000000000000 k
b1110000000000000 3"
1A
b10 ]
b10 o
b10 /"
b1010 C
b1010 g
b1010 6"
b1 P
b1 l
b1 1"
b1110000000000000 *"
b111 &"
b101 '"
b1110 ,"
b1110 -"
b10 ."
b1010 ("
1%"
b1 +"
b101 K
b101 f
b101 4"
b1110 M
b1110 m
b1110 2"
0N
b11111111111111111110000000000000 <"
b1110000000000000 :"
b1110101110010101110000000000000 O
b1110101110010101110000000000000 )"
b1110101110010101110000000000000 A"
b1110101110010101110000000000000 ,
b1110101110010101110000000000000 ;
b1110101110010101110000000000000 ?
b1110101110010101110000000000000 8"
b1001 R
b1001 #"
b1001 ["
b100000 @"
1Q
b1110 U
b1110 }
b1110 X"
b101 T
b101 ~
b101 Y"
b0 H
b0 j
b0 U"
b101 F"
b11100 *
b11100 3
b11100 I
b11100 B"
b11100 ?"
1%
#115
0%
#120
1E
1\
1B
b1 C
b1 g
b1 6"
b11 P
b11 l
b11 1"
b11000 *"
b0 &"
b0 '"
b0 ,"
b0 -"
b1 ."
b1 ("
0%"
b11 +"
b11000 L
b11000 k
b11000 3"
b0 J
b0 e
b0 5"
b0 K
b0 f
b0 4"
b0 M
b0 m
b0 2"
b1 ]
b1 o
b1 /"
0A
0Y
b11000 <"
b11000 :"
b11000010000000000000000000011000 O
b11000010000000000000000000011000 )"
b11000010000000000000000000011000 A"
b11000010000000000000000000011000 ,
b11000010000000000000000000011000 ;
b11000010000000000000000000011000 ?
b11000010000000000000000000011000 8"
b0 R
b0 #"
b0 ["
b10000000000 F
b10000000000 h
b10000000000 W"
b0 S
b0 !"
b0 Z"
b100100 @"
0Q
b10000000000 H
b10000000000 j
b10000000000 U"
b0 U
b0 }
b0 X"
b10000000000 G
b10000000000 i
b10000000000 V"
b0 T
b0 ~
b0 Y"
b100000 *
b100000 3
b100000 I
b100000 B"
b100000 ?"
1%
#125
0%
#130
b0 C
b0 g
b0 6"
b101000 *"
b0 ."
b0 ("
b101000 L
b101000 k
b101000 3"
1E
b0 ]
b0 o
b0 /"
0B
1\
b101000 <"
b101000 :"
b11000000000000000000000000101000 O
b11000000000000000000000000101000 )"
b11000000000000000000000000101000 A"
b11000000000000000000000000101000 ,
b11000000000000000000000000101000 ;
b11000000000000000000000000101000 ?
b11000000000000000000000000101000 8"
b1001100 @"
b100100 *
b100100 3
b100100 I
b100100 B"
b100100 ?"
1%
#135
0%
#140
b10000000100 w
b11 0
b11 :
b11 >
b11 @
b11 c
1Q
b11 R
b11 #"
b11 ["
b0 H
b0 j
b0 U"
b10 U
b10 }
b10 X"
b10000000100 1
b10000000100 5
b10000000100 ^
b10000000100 v
b100 T
b100 ~
b100 Y"
b100 K
b100 f
b100 4"
b10 M
b10 m
b10 2"
1N
b10 P
b10 l
b10 1"
b100 *"
b100 '"
b10 ,"
b10 -"
b10 +"
b100 L
b100 k
b100 3"
0E
0\
b100 <"
b100 :"
b10000000010010000000000000000100 O
b10000000010010000000000000000100 )"
b10000000010010000000000000000100 A"
b10000000010010000000000000000100 ,
b10000000010010000000000000000100 ;
b10000000010010000000000000000100 ?
b10000000010010000000000000000100 8"
b1010000 @"
b1001100 *
b1001100 3
b1001100 I
b1001100 B"
b1001100 ?"
1%
#145
0%
#150
b1000 s
b111111111111111111111111111111110 p
b101 F
b101 h
b101 W"
b1 S
b1 !"
b1 Z"
b11 G
b11 i
b11 V"
b1 J
b1 e
b1 5"
1Y
1A
b10 ]
b10 o
b10 /"
b1010 C
b1010 g
b1010 6"
b1 P
b1 l
b1 1"
b10000000000000 *"
b1 &"
b10 '"
b1110 ,"
b1110 -"
b10 ."
b1010 ("
1%"
b1 +"
b10000000000000 L
b10000000000000 k
b10000000000000 3"
b10 K
b10 f
b10 4"
b1110 M
b1110 m
b1110 2"
0N
b10000000000000 <"
b10000000000000 :"
b1110101110001000010000000000000 O
b1110101110001000010000000000000 )"
b1110101110001000010000000000000 A"
b1110101110001000010000000000000 ,
b1110101110001000010000000000000 ;
b1110101110001000010000000000000 ?
b1110101110001000010000000000000 8"
b11111111111111111111111111111110 R
b11111111111111111111111111111110 #"
b11111111111111111111111111111110 ["
b1010100 @"
1Q
b1110 U
b1110 }
b1110 X"
b10 T
b10 ~
b10 Y"
b0 H
b0 j
b0 U"
b11 M"
b1010000 *
b1010000 3
b1010000 I
b1010000 B"
b1010000 ?"
1%
#155
0%
#160
b1000 ;"
b1000 9"
b1000 W
b1000 q
b1000 7"
1V
1E
b100 [
b100 n
b100 0"
1\
1B
b1 C
b1 g
b1 6"
b11 P
b11 l
b11 1"
b1000 *"
b0 &"
b0 '"
b100 ,"
b100 -"
b1 ."
b1 ("
0%"
b11 +"
b1000 L
b1000 k
b1000 3"
b0 J
b0 e
b0 5"
b0 K
b0 f
b0 4"
b0 M
b0 m
b0 2"
b1 ]
b1 o
b1 /"
0A
0Y
b1000 <"
b1000 :"
b11000010100000000000000000001000 O
b11000010100000000000000000001000 )"
b11000010100000000000000000001000 A"
b11000010100000000000000000001000 ,
b11000010100000000000000000001000 ;
b11000010100000000000000000001000 ?
b11000010100000000000000000001000 8"
b1000 t
b0 R
b0 #"
b0 ["
b10000000000 F
b10000000000 h
b10000000000 W"
b0 S
b0 !"
b0 Z"
b1011100 @"
b1000 r
0Q
b10000000000 H
b10000000000 j
b10000000000 U"
b0 U
b0 }
b0 X"
b10000000000 G
b10000000000 i
b10000000000 V"
b0 T
b0 ~
b0 Y"
b1010100 *
b1010100 3
b1010100 I
b1010100 B"
b1010100 ?"
1%
#165
0%
#170
1z
b10000000000 y
b1 {
b100 |
b100 K
b100 f
b100 4"
b1 M
b1 m
b1 2"
1N
b10 P
b10 l
b10 1"
0V
b100 *"
b100 '"
b1 ,"
b1 -"
b10 +"
b100 L
b100 k
b100 3"
0E
b0 [
b0 n
b0 0"
b1 ]
b1 o
b1 /"
1B
0\
b100 <"
b100 :"
b10000010001010000000000000000100 O
b10000010001010000000000000000100 )"
b10000010001010000000000000000100 A"
b10000010001010000000000000000100 ,
b10000010001010000000000000000100 ;
b10000010001010000000000000000100 ?
b10000010001010000000000000000100 8"
b1100000 @"
b1011100 *
b1011100 3
b1011100 I
b1011100 B"
b1011100 ?"
1%
#175
0%
#180
b10000000000 w
b0 *"
b10 ,"
b10 -"
b0 L
b0 k
b0 3"
b100 K
b100 f
b100 4"
b10 M
b10 m
b10 2"
b1 ]
b1 o
b1 /"
1B
1N
b0 <"
b0 :"
b10000010010010000000000000000000 O
b10000010010010000000000000000000 )"
b10000010010010000000000000000000 A"
bx 0
bx :
bx >
bx @
bx c
b10000010010010000000000000000000 ,
b10000010010010000000000000000000 ;
b10000010010010000000000000000000 ?
b10000010010010000000000000000000 8"
b10 {
b100 |
1z
b1100100 @"
1(
b10000000000 /
b10000000000 4
b10000000000 Z
b10000000000 x
b10000000000 H
b10000000000 j
b10000000000 U"
b0 U
b0 }
b0 X"
b0 T
b0 ~
b0 Y"
b1100000 *
b1100000 3
b1100000 I
b1100000 B"
b1100000 ?"
1%
#185
0%
#190
1E
b111 J
b111 e
b111 5"
1\
b1111111111000100 L
b1111111111000100 k
b1111111111000100 3"
b0 C
b0 g
b0 6"
b11 P
b11 l
b11 1"
b1111111111000100 *"
b111 &"
b0 '"
b0 ,"
b0 -"
b0 ."
b0 ("
b11 +"
b0 K
b0 f
b0 4"
b0 M
b0 m
b0 2"
b0 ]
b0 o
b0 /"
0B
0N
b11111111111111111111111111000100 <"
b1111111111000100 :"
b11000000000000001111111111000100 O
b11000000000000001111111111000100 )"
b11000000000000001111111111000100 A"
bx 0
bx :
bx >
bx @
bx c
b11000000000000001111111111000100 ,
b11000000000000001111111111000100 ;
b11000000000000001111111111000100 ?
b11000000000000001111111111000100 8"
b0 {
b0 |
0z
b101000 @"
b10000000000 1
b10000000000 5
b10000000000 ^
b10000000000 v
b10000000000 H
b10000000000 j
b10000000000 U"
b0 U
b0 }
b0 X"
b0 T
b0 ~
b0 Y"
b1100100 *
b1100100 3
b1100100 I
b1100100 B"
b1100100 ?"
1%
#195
0%
#200
1Q
b10000000100 R
b10000000100 #"
b10000000100 ["
b10000000100 ""
b100 u
b100 T
b100 ~
b100 Y"
b100 U
b100 }
b100 X"
1D
b100 K
b100 f
b100 4"
b100 M
b100 m
b100 2"
1X
1B
1A
b1 ]
b1 o
b1 /"
b1 C
b1 g
b1 6"
b0 P
b0 l
b0 1"
b100 *"
b0 &"
b100 '"
b100 ,"
b100 -"
b1 ."
b1 ("
1%"
b0 +"
b100 L
b100 k
b100 3"
b0 J
b0 e
b0 5"
1E
0\
b100 <"
b100 :"
b100010100010000000000000000100 O
b100010100010000000000000000100 )"
b100010100010000000000000000100 A"
b10000000000 0
b10000000000 :
b10000000000 >
b10000000000 @
b10000000000 c
b100010100010000000000000000100 ,
b100010100010000000000000000100 ;
b100010100010000000000000000100 ?
b100010100010000000000000000100 8"
b101100 @"
0(
b101000 *
b101000 3
b101000 I
b101000 B"
b101000 ?"
1%
#205
0%
#210
b1 *"
b111 '"
b111 ,"
b111 -"
b1 L
b1 k
b1 3"
b111 K
b111 f
b111 4"
b111 M
b111 m
b111 2"
1E
1D
b1 ]
b1 o
b1 /"
1B
1A
1X
b1 <"
b1 :"
b100010111011100000000000000001 O
b100010111011100000000000000001 )"
b100010111011100000000000000001 A"
b100010111011100000000000000001 ,
b100010111011100000000000000001 ;
b100010111011100000000000000001 ?
b100010111011100000000000000001 8"
b1 ""
b1 u
b1 R
b1 #"
b1 ["
b110000 @"
1Q
b111 U
b111 }
b111 X"
b111 T
b111 ~
b111 Y"
b0 H
b0 j
b0 U"
b0 G
b0 i
b0 V"
b10000000100 O"
b101100 *
b101100 3
b101100 I
b101100 B"
b101100 ?"
1%
#215
0%
#220
b10000000100 1
b10000000100 5
b10000000100 ^
b10000000100 v
1N
b0 C
b0 g
b0 6"
b10 P
b10 l
b10 1"
b0 *"
b100 '"
b1 ,"
b1 -"
b0 ."
b0 ("
0%"
b10 +"
b0 L
b0 k
b0 3"
b100 K
b100 f
b100 4"
b1 M
b1 m
b1 2"
0E
0D
b0 ]
b0 o
b0 /"
0B
0A
0X
b0 <"
b0 :"
b10000000001010000000000000000000 O
b10000000001010000000000000000000 )"
b10000000001010000000000000000000 A"
b10000000001010000000000000000000 ,
b10000000001010000000000000000000 ;
b10000000001010000000000000000000 ?
b10000000001010000000000000000000 8"
b110100 @"
b0 ""
b0 u
b10000000000 R
b10000000000 #"
b10000000000 ["
1Q
b1 U
b1 }
b1 X"
b100 T
b100 ~
b100 Y"
b110000 *
b110000 3
b110000 I
b110000 B"
b110000 ?"
b101 H
b101 j
b101 U"
b10000000100 G
b10000000100 i
b10000000100 V"
b1 R"
1%
#225
0%
#230
1E
b111 J
b111 e
b111 5"
1\
b1111111111101000 L
b1111111111101000 k
b1111111111101000 3"
b11 P
b11 l
b11 1"
b10000000100 w
b1111111111101000 *"
b111 &"
b0 '"
b0 ,"
b0 -"
b11 +"
b0 K
b0 f
b0 4"
b0 M
b0 m
b0 2"
0N
b11111111111111111111111111101000 <"
b1111111111101000 :"
b11000000000000001111111111101000 O
b11000000000000001111111111101000 )"
b11000000000000001111111111101000 A"
b11000000000000001111111111101000 ,
b11000000000000001111111111101000 ;
b11000000000000001111111111101000 ?
b11000000000000001111111111101000 8"
b0 R
b0 #"
b0 ["
b11100 @"
0Q
b10000000100 1
b10000000100 5
b10000000100 ^
b10000000100 v
b0 U
b0 }
b0 X"
b10000000000 G
b10000000000 i
b10000000000 V"
b0 T
b0 ~
b0 Y"
b10000000000 H
b10000000000 j
b10000000000 U"
b10000000000 F"
b110100 *
b110100 3
b110100 I
b110100 B"
b110100 ?"
1%
#235
0%
#240
b10 s
1Q
b1000 R
b1000 #"
b1000 ["
b1000 p
b1 F
b1 h
b1 W"
b111 S
b111 !"
b111 Z"
b1001 G
b1001 i
b1001 V"
b101 T
b101 ~
b101 Y"
b0 H
b0 j
b0 U"
b1110 U
b1110 }
b1110 X"
b101 K
b101 f
b101 4"
b1110 M
b1110 m
b1110 2"
1Y
1A
b10 ]
b10 o
b10 /"
b1010 C
b1010 g
b1010 6"
b1 P
b1 l
b1 1"
b1110000000000000 *"
b101 '"
b1110 ,"
b1110 -"
b10 ."
b1010 ("
1%"
b1 +"
b1110000000000000 L
b1110000000000000 k
b1110000000000000 3"
b111 J
b111 e
b111 5"
0E
0\
b11111111111111111110000000000000 <"
b1110000000000000 :"
b1110101110010101110000000000000 O
b1110101110010101110000000000000 )"
b1110101110010101110000000000000 A"
b1110101110010101110000000000000 ,
b1110101110010101110000000000000 ;
b1110101110010101110000000000000 ?
b1110101110010101110000000000000 8"
b100000 @"
b11100 *
b11100 3
b11100 I
b11100 B"
b11100 ?"
1%
#245
0%
#250
1E
1\
1B
b1 C
b1 g
b1 6"
b11 P
b11 l
b11 1"
b11000 *"
b0 &"
b0 '"
b0 ,"
b0 -"
b1 ."
b1 ("
0%"
b11 +"
b11000 L
b11000 k
b11000 3"
b0 J
b0 e
b0 5"
b0 K
b0 f
b0 4"
b0 M
b0 m
b0 2"
b1 ]
b1 o
b1 /"
0A
0Y
b11000 <"
b11000 :"
b11000010000000000000000000011000 O
b11000010000000000000000000011000 )"
b11000010000000000000000000011000 A"
b11000010000000000000000000011000 ,
b11000010000000000000000000011000 ;
b11000010000000000000000000011000 ?
b11000010000000000000000000011000 8"
b10 t
b0 R
b0 #"
b0 ["
b10000000000 F
b10000000000 h
b10000000000 W"
b0 S
b0 !"
b0 Z"
b100100 @"
0Q
b10000000000 H
b10000000000 j
b10000000000 U"
b0 U
b0 }
b0 X"
b10000000000 G
b10000000000 i
b10000000000 V"
b0 T
b0 ~
b0 Y"
b10 r
b100000 *
b100000 3
b100000 I
b100000 B"
b100000 ?"
1%
#255
0%
#260
b0 C
b0 g
b0 6"
b101000 *"
b0 ."
b0 ("
b101000 L
b101000 k
b101000 3"
1E
b0 ]
b0 o
b0 /"
0B
1\
b101000 <"
b101000 :"
b11000000000000000000000000101000 O
b11000000000000000000000000101000 )"
b11000000000000000000000000101000 A"
b11000000000000000000000000101000 ,
b11000000000000000000000000101000 ;
b11000000000000000000000000101000 ?
b11000000000000000000000000101000 8"
b1001100 @"
b100100 *
b100100 3
b100100 I
b100100 B"
b100100 ?"
1%
#265
0%
