Project_2_SCC/src/dump.vcd
$date
	Sun Nov 02 23:47:31 2025
$end
$version
	Icarus Verilog
$end
$timescale
	1ns
$end
$scope module scc_tb $end
$var wire 32 ! instruction_memory_v_tb [31:0] $end
$var wire 1 " halt_f_tb $end
$var wire 2 # err_bits_tb [1:0] $end
$var wire 32 $ data_memory_in_v_tb [31:0] $end
$var parameter 48 % MEM_BYTES $end
$var reg 1 & clk_en_tb $end
$var reg 1 ' clk_tb $end
$var reg 1 ( rst_tb $end
$scope module dut $end
$var wire 1 ' clk $end
$var wire 1 & clk_en $end
$var wire 1 ( rst $end
$var wire 1 ) writeBit $end
$var wire 1 * readBit $end
$var wire 32 + programCounter [31:0] $end
$var wire 32 , instruction_memory_v [31:0] $end
$var wire 32 - instruction [31:0] $end
$var wire 1 " halt_f $end
$var wire 2 . err_bits [1:0] $end
$var wire 32 / data_memory_in_v [31:0] $end
$var wire 32 0 dataOutMem [31:0] $end
$var wire 32 1 dataIn [31:0] $end
$var wire 32 2 addressFetch [31:0] $end
$scope module memMod $end
$var wire 1 3 instruction_memory_en $end
$var wire 1 ' mem_Clk $end
$var wire 32 4 instruction_memory_a [31:0] $end
$var wire 1 " halt_f $end
$var wire 1 ) data_memory_write $end
$var wire 1 * data_memory_read $end
$var wire 32 5 data_memory_out_v [31:0] $end
$var wire 32 6 data_memory_a [31:0] $end
$var reg 8 7 a [7:0] $end
$var reg 8 8 b [7:0] $end
$var reg 8 9 c [7:0] $end
$var reg 8 : d [7:0] $end
$var reg 32 ; data_memory_in_v [31:0] $end
$var reg 32 < instruction_memory_v [31:0] $end
$var integer 32 = fd [31:0] $end
$var integer 32 > i [31:0] $end
$upscope $end
$scope module scc $end
$var wire 1 ' clk $end
$var wire 1 & clk_en $end
$var wire 32 ? dataIn [31:0] $end
$var wire 32 @ instruction [31:0] $end
$var wire 32 A memoryDataIn [31:0] $end
$var wire 1 ( rst $end
$var wire 1 ) writeFlag $end
$var wire 32 B ucode_inst [31:0] $end
$var wire 1 C specialEncoding $end
$var wire 1 D setFlags $end
$var wire 4 E secondLevelDecode [3:0] $end
$var wire 1 F regWrite $end
$var wire 1 G regRead $end
$var wire 32 H readDataSec [31:0] $end
$var wire 32 I readDataFirst [31:0] $end
$var wire 32 J readDataDest [31:0] $end
$var wire 32 K programCounter [31:0] $end
$var wire 4 L out_sourceSecReg [3:0] $end
$var wire 4 M out_sourceFirstReg [3:0] $end
$var wire 16 N out_imm [15:0] $end
$var wire 4 O out_destRegister [3:0] $end
$var wire 7 P opcode [6:0] $end
$var wire 1 Q mux_ctrl $end
$var wire 2 R mul_type [1:0] $end
$var wire 1 S mul_trigger $end
$var wire 1 T mul_release $end
$var wire 1 * memoryRead $end
$var wire 1 U loadStore $end
$var wire 32 V instructionForID [31:0] $end
$var wire 1 " halt $end
$var wire 4 W flags_ucode_to_exe [3:0] $end
$var wire 4 X flags_out [3:0] $end
$var wire 2 Y firstLevelDecode [1:0] $end
$var wire 32 Z filtered_instruction [31:0] $end
$var wire 1 [ exe_writeToReg $end
$var wire 32 \ exe_writeData [31:0] $end
$var wire 4 ] exe_readRegSec [3:0] $end
$var wire 4 ^ exe_readRegFirst [3:0] $end
$var wire 4 _ exe_readRegDest [3:0] $end
$var wire 1 ` exeOverrideBR $end
$var wire 1 a exeOverride $end
$var wire 16 b exeData [15:0] $end
$var wire 1 c dataRegisterImm $end
$var wire 1 d dataRegister $end
$var wire 32 e dataOut [31:0] $end
$var wire 4 f branchInstruction [3:0] $end
$var wire 1 g branch $end
$var wire 3 h aluFunction [2:0] $end
$var wire 32 i addressIn [31:0] $end
$var reg 32 j data_memory_v [31:0] $end
$var reg 2 k err_bits [1:0] $end
$var reg 32 l instruction_memory_v [31:0] $end
$scope module EXE $end
$var wire 1 ' clk $end
$var wire 16 m exeData [15:0] $end
$var wire 32 n memoryDataIn [31:0] $end
$var wire 1 ( rst $end
$var wire 1 C specialEncoding $end
$var wire 4 o sourceSecReg [3:0] $end
$var wire 4 p sourceFirstReg [3:0] $end
$var wire 1 D setFlags $end
$var wire 4 q secondLevelDecode [3:0] $end
$var wire 32 r readDataSec [31:0] $end
$var wire 32 s readDataFirst [31:0] $end
$var wire 32 t readDataDest [31:0] $end
$var wire 7 u opcode_in [6:0] $end
$var wire 2 v mul_type [1:0] $end
$var wire 1 T mul_release $end
$var wire 16 w imm [15:0] $end
$var wire 4 x flags_back_in [3:0] $end
$var wire 2 y firstLevelDecode [1:0] $end
$var wire 4 z destReg [3:0] $end
$var wire 4 { branchInstruction [3:0] $end
$var wire 3 | aluFunctions [2:0] $end
$var reg 33 } aluRegister [32:0] $end
$var reg 1 a exeOverride $end
$var reg 1 ` exeOverrideBR $end
$var reg 4 ~ flags [3:0] $end
$var reg 4 !" flags_next [3:0] $end
$var reg 4 "" flags_out [3:0] $end
$var reg 1 #" help_trigger $end
$var reg 32 $" immExt [31:0] $end
$var reg 32 %" mem_addr_latched [31:0] $end
$var reg 32 &" mem_data_latched [31:0] $end
$var reg 1 '" mem_write_latched $end
$var reg 32 (" memoryAddressOut [31:0] $end
$var reg 32 )" memoryDataOut [31:0] $end
$var reg 1 * memoryRead $end
$var reg 1 ) memoryWrite $end
$var reg 4 *" readRegDest [3:0] $end
$var reg 4 +" readRegFirst [3:0] $end
$var reg 4 ," readRegSec [3:0] $end
$var reg 33 -" tempDiff [32:0] $end
$var reg 32 ." writeData [31:0] $end
$var reg 1 [ writeToReg $end
$upscope $end
$scope module ID $end
$var wire 1 ' clk $end
$var wire 1 ( rst $end
$var wire 1 /" specialBit $end
$var wire 4 0" sourceSecReg [3:0] $end
$var wire 4 1" sourceFirstReg [3:0] $end
$var wire 4 2" secondLevelDecode [3:0] $end
$var wire 7 3" opcode [6:0] $end
$var wire 32 4" instruction [31:0] $end
$var wire 16 5" imm [15:0] $end
$var wire 2 6" firstLevelDecode [1:0] $end
$var wire 4 7" destReg [3:0] $end
$var wire 4 8" branchCondition [3:0] $end
$var wire 3 9" aluOperationCommands [2:0] $end
$var reg 3 :" aluFunction [2:0] $end
$var reg 1 g branch $end
$var reg 4 ;" branchInstruction [3:0] $end
$var reg 1 d dataRegister $end
$var reg 1 c dataRegisterImm $end
$var reg 2 <" firstLevelDecode_out [1:0] $end
$var reg 1 " halt $end
$var reg 1 U loadStore $end
$var reg 1 S mul_trigger $end
$var reg 2 =" mul_type [1:0] $end
$var reg 7 >" opcode_out [6:0] $end
$var reg 4 ?" out_destRegister [3:0] $end
$var reg 16 @" out_imm [15:0] $end
$var reg 4 A" out_sourceFirstReg [3:0] $end
$var reg 4 B" out_sourceSecReg [3:0] $end
$var reg 1 G regRead $end
$var reg 1 F regWrite $end
$var reg 4 C" secondLevelDecode_out [3:0] $end
$var reg 1 D setFlags $end
$var reg 1 C specialEncoding $end
$upscope $end
$scope module IF $end
$var wire 1 ' clk $end
$var wire 16 D" exeData [15:0] $end
$var wire 1 a exeOverride $end
$var wire 1 ` exeOverrideBR $end
$var wire 32 E" fetchedInstruction [31:0] $end
$var wire 16 F" imm16_exe [15:0] $end
$var wire 1 S mul_trigger $end
$var wire 7 G" opcode [6:0] $end
$var wire 1 ( rst $end
$var wire 32 H" readDataFirst [31:0] $end
$var wire 1 T mul_release $end
$var wire 16 I" imm16 [15:0] $end
$var wire 32 J" for_br [31:0] $end
$var wire 32 K" branchOffsetAddress_exe [31:0] $end
$var wire 32 L" branchOffsetAddress [31:0] $end
$var parameter 32 M" sFilter $end
$var parameter 32 N" sIdle $end
$var parameter 32 O" sUcode $end
$var reg 32 P" PC_next [31:0] $end
$var reg 32 Q" filteredInstruction [31:0] $end
$var reg 32 R" programCounter [31:0] $end
$var reg 2 S" state [1:0] $end
$var reg 2 T" stateNext [1:0] $end
$var reg 32 U" true_for_br [31:0] $end
$upscope $end
$scope module REGFILE $end
$var wire 1 ' clk $end
$var wire 32 V" dbg_R0 [31:0] $end
$var wire 32 W" dbg_R1 [31:0] $end
$var wire 32 X" dbg_R10 [31:0] $end
$var wire 32 Y" dbg_R11 [31:0] $end
$var wire 32 Z" dbg_R12 [31:0] $end
$var wire 32 [" dbg_R13 [31:0] $end
$var wire 32 \" dbg_R14 [31:0] $end
$var wire 32 ]" dbg_R15 [31:0] $end
$var wire 32 ^" dbg_R2 [31:0] $end
$var wire 32 _" dbg_R3 [31:0] $end
$var wire 32 `" dbg_R4 [31:0] $end
$var wire 32 a" dbg_R5 [31:0] $end
$var wire 32 b" dbg_R6 [31:0] $end
$var wire 32 c" dbg_R7 [31:0] $end
$var wire 32 d" dbg_R8 [31:0] $end
$var wire 32 e" dbg_R9 [31:0] $end
$var wire 32 f" out_rd [31:0] $end
$var wire 32 g" out_rs1 [31:0] $end
$var wire 32 h" out_rs2 [31:0] $end
$var wire 4 i" rd [3:0] $end
$var wire 4 j" rs1 [3:0] $end
$var wire 4 k" rs2 [3:0] $end
$var wire 1 ( rst $end
$var wire 1 [ write $end
$var wire 32 l" writeData [31:0] $end
$var integer 32 m" i [31:0] $end
$upscope $end
$scope module Ucode $end
$var wire 1 ' clk $end
$var wire 4 n" dest_reg [3:0] $end
$var wire 4 o" flags_in [3:0] $end
$var wire 16 p" immediate [15:0] $end
$var wire 2 q" mul_type [1:0] $end
$var wire 32 r" readDataSecond [31:0] $end
$var wire 1 ( rst $end
$var wire 4 s" source_reg [3:0] $end
$var wire 1 S start_mul $end
$var parameter 7 t" ADDS_OPCODE $end
$var parameter 7 u" ADD_OPCODE $end
$var parameter 7 v" MOV_OPCODE $end
$var parameter 2 w" MULI $end
$var parameter 2 x" MULR $end
$var parameter 2 y" MULSI $end
$var parameter 2 z" MULSR $end
$var parameter 7 {" NOT_OPCODE $end
$var parameter 7 |" SUBI_OPCODE $end
$var parameter 7 }" SUBS_OPCODE $end
$var parameter 7 ~" SUB_OPCODE $end
$var parameter 3 !# sClear $end
$var parameter 3 "# sFix_it $end
$var parameter 3 ## sHalt $end
$var parameter 3 $# sIdle $end
$var parameter 3 %# sKeep_adding $end
$var parameter 3 &# sMov $end
$var reg 16 '# corrected_imm [15:0] $end
$var reg 32 (# corrected_readDataSecond [31:0] $end
$var reg 16 )# count_next [15:0] $end
$var reg 16 *# count_reg [15:0] $end
$var reg 4 +# dest_reg_hold [3:0] $end
$var reg 2 ,# fix [1:0] $end
$var reg 2 -# fix_next [1:0] $end
$var reg 4 .# flags_back_out [3:0] $end
$var reg 4 /# flags_hold [3:0] $end
$var reg 1 T mul_release $end
$var reg 1 Q mux_ctrl $end
$var reg 32 0# output_instruction [31:0] $end
$var reg 32 1# register_decrementer_count [31:0] $end
$var reg 32 2# register_decrementer_count_next [31:0] $end
$var reg 3 3# state_next [2:0] $end
$var reg 3 4# state_reg [2:0] $end
$var reg 2 5# true_mul_type [1:0] $end
$var reg 4 6# true_source_reg [3:0] $end
$upscope $end
$scope module mux $end
$var wire 1 Q control $end
$var wire 32 7# filtered_instruction [31:0] $end
$var wire 32 8# ucode_instruction [31:0] $end
$var reg 32 9# finalized_instruction [31:0] $end
$upscope $end
$upscope $end
$upscope $end
$scope begin COMPARE $end
$var reg 32 :# addr [31:0] $end
$var reg 32 ;# addr2 [31:0] $end
$var reg 32 <# got_word [31:0] $end
$var reg 256 =# line [255:0] $end
$var reg 256 ># line2 [255:0] $end
$var reg 32 ?# value [31:0] $end
$var reg 32 @# value2 [31:0] $end
$var integer 32 A# fd [31:0] $end
$var integer 32 B# fd2 [31:0] $end
$var integer 32 C# line_num [31:0] $end
$var integer 32 D# matched [31:0] $end
$var integer 32 E# matched2 [31:0] $end
$upscope $end
$upscope $end
$enddefinitions $end
$comment Show the parameter values. $end
$dumpall
b10 &#
b11 %#
b0 $#
b100 ##
b101 "#
b1 !#
b110010 ~"
b111010 }"
b10010 |"
b110110 {"
b11 z"
b10 y"
b1 x"
b0 w"
b0 v"
b110001 u"
b111001 t"
b10 O"
b0 N"
b1 M"
b10000000000000000 %
$end
#0
$dumpvars
bx E#
bx D#
bx C#
bx B#
bx A#
bx @#
bx ?#
bx >#
bx =#
bx <#
bx ;#
bx :#
bx 9#
b11001000000000000000000000000000 8#
bx 7#
bx 6#
bx 5#
b0 4#
b0 3#
bx 2#
bx 1#
b11001000000000000000000000000000 0#
bx /#
bx .#
bx -#
bx ,#
bx +#
b0 *#
b0 )#
b0 (#
b0 '#
bx s"
b0 r"
bx q"
bx p"
b0 o"
bx n"
b10000 m"
b0 l"
b0 k"
b0 j"
b0 i"
b0 h"
b0 g"
b0 f"
b0 e"
b0 d"
b0 c"
b0 b"
b0 a"
b0 `"
b0 _"
b0 ^"
b0 ]"
b0 \"
b0 ["
b0 Z"
b0 Y"
b0 X"
b0 W"
b0 V"
bx U"
b0 T"
b0 S"
b0 R"
bx Q"
b100 P"
b110 L"
bx K"
b0 J"
b110 I"
b0 H"
bx G"
bx F"
b1101000000000000000000110 E"
bx D"
bx C"
bx B"
bx A"
bx @"
bx ?"
bx >"
bx ="
bx <"
bx ;"
bx :"
bx 9"
bx 8"
bx 7"
bx 6"
bx 5"
bx 4"
bx 3"
bx 2"
bx 1"
bx 0"
x/"
b0 ."
b0 -"
b0 ,"
b0 +"
b0 *"
b0 )"
b0 ("
0'"
b0 &"
b0 %"
b0 $"
x#"
b0 ""
b0 !"
b0 ~
bx }
bx |
bx {
bx z
bx y
bx x
bx w
bx v
bx u
b0 t
b0 s
b0 r
bx q
bx p
bx o
bx n
bx m
bx l
bx k
bx j
b0 i
bx h
xg
bx f
b0 e
xd
xc
bx b
0a
0`
b0 _
b0 ^
b0 ]
b0 \
0[
bx Z
bx Y
b0 X
bx W
bx V
xU
0T
xS
bx R
0Q
bx P
bx O
bx N
bx M
bx L
b0 K
b0 J
b0 I
b0 H
xG
xF
bx E
xD
xC
b11001000000000000000000000000000 B
bx A
b1101000000000000000000110 @
bx ?
bx >
bx =
b1101000000000000000000110 <
bx ;
bx :
bx 9
bx 8
bx 7
b0 6
b0 5
b0 4
13
b0 2
bx 1
b0 0
bx /
bx .
b1101000000000000000000110 -
bx ,
b0 +
0*
0)
1(
1'
1&
bx $
bx #
x"
bx !
$end
#5
0'
#10
b10000 m"
1'
#15
0'
#20
b10000 m"
1'
#25
0'
#30
b1 T"
0(
b10000 m"
1'
#35
0'
#40
1[
b110 \
b110 ."
b110 l"
b1101 _
b1101 *"
b1101 i"
b0 P
b0 u
b0 >"
b0 G"
b0 E
b0 q
b0 C"
b0 Y
b0 y
b0 <"
0C
b0 3"
b110 5"
b0 0"
b0 1"
b1101 7"
b1101 8"
b0 9"
b0 2"
0/"
b0 6"
0"
0S
b110 K"
b110 F"
b110 b
b110 m
b110 D"
b110 N
b110 w
b110 @"
b110 p"
b0 L
b0 o
b0 B"
b0 M
b0 p
b0 A"
b0 s"
b1101 O
b1101 z
b1101 ?"
b1101 n"
1G
1F
b0 f
b0 {
b0 ;"
b0 h
b0 |
b0 :"
0D
1c
0d
0U
0g
b1101000000000000000000110 V
b1101000000000000000000110 4"
b1101000000000000000000110 9#
b1101000000000000000000110 Z
b1101000000000000000000110 Q"
b1101000000000000000000110 7#
b1 S"
1'
#45
0'
#50
b10000000000 5"
b1011 7"
b1011 8"
b10000000000 K"
b10000000000 F"
b10000000000 b
b10000000000 m
b10000000000 D"
b10000000000 N
b10000000000 w
b10000000000 @"
b10000000000 p"
b1011 O
b1011 z
b1011 ?"
b1011 n"
1G
1F
1c
b1011000000000010000000000 V
b1011000000000010000000000 4"
b1011000000000010000000000 9#
b10000000000 L"
b10000000000 I"
b1011000000000010000000000 Z
b1011000000000010000000000 Q"
b1011000000000010000000000 7#
b1011000000000010000000000 -
b1011000000000010000000000 <
b1011000000000010000000000 @
b1011000000000010000000000 E"
b10000000000 \
b10000000000 ."
b10000000000 l"
1[
b1011 _
b1011 *"
b1011 i"
b1000 P"
b0 J
b0 t
b0 f"
b110 ["
b100 +
b100 4
b100 K
b100 R"
1'
#55
0'
#60
b0 5"
b10 7"
b10 8"
b0 K"
b0 F"
b0 b
b0 m
b0 D"
b0 N
b0 w
b0 @"
b0 p"
b10 O
b10 z
b10 ?"
b10 n"
1G
1F
1c
b10000000000000000000000 V
b10000000000000000000000 4"
b10000000000000000000000 9#
b0 L"
b0 I"
b10000000000000000000000 Z
b10000000000000000000000 Q"
b10000000000000000000000 7#
b10000000000000000000000 -
b10000000000000000000000 <
b10000000000000000000000 @
b10000000000000000000000 E"
b1100 P"
b0 \
b0 ."
b0 l"
1[
b10 _
b10 *"
b10 i"
b1000 +
b1000 4
b1000 K
b1000 R"
b0 J
b0 t
b0 f"
b10000000000 Y"
1'
#65
0'
#70
b1 P
b1 u
b1 >"
b1 G"
b1 h
b1 |
b1 :"
b1 E
b1 q
b1 C"
1[
b10 _
b10 *"
b10 i"
b1 3"
b1 9"
b1 2"
b10 O
b10 z
b10 ?"
b10 n"
1G
1F
1c
b10010000000000000000000000 V
b10010000000000000000000000 4"
b10010000000000000000000000 9#
b10010000000000000000000000 Z
b10010000000000000000000000 Q"
b10010000000000000000000000 7#
b10010000000000000000000000 -
b10010000000000000000000000 <
b10010000000000000000000000 @
b10010000000000000000000000 E"
b10000 P"
b1100 +
b1100 4
b1100 K
b1100 R"
1'
#75
0'
#80
b0 P
b0 u
b0 >"
b0 G"
b0 E
b0 q
b0 C"
1[
b11 _
b11 *"
b11 i"
b0 3"
b11 7"
b11 8"
b0 9"
b0 2"
b11 O
b11 z
b11 ?"
b11 n"
1G
1F
b0 h
b0 |
b0 :"
1c
b11000000000000000000000 V
b11000000000000000000000 4"
b11000000000000000000000 9#
b11000000000000000000000 Z
b11000000000000000000000 Q"
b11000000000000000000000 7#
b11000000000000000000000 -
b11000000000000000000000 <
b11000000000000000000000 @
b11000000000000000000000 E"
b10100 P"
b10000 +
b10000 4
b10000 K
b10000 R"
1'
#85
0'
#90
b1 P
b1 u
b1 >"
b1 G"
b1 h
b1 |
b1 :"
b1 E
b1 q
b1 C"
1[
b11 _
b11 *"
b11 i"
b1 3"
b1 9"
b1 2"
b11 O
b11 z
b11 ?"
b11 n"
1G
1F
1c
b10011000000000000000000000 V
b10011000000000000000000000 4"
b10011000000000000000000000 9#
b10011000000000000000000000 Z
b10011000000000000000000000 Q"
b10011000000000000000000000 7#
b10011000000000000000000000 -
b10011000000000000000000000 <
b10011000000000000000000000 @
b10011000000000000000000000 E"
b11000 P"
b10100 +
b10100 4
b10100 K
b10100 R"
1'
#95
0'
#100
b0 P
b0 u
b0 >"
b0 G"
b0 E
b0 q
b0 C"
1[
b100 _
b100 *"
b100 i"
b0 3"
b100 7"
b100 8"
b0 9"
b0 2"
b100 O
b100 z
b100 ?"
b100 n"
1G
1F
b0 h
b0 |
b0 :"
1c
b100000000000000000000000 V
b100000000000000000000000 4"
b100000000000000000000000 9#
b100000000000000000000000 Z
b100000000000000000000000 Q"
b100000000000000000000000 7#
b100000000000000000000000 -
b100000000000000000000000 <
b100000000000000000000000 @
b100000000000000000000000 E"
b11100 P"
b11000 +
b11000 4
b11000 K
b11000 R"
1'
#105
0'
#110
b1 P
b1 u
b1 >"
b1 G"
b1 h
b1 |
b1 :"
b1 E
b1 q
b1 C"
1[
b100 _
b100 *"
b100 i"
b1 3"
b1 9"
b1 2"
b100 O
b100 z
b100 ?"
b100 n"
1G
1F
1c
b10100000000000000000000000 V
b10100000000000000000000000 4"
b10100000000000000000000000 9#
b10100000000000000000000000 Z
b10100000000000000000000000 Q"
b10100000000000000000000000 7#
b10100000000000000000000000 -
b10100000000000000000000000 <
b10100000000000000000000000 @
b10100000000000000000000000 E"
b100000 P"
b11100 +
b11100 4
b11100 K
b11100 R"
1'
#115
0'
#120
b0 P
b0 u
b0 >"
b0 G"
b0 E
b0 q
b0 C"
1[
b101 _
b101 *"
b101 i"
b0 3"
b101 7"
b101 8"
b0 9"
b0 2"
b101 O
b101 z
b101 ?"
b101 n"
1G
1F
b0 h
b0 |
b0 :"
1c
b101000000000000000000000 V
b101000000000000000000000 4"
b101000000000000000000000 9#
b101000000000000000000000 Z
b101000000000000000000000 Q"
b101000000000000000000000 7#
b101000000000000000000000 -
b101000000000000000000000 <
b101000000000000000000000 @
b101000000000000000000000 E"
b100100 P"
b100000 +
b100000 4
b100000 K
b100000 R"
1'
#125
0'
#130
b1 P
b1 u
b1 >"
b1 G"
b1 h
b1 |
b1 :"
b1 E
b1 q
b1 C"
1[
b101 _
b101 *"
b101 i"
b1 3"
b1 9"
b1 2"
b101 O
b101 z
b101 ?"
b101 n"
1G
1F
1c
b10101000000000000000000000 V
b10101000000000000000000000 4"
b10101000000000000000000000 9#
b10101000000000000000000000 Z
b10101000000000000000000000 Q"
b10101000000000000000000000 7#
b10101000000000000000000000 -
b10101000000000000000000000 <
b10101000000000000000000000 @
b10101000000000000000000000 E"
b101000 P"
b100100 +
b100100 4
b100100 K
b100100 R"
1'
#135
0'
#140
b0 P
b0 u
b0 >"
b0 G"
b0 E
b0 q
b0 C"
1[
b110 _
b110 *"
b110 i"
b0 3"
b110 7"
b110 8"
b0 9"
b0 2"
b110 O
b110 z
b110 ?"
b110 n"
1G
1F
b0 h
b0 |
b0 :"
1c
b110000000000000000000000 V
b110000000000000000000000 4"
b110000000000000000000000 9#
b110000000000000000000000 Z
b110000000000000000000000 Q"
b110000000000000000000000 7#
b110000000000000000000000 -
b110000000000000000000000 <
b110000000000000000000000 @
b110000000000000000000000 E"
b101100 P"
b101000 +
b101000 4
b101000 K
b101000 R"
1'
#145
0'
#150
b1 P
b1 u
b1 >"
b1 G"
b1 h
b1 |
b1 :"
b1 E
b1 q
b1 C"
1[
b110 _
b110 *"
b110 i"
b1 3"
b1 9"
b1 2"
b110 O
b110 z
b110 ?"
b110 n"
1G
1F
1c
b10110000000000000000000000 V
b10110000000000000000000000 4"
b10110000000000000000000000 9#
b10110000000000000000000000 Z
b10110000000000000000000000 Q"
b10110000000000000000000000 7#
b10110000000000000000000000 -
b10110000000000000000000000 <
b10110000000000000000000000 @
b10110000000000000000000000 E"
b110000 P"
b101100 +
b101100 4
b101100 K
b101100 R"
1'
#155
0'
#160
b0 P
b0 u
b0 >"
b0 G"
b0 E
b0 q
b0 C"
1[
b111 _
b111 *"
b111 i"
b0 3"
b111 7"
b111 8"
b0 9"
b0 2"
b111 O
b111 z
b111 ?"
b111 n"
1G
1F
b0 h
b0 |
b0 :"
1c
b111000000000000000000000 V
b111000000000000000000000 4"
b111000000000000000000000 9#
b111000000000000000000000 Z
b111000000000000000000000 Q"
b111000000000000000000000 7#
b111000000000000000000000 -
b111000000000000000000000 <
b111000000000000000000000 @
b111000000000000000000000 E"
b110100 P"
b110000 +
b110000 4
b110000 K
b110000 R"
1'
#165
0'
#170
b1 P
b1 u
b1 >"
b1 G"
b1 h
b1 |
b1 :"
b1 E
b1 q
b1 C"
1[
b111 _
b111 *"
b111 i"
b1 3"
b1 9"
b1 2"
b111 O
b111 z
b111 ?"
b111 n"
1G
1F
1c
b10111000000000000000000000 V
b10111000000000000000000000 4"
b10111000000000000000000000 9#
b10111000000000000000000000 Z
b10111000000000000000000000 Q"
b10111000000000000000000000 7#
b10111000000000000000000000 -
b10111000000000000000000000 <
b10111000000000000000000000 @
b10111000000000000000000000 E"
b111000 P"
b110100 +
b110100 4
b110100 K
b110100 R"
1'
#175
0'
#180
b0 P
b0 u
b0 >"
b0 G"
b0 E
b0 q
b0 C"
1[
b1000 _
b1000 *"
b1000 i"
b0 3"
b1000 7"
b1000 8"
b0 9"
b0 2"
b1000 O
b1000 z
b1000 ?"
b1000 n"
1G
1F
b0 h
b0 |
b0 :"
1c
b1000000000000000000000000 V
b1000000000000000000000000 4"
b1000000000000000000000000 9#
b1000000000000000000000000 Z
b1000000000000000000000000 Q"
b1000000000000000000000000 7#
b1000000000000000000000000 -
b1000000000000000000000000 <
b1000000000000000000000000 @
b1000000000000000000000000 E"
b111100 P"
b111000 +
b111000 4
b111000 K
b111000 R"
1'
#185
0'
#190
b1 P
b1 u
b1 >"
b1 G"
b1 h
b1 |
b1 :"
b1 E
b1 q
b1 C"
1[
b1000 _
b1000 *"
b1000 i"
b1 3"
b1 9"
b1 2"
b1000 O
b1000 z
b1000 ?"
b1000 n"
1G
1F
1c
b11000000000000000000000000 V
b11000000000000000000000000 4"
b11000000000000000000000000 9#
b11000000000000000000000000 Z
b11000000000000000000000000 Q"
b11000000000000000000000000 7#
b11000000000000000000000000 -
b11000000000000000000000000 <
b11000000000000000000000000 @
b11000000000000000000000000 E"
b1000000 P"
b111100 +
b111100 4
b111100 K
b111100 R"
1'
#195
0'
#200
b0 P
b0 u
b0 >"
b0 G"
b0 E
b0 q
b0 C"
1[
b1001 _
b1001 *"
b1001 i"
b0 3"
b1001 7"
b1001 8"
b0 9"
b0 2"
b1001 O
b1001 z
b1001 ?"
b1001 n"
1G
1F
b0 h
b0 |
b0 :"
1c
b1001000000000000000000000 V
b1001000000000000000000000 4"
b1001000000000000000000000 9#
b1001000000000000000000000 Z
b1001000000000000000000000 Q"
b1001000000000000000000000 7#
b1001000000000000000000000 -
b1001000000000000000000000 <
b1001000000000000000000000 @
b1001000000000000000000000 E"
b1000100 P"
b1000000 +
b1000000 4
b1000000 K
b1000000 R"
1'
#205
0'
#210
b100000000000000000000000 \
b100000000000000000000000 ."
b100000000000000000000000 l"
b10000000 K"
b10000000 F"
b10000000 b
b10000000 m
b10000000 D"
b10000000 N
b10000000 w
b10000000 @"
b10000000 p"
b1 P
b1 u
b1 >"
b1 G"
b1 h
b1 |
b1 :"
b1 E
b1 q
b1 C"
1[
b1001 _
b1001 *"
b1001 i"
b1 3"
b10000000 5"
b1 9"
b1 2"
b1001 O
b1001 z
b1001 ?"
b1001 n"
1G
1F
1c
b11001000000000000010000000 V
b11001000000000000010000000 4"
b11001000000000000010000000 9#
b10000000 L"
b10000000 I"
b11001000000000000010000000 Z
b11001000000000000010000000 Q"
b11001000000000000010000000 7#
b11001000000000000010000000 -
b11001000000000000010000000 <
b11001000000000000010000000 @
b11001000000000000010000000 E"
b1001000 P"
b1000100 +
b1000100 4
b1000100 K
b1000100 R"
1'
#215
0'
#220
b0 P
b0 u
b0 >"
b0 G"
b0 E
b0 q
b0 C"
b0 3"
b0 5"
b1100 7"
b1100 8"
b0 9"
b0 2"
b0 K"
b0 F"
b0 b
b0 m
b0 D"
b0 N
b0 w
b0 @"
b0 p"
b1100 O
b1100 z
b1100 ?"
b1100 n"
1G
1F
b0 h
b0 |
b0 :"
1c
b1100000000000000000000000 V
b1100000000000000000000000 4"
b1100000000000000000000000 9#
b0 L"
b0 I"
b1100000000000000000000000 Z
b1100000000000000000000000 Q"
b1100000000000000000000000 7#
b1100000000000000000000000 -
b1100000000000000000000000 <
b1100000000000000000000000 @
b1100000000000000000000000 E"
b1001100 P"
b0 \
b0 ."
b0 l"
1[
b1100 _
b1100 *"
b1100 i"
b1001000 +
b1001000 4
b1001000 K
b1001000 R"
b0 J
b0 t
b0 f"
b100000000000000000000000 e"
1'
#225
0'
#230
b1 P
b1 u
b1 >"
b1 G"
b1 h
b1 |
b1 :"
b1 E
b1 q
b1 C"
1[
b1100 _
b1100 *"
b1100 i"
b1 3"
b1 9"
b1 2"
b1100 O
b1100 z
b1100 ?"
b1100 n"
1G
1F
1c
b11100000000000000000000000 V
b11100000000000000000000000 4"
b11100000000000000000000000 9#
b11100000000000000000000000 Z
b11100000000000000000000000 Q"
b11100000000000000000000000 7#
b11100000000000000000000000 -
b11100000000000000000000000 <
b11100000000000000000000000 @
b11100000000000000000000000 E"
b1010000 P"
b1001100 +
b1001100 4
b1001100 K
b1001100 R"
1'
#235
0'
#240
b11000001001000000000000000000000 1
b11000001001000000000000000000000 ;
b11000001001000000000000000000000 ?
b11000001001000000000000000000000 A
b11000001001000000000000000000000 n
b10000000000 J"
b11000001001000000000000000000000 \
b11000001001000000000000000000000 ."
b11000001001000000000000000000000 l"
1*
b10000000000 2
b10000000000 6
b10000000000 i
b10000000000 ("
b10000000000 I
b10000000000 s
b10000000000 H"
b10000000000 g"
b1011 ^
b1011 +"
b1011 j"
b1011 M
b1011 p
b1011 A"
b1011 s"
1U
b1000000 P
b1000000 u
b1000000 >"
b1000000 G"
b0 E
b0 q
b0 C"
b10 Y
b10 y
b10 <"
1[
b0 _
b0 *"
b0 i"
b1000000 3"
b1011 1"
b0 7"
b0 8"
b0 9"
b0 2"
b10 6"
b0 O
b0 z
b0 ?"
b0 n"
0G
0F
b0 h
b0 |
b0 :"
0c
b10000000000101100000000000000000 V
b10000000000101100000000000000000 4"
b10000000000101100000000000000000 9#
b10000000000101100000000000000000 Z
b10000000000101100000000000000000 Q"
b10000000000101100000000000000000 7#
b10000000000101100000000000000000 -
b10000000000101100000000000000000 <
b10000000000101100000000000000000 @
b10000000000101100000000000000000 E"
b1010100 P"
b1010000 +
b1010000 4
b1010000 K
b1010000 R"
1'
#245
0'
