Project_2_SCC/src/dump.vcd
$date
	Mon Oct 27 03:41:33 2025
$end
$version
	Icarus Verilog
$end
$timescale
	1ms
$end
$scope module shift_count_tb $end
$var wire 32 ! instruction_tb [31:0] $end
$var wire 1 " halt_f_tb $end
$var wire 2 # err_bits_tb [1:0] $end
$var wire 32 $ data_memory_in_v_tb [31:0] $end
$var reg 1 % clk_en_tb $end
$var reg 1 & clk_tb $end
$var reg 256 ' line [255:0] $end
$var reg 1 ( rst_tb $end
$var reg 256 ) target_a_1 [255:0] $end
$var reg 256 * target_a_2 [255:0] $end
$var reg 256 + target_a_3 [255:0] $end
$var reg 256 , target_a_4 [255:0] $end
$var reg 256 - target_a_5 [255:0] $end
$var reg 256 . target_a_6 [255:0] $end
$var reg 256 / target_v_1 [255:0] $end
$var reg 256 0 target_v_2 [255:0] $end
$var reg 256 1 target_v_3 [255:0] $end
$var reg 256 2 target_v_4 [255:0] $end
$var reg 256 3 target_v_5 [255:0] $end
$var reg 256 4 target_v_6 [255:0] $end
$var reg 256 5 value1 [255:0] $end
$var reg 256 6 value2 [255:0] $end
$var reg 256 7 value3 [255:0] $end
$var reg 256 8 value4 [255:0] $end
$var reg 256 9 value5 [255:0] $end
$var reg 256 : value6 [255:0] $end
$var integer 32 ; file [31:0] $end
$var integer 32 < i [31:0] $end
$var integer 32 = status [31:0] $end
$scope module top $end
$var wire 1 & clk $end
$var wire 1 % clk_en $end
$var wire 1 " halt_f $end
$var wire 1 ( rst $end
$var wire 1 > writeBit $end
$var wire 1 ? readBit $end
$var wire 32 @ programCounter [31:0] $end
$var wire 32 A instruction_memory_v [31:0] $end
$var wire 32 B instruction [31:0] $end
$var wire 1 C halt $end
$var wire 2 D err_bits [1:0] $end
$var wire 32 E data_memory_in_v [31:0] $end
$var wire 32 F dataOutMem [31:0] $end
$var wire 32 G dataIn [31:0] $end
$var wire 32 H addressFetch [31:0] $end
$scope module memMod $end
$var wire 1 I instruction_memory_en $end
$var wire 1 & mem_Clk $end
$var wire 32 J instruction_memory_a [31:0] $end
$var wire 1 C halt_f $end
$var wire 1 > data_memory_write $end
$var wire 1 ? data_memory_read $end
$var wire 32 K data_memory_out_v [31:0] $end
$var wire 32 L data_memory_a [31:0] $end
$var reg 8 M a [7:0] $end
$var reg 8 N b [7:0] $end
$var reg 8 O c [7:0] $end
$var reg 8 P d [7:0] $end
$var reg 32 Q data_memory_in_v [31:0] $end
$var reg 32 R instruction_memory_v [31:0] $end
$var integer 32 S fd [31:0] $end
$var integer 32 T i [31:0] $end
$upscope $end
$scope module scc $end
$var wire 1 & clk $end
$var wire 1 % clk_en $end
$var wire 32 U dataIn [31:0] $end
$var wire 32 V instruction [31:0] $end
$var wire 32 W memoryDataIn [31:0] $end
$var wire 1 ( rst $end
$var wire 1 > writeFlag $end
$var wire 32 X ucode_inst [31:0] $end
$var wire 1 Y specialEncoding $end
$var wire 1 Z setFlags $end
$var wire 4 [ secondLevelDecode [3:0] $end
$var wire 1 \ regWrite $end
$var wire 1 ] regRead $end
$var wire 32 ^ readDataSec [31:0] $end
$var wire 32 _ readDataFirst [31:0] $end
$var wire 32 ` readDataDest [31:0] $end
$var wire 32 a programCounter [31:0] $end
$var wire 4 b out_sourceSecReg [3:0] $end
$var wire 4 c out_sourceFirstReg [3:0] $end
$var wire 16 d out_imm [15:0] $end
$var wire 4 e out_destRegister [3:0] $end
$var wire 1 f mux_ctrl $end
$var wire 2 g mul_type [1:0] $end
$var wire 1 h mul_trigger $end
$var wire 1 i mul_release $end
$var wire 1 ? memoryRead $end
$var wire 1 j loadStore $end
$var wire 32 k instructionForID [31:0] $end
$var wire 1 C halt $end
$var wire 4 l flags_ucode_to_exe [3:0] $end
$var wire 4 m flags_out [3:0] $end
$var wire 2 n firstLevelDecode [1:0] $end
$var wire 32 o filtered_instruction [31:0] $end
$var wire 1 p exe_writeToReg $end
$var wire 32 q exe_writeData [31:0] $end
$var wire 4 r exe_readRegSec [3:0] $end
$var wire 4 s exe_readRegFirst [3:0] $end
$var wire 4 t exe_readRegDest [3:0] $end
$var wire 1 u exeOverride $end
$var wire 16 v exeData [15:0] $end
$var wire 1 w dataRegisterImm $end
$var wire 1 x dataRegister $end
$var wire 32 y dataOut [31:0] $end
$var wire 4 z branchInstruction [3:0] $end
$var wire 1 { branch $end
$var wire 3 | aluFunction [2:0] $end
$var wire 32 } addressIn [31:0] $end
$var reg 32 ~ data_memory_v [31:0] $end
$var reg 2 !" err_bits [1:0] $end
$var reg 32 "" instruction_memory_v [31:0] $end
$scope module EXE $end
$var wire 1 & clk $end
$var wire 16 #" exeData [15:0] $end
$var wire 32 $" memoryDataIn [31:0] $end
$var wire 1 ( rst $end
$var wire 1 Y specialEncoding $end
$var wire 4 %" sourceSecReg [3:0] $end
$var wire 4 &" sourceFirstReg [3:0] $end
$var wire 1 Z setFlags $end
$var wire 4 '" secondLevelDecode [3:0] $end
$var wire 32 (" readDataSec [31:0] $end
$var wire 32 )" readDataFirst [31:0] $end
$var wire 32 *" readDataDest [31:0] $end
$var wire 2 +" mul_type [1:0] $end
$var wire 1 i mul_release $end
$var wire 16 ," imm [15:0] $end
$var wire 4 -" flags_back_in [3:0] $end
$var wire 2 ." firstLevelDecode [1:0] $end
$var wire 4 /" destReg [3:0] $end
$var wire 4 0" branchInstruction [3:0] $end
$var wire 3 1" aluFunctions [2:0] $end
$var reg 33 2" aluRegister [32:0] $end
$var reg 1 u exeOverride $end
$var reg 4 3" flags [3:0] $end
$var reg 4 4" flags_next [3:0] $end
$var reg 4 5" flags_out [3:0] $end
$var reg 1 6" help_trigger $end
$var reg 32 7" immExt [31:0] $end
$var reg 32 8" memoryAddressOut [31:0] $end
$var reg 32 9" memoryDataOut [31:0] $end
$var reg 1 ? memoryRead $end
$var reg 1 > memoryWrite $end
$var reg 4 :" readRegDest [3:0] $end
$var reg 4 ;" readRegFirst [3:0] $end
$var reg 4 <" readRegSec [3:0] $end
$var reg 33 =" tempDiff [32:0] $end
$var reg 32 >" writeData [31:0] $end
$var reg 1 p writeToReg $end
$upscope $end
$scope module ID $end
$var wire 1 & clk $end
$var wire 1 ( rst $end
$var wire 1 ?" specialBit $end
$var wire 4 @" sourceSecReg [3:0] $end
$var wire 4 A" sourceFirstReg [3:0] $end
$var wire 4 B" secondLevelDecode [3:0] $end
$var wire 7 C" opcode [6:0] $end
$var wire 32 D" instruction [31:0] $end
$var wire 16 E" imm [15:0] $end
$var wire 2 F" firstLevelDecode [1:0] $end
$var wire 4 G" destReg [3:0] $end
$var wire 4 H" branchCondition [3:0] $end
$var wire 3 I" aluOperationCommands [2:0] $end
$var reg 3 J" aluFunction [2:0] $end
$var reg 1 { branch $end
$var reg 4 K" branchInstruction [3:0] $end
$var reg 1 x dataRegister $end
$var reg 1 w dataRegisterImm $end
$var reg 2 L" firstLevelDecode_out [1:0] $end
$var reg 1 C halt $end
$var reg 1 j loadStore $end
$var reg 1 h mul_trigger $end
$var reg 2 M" mul_type [1:0] $end
$var reg 4 N" out_destRegister [3:0] $end
$var reg 16 O" out_imm [15:0] $end
$var reg 4 P" out_sourceFirstReg [3:0] $end
$var reg 4 Q" out_sourceSecReg [3:0] $end
$var reg 1 ] regRead $end
$var reg 1 \ regWrite $end
$var reg 4 R" secondLevelDecode_out [3:0] $end
$var reg 1 Z setFlags $end
$var reg 1 Y specialEncoding $end
$upscope $end
$scope module IF $end
$var wire 1 & clk $end
$var wire 16 S" exeData [15:0] $end
$var wire 1 u exeOverride $end
$var wire 32 T" fetchedInstruction [31:0] $end
$var wire 16 U" imm16_exe [15:0] $end
$var wire 1 ( rst $end
$var wire 16 V" imm16 [15:0] $end
$var wire 1 f control $end
$var wire 32 W" branchOffsetAddress_exe [31:0] $end
$var wire 32 X" branchOffsetAddress [31:0] $end
$var parameter 32 Y" sFilter $end
$var parameter 32 Z" sIdle $end
$var parameter 32 [" sUcode $end
$var reg 32 \" PC_next [31:0] $end
$var reg 32 ]" filteredInstruction [31:0] $end
$var reg 32 ^" programCounter [31:0] $end
$var reg 2 _" state [1:0] $end
$var reg 2 `" stateNext [1:0] $end
$upscope $end
$scope module REGFILE $end
$var wire 1 & clk $end
$var wire 32 a" dbg_R0 [31:0] $end
$var wire 32 b" dbg_R1 [31:0] $end
$var wire 32 c" dbg_R10 [31:0] $end
$var wire 32 d" dbg_R11 [31:0] $end
$var wire 32 e" dbg_R12 [31:0] $end
$var wire 32 f" dbg_R13 [31:0] $end
$var wire 32 g" dbg_R14 [31:0] $end
$var wire 32 h" dbg_R15 [31:0] $end
$var wire 32 i" dbg_R2 [31:0] $end
$var wire 32 j" dbg_R3 [31:0] $end
$var wire 32 k" dbg_R4 [31:0] $end
$var wire 32 l" dbg_R5 [31:0] $end
$var wire 32 m" dbg_R6 [31:0] $end
$var wire 32 n" dbg_R7 [31:0] $end
$var wire 32 o" dbg_R8 [31:0] $end
$var wire 32 p" dbg_R9 [31:0] $end
$var wire 32 q" out_rd [31:0] $end
$var wire 32 r" out_rs1 [31:0] $end
$var wire 32 s" out_rs2 [31:0] $end
$var wire 4 t" rd [3:0] $end
$var wire 4 u" rs1 [3:0] $end
$var wire 4 v" rs2 [3:0] $end
$var wire 1 ( rst $end
$var wire 1 p write $end
$var wire 32 w" writeData [31:0] $end
$var integer 32 x" i [31:0] $end
$upscope $end
$scope module Ucode $end
$var wire 1 & clk $end
$var wire 4 y" dest_reg [3:0] $end
$var wire 4 z" flags_in [3:0] $end
$var wire 16 {" immediate [15:0] $end
$var wire 2 |" mul_type [1:0] $end
$var wire 32 }" readDataSecond [31:0] $end
$var wire 1 ( rst $end
$var wire 4 ~" source_reg [3:0] $end
$var wire 1 h start_mul $end
$var parameter 7 !# ADDS_OPCODE $end
$var parameter 7 "# ADD_OPCODE $end
$var parameter 7 ## MOV_OPCODE $end
$var parameter 2 $# MULI $end
$var parameter 2 %# MULR $end
$var parameter 2 &# MULSI $end
$var parameter 2 '# MULSR $end
$var parameter 7 (# NOT_OPCODE $end
$var parameter 7 )# SUBI_OPCODE $end
$var parameter 7 *# SUBS_OPCODE $end
$var parameter 7 +# SUB_OPCODE $end
$var parameter 3 ,# sClear $end
$var parameter 3 -# sFix_it $end
$var parameter 3 .# sHalt $end
$var parameter 3 /# sIdle $end
$var parameter 3 0# sKeep_adding $end
$var parameter 3 1# sMov $end
$var reg 16 2# corrected_imm [15:0] $end
$var reg 32 3# corrected_readDataSecond [31:0] $end
$var reg 16 4# count_next [15:0] $end
$var reg 16 5# count_reg [15:0] $end
$var reg 4 6# dest_reg_hold [3:0] $end
$var reg 2 7# fix [1:0] $end
$var reg 2 8# fix_next [1:0] $end
$var reg 4 9# flags_back_out [3:0] $end
$var reg 4 :# flags_hold [3:0] $end
$var reg 1 i mul_release $end
$var reg 1 f mux_ctrl $end
$var reg 32 ;# output_instruction [31:0] $end
$var reg 32 <# register_decrementer_count [31:0] $end
$var reg 32 =# register_decrementer_count_next [31:0] $end
$var reg 3 ># state_next [2:0] $end
$var reg 3 ?# state_reg [2:0] $end
$var reg 2 @# true_mul_type [1:0] $end
$var reg 4 A# true_source_reg [3:0] $end
$upscope $end
$scope module mux $end
$var wire 1 f control $end
$var wire 32 B# filtered_instruction [31:0] $end
$var wire 32 C# ucode_instruction [31:0] $end
$var reg 32 D# finalized_instruction [31:0] $end
$upscope $end
$upscope $end
$upscope $end
$upscope $end
$enddefinitions $end
$comment Show the parameter values. $end
$dumpall
b10 1#
b11 0#
b0 /#
b100 .#
b101 -#
b1 ,#
b110010 +#
b111010 *#
b10010 )#
b110110 (#
b11 '#
b10 &#
b1 %#
b0 $#
b0 ##
b110001 "#
b111001 !#
b10 ["
b0 Z"
b1 Y"
$end
#0
$dumpvars
bx D#
b11001000000000000000000000000000 C#
bx B#
bx A#
bx @#
b0 ?#
b0 >#
bx =#
bx <#
b11001000000000000000000000000000 ;#
bx :#
bx 9#
bx 8#
bx 7#
bx 6#
b0 5#
b0 4#
bx 3#
bx 2#
bx ~"
bx }"
bx |"
bx {"
b0 z"
bx y"
bx x"
b0 w"
b0 v"
b0 u"
b0 t"
bx s"
bx r"
bx q"
bx p"
bx o"
bx n"
bx m"
bx l"
bx k"
bx j"
bx i"
bx h"
bx g"
bx f"
bx e"
bx d"
bx c"
bx b"
bx a"
b0 `"
bx _"
bx ^"
bx ]"
bx \"
bx X"
bx W"
bx V"
bx U"
bx T"
bx S"
bx R"
bx Q"
bx P"
bx O"
bx N"
bx M"
bx L"
bx K"
bx J"
bx I"
bx H"
bx G"
bx F"
bx E"
bx D"
bx C"
bx B"
bx A"
bx @"
x?"
b0 >"
b0 ="
b0 <"
b0 ;"
b0 :"
b0 9"
b0 8"
b0 7"
x6"
b0 5"
b0 4"
b0 3"
bx 2"
bx 1"
bx 0"
bx /"
bx ."
bx -"
bx ,"
bx +"
bx *"
bx )"
bx ("
bx '"
bx &"
bx %"
bx $"
bx #"
bx ""
bx !"
bx ~
b0 }
bx |
x{
bx z
b0 y
xx
xw
bx v
0u
b0 t
b0 s
b0 r
b0 q
0p
bx o
bx n
b0 m
bx l
bx k
xj
0i
xh
bx g
0f
bx e
bx d
bx c
bx b
bx a
bx `
bx _
bx ^
x]
x\
bx [
xZ
xY
b11001000000000000000000000000000 X
bx W
bx V
bx U
bx T
bx S
bx R
bx Q
bx P
bx O
bx N
bx M
b0 L
b0 K
bx J
1I
b0 H
bx G
b0 F
bx E
bx D
xC
bx B
bx A
bx @
0?
0>
bx =
bx <
bx ;
bx :
bx 9
bx 8
bx 7
bx 6
bx 5
bx 4
bx 3
bx 2
bx 1
bx 0
bx /
bx .
bx -
bx ,
bx +
bx *
bx )
1(
bx '
0&
x%
bx $
bx #
x"
bx !
$end
#10
b100000000000 X"
b100000000000 V"
b100000000000 B
b100000000000 R
b100000000000 V
b100000000000 T"
b100 \"
b0 @
b0 J
b0 a
b0 ^"
b0 _"
b0 h"
b0 g"
b0 f"
b0 e"
b0 d"
b0 c"
b0 p"
b0 o"
b0 n"
b0 m"
b0 l"
b0 k"
b0 j"
b0 i"
b0 b"
b0 `
b0 *"
b0 q"
b0 _
b0 )"
b0 r"
b0 ^
b0 ("
b0 s"
b0 }"
b0 a"
b10000 x"
1&
#20
0&
#30
b10000 x"
1&
#40
0&
#50
b10000 x"
1&
#60
b1 `"
0&
0(
#70
1p
b100000000000 q
b100000000000 >"
b100000000000 w"
b0 [
b0 '"
b0 R"
b0 n
b0 ."
b0 L"
0Y
b0 C"
b100000000000 E"
b0 @"
b0 A"
b0 G"
b0 H"
b0 I"
b0 B"
0?"
b0 F"
0"
0C
0h
b100000000000 W"
b100000000000 U"
b100000000000 v
b100000000000 #"
b100000000000 S"
b100000000000 d
b100000000000 ,"
b100000000000 O"
b100000000000 {"
b0 b
b0 %"
b0 Q"
b0 c
b0 &"
b0 P"
b0 ~"
b0 e
b0 /"
b0 N"
b0 y"
1]
1\
b0 z
b0 0"
b0 K"
b0 |
b0 1"
b0 J"
xZ
1w
0x
0j
0{
b100000000000 k
b100000000000 D"
b100000000000 D#
b100000000000 o
b100000000000 ]"
b100000000000 B#
b1 _"
1&
#80
0&
#90
b1 t
b1 :"
b1 t"
b1 e
b1 /"
b1 N"
b1 y"
b1111000011110000 E"
b111 @"
b1 G"
b1 H"
b11111111111111111111000011110000 W"
b1111000011110000 U"
b1111000011110000 v
b1111000011110000 #"
b1111000011110000 S"
b1111000011110000 d
b1111000011110000 ,"
b1111000011110000 O"
b1111000011110000 {"
1]
1\
xZ
1w
b1000001111000011110000 k
b1000001111000011110000 D"
b1000001111000011110000 D#
b11111111111111111111000011110000 X"
b1111000011110000 V"
b1000001111000011110000 o
b1000001111000011110000 ]"
b1000001111000011110000 B#
b1000001111000011110000 B
b1000001111000011110000 R
b1000001111000011110000 V
b1000001111000011110000 T"
b1000 \"
b1111000011110000 q
b1111000011110000 >"
b1111000011110000 w"
1p
b100 @
b100 J
b100 a
b100 ^"
b0 `
b0 *"
b0 q"
b100000000000 _
b100000000000 )"
b100000000000 r"
b100000000000 ^
b100000000000 ("
b100000000000 s"
b100000000000 }"
b100000000000 a"
1&
#100
0&
#110
b1 |
b1 1"
b1 J"
b1 [
b1 '"
b1 R"
b1 C"
b1 I"
b1 B"
b11111111111111111111000011110000 W"
b1111000011110000 U"
b1111000011110000 v
b1111000011110000 #"
b1111000011110000 S"
b1111000011110000 d
b1111000011110000 ,"
b1111000011110000 O"
b1111000011110000 {"
b1 e
b1 /"
b1 N"
b1 y"
1]
1\
xZ
1w
b10001000001111000011110000 k
b10001000001111000011110000 D"
b10001000001111000011110000 D#
b10001000001111000011110000 o
b10001000001111000011110000 ]"
b10001000001111000011110000 B#
b10001000001111000011110000 B
b10001000001111000011110000 R
b10001000001111000011110000 V
b10001000001111000011110000 T"
b11110000111100001111000011110000 q
b11110000111100001111000011110000 >"
b11110000111100001111000011110000 w"
1p
b1 t
b1 :"
b1 t"
b1100 \"
b1111000011110000 `
b1111000011110000 *"
b1111000011110000 q"
b1111000011110000 b"
b1000 @
b1000 J
b1000 a
b1000 ^"
1&
#120
0&
#130
1>
b11110000111100001111000011110000 F
b11110000111100001111000011110000 K
b11110000111100001111000011110000 y
b11110000111100001111000011110000 9"
b100000000000 H
b100000000000 L
b100000000000 }
b100000000000 8"
1j
b10 n
b10 ."
b10 L"
b1000001 C"
b0 E"
b0 @"
b10 F"
b0 W"
b0 U"
b0 v
b0 #"
b0 S"
b0 d
b0 ,"
b0 O"
b0 {"
b1 e
b1 /"
b1 N"
b1 y"
0]
0\
b1 |
b1 1"
b1 J"
xZ
0w
b10000010001000000000000000000000 k
b10000010001000000000000000000000 D"
b10000010001000000000000000000000 D#
b0 X"
b0 V"
b10000010001000000000000000000000 o
b10000010001000000000000000000000 ]"
b10000010001000000000000000000000 B#
b10000010001000000000000000000000 B
b10000010001000000000000000000000 R
b10000010001000000000000000000000 V
b10000010001000000000000000000000 T"
b10000 \"
b0 q
b0 >"
b0 w"
0p
b1 t
b1 :"
b1 t"
b1100 @
b1100 J
b1100 a
b1100 ^"
b11110000111100001111000011110000 `
b11110000111100001111000011110000 *"
b11110000111100001111000011110000 q"
b11110000111100001111000011110000 b"
1&
#140
0&
#150
1p
1\
1]
1w
b10 [
b10 '"
b10 R"
b0 n
b0 ."
b0 L"
b0 H
b0 L
b0 }
b0 8"
b0 F
b0 K
b0 y
b0 9"
0>
b0 `
b0 *"
b0 q"
b10 t
b10 :"
b10 t"
b10 C"
b10 G"
b10 H"
b10 I"
b10 B"
b0 F"
b10 e
b10 /"
b10 N"
b10 y"
b10 |
b10 1"
b10 J"
xZ
0j
b100010000000000000000000000 k
b100010000000000000000000000 D"
b100010000000000000000000000 D#
b100010000000000000000000000 o
b100010000000000000000000000 ]"
b100010000000000000000000000 B#
b100010000000000000000000000 B
b100010000000000000000000000 R
b100010000000000000000000000 V
b100010000000000000000000000 T"
b10100 \"
b10000 @
b10000 J
b10000 a
b10000 ^"
1&
#160
0&
#170
1p
b0 `
b0 *"
b0 q"
b11 t
b11 :"
b11 t"
b11 G"
b11 H"
b11 e
b11 /"
b11 N"
b11 y"
1]
1\
b10 |
b10 1"
b10 J"
xZ
1w
b100011000000000000000000000 k
b100011000000000000000000000 D"
b100011000000000000000000000 D#
b100011000000000000000000000 o
b100011000000000000000000000 ]"
b100011000000000000000000000 B#
b100011000000000000000000000 B
b100011000000000000000000000 R
b100011000000000000000000000 V
b100011000000000000000000000 T"
b11000 \"
b10100 @
b10100 J
b10100 a
b10100 ^"
1&
#180
0&
#190
b11110000111100001111000011110000 G
b11110000111100001111000011110000 Q
b11110000111100001111000011110000 U
b11110000111100001111000011110000 W
b11110000111100001111000011110000 $"
b11110000111100001111000011110000 q
b11110000111100001111000011110000 >"
b11110000111100001111000011110000 w"
1?
b100000000000 H
b100000000000 L
b100000000000 }
b100000000000 8"
1j
b0 [
b0 '"
b0 R"
b10 n
b10 ."
b10 L"
1p
b0 `
b0 *"
b0 q"
b100 t
b100 :"
b100 t"
b1000000 C"
b100 G"
b100 H"
b0 I"
b0 B"
b10 F"
b100 e
b100 /"
b100 N"
b100 y"
0]
0\
b0 |
b0 1"
b0 J"
xZ
0w
b10000000100000000000000000000000 k
b10000000100000000000000000000000 D"
b10000000100000000000000000000000 D#
b10000000100000000000000000000000 o
b10000000100000000000000000000000 ]"
b10000000100000000000000000000000 B#
b10000000100000000000000000000000 B
b10000000100000000000000000000000 R
b10000000100000000000000000000000 V
b10000000100000000000000000000000 T"
b11100 \"
b11000 @
b11000 J
b11000 a
b11000 ^"
1&
#200
0&
#210
1\
b100000 W"
b100000 U"
b100000 v
b100000 #"
b100000 S"
b100000 d
b100000 ,"
b100000 O"
b100000 {"
1]
1w
b0 n
b0 ."
b0 L"
b0 C"
b100000 E"
b101 G"
b101 H"
b0 F"
b101 e
b101 /"
b101 N"
b101 y"
xZ
0j
b101000000000000000100000 k
b101000000000000000100000 D"
b101000000000000000100000 D#
b100000 X"
b100000 V"
b101000000000000000100000 o
b101000000000000000100000 ]"
b101000000000000000100000 B#
b101000000000000000100000 B
b101000000000000000100000 R
b101000000000000000100000 V
b101000000000000000100000 T"
b100000 \"
b0 H
b0 L
b0 }
b0 8"
0?
b100000 q
b100000 >"
b100000 w"
1p
b101 t
b101 :"
b101 t"
b11100 @
b11100 J
b11100 a
b11100 ^"
b0 `
b0 *"
b0 q"
b11110000111100001111000011110000 k"
1&
#220
0&
#230
b10 4"
b100000 ="
b100000 _
b100000 )"
b100000 r"
b101 s
b101 ;"
b101 u"
b101 c
b101 &"
b101 P"
b101 ~"
b10 |
b10 1"
b10 J"
b1010 [
b1010 '"
b1010 R"
1Y
b11010 C"
b0 E"
b101 A"
b1110 G"
b1110 H"
b10 I"
b1010 B"
1?"
b0 W"
b0 U"
b0 v
b0 #"
b0 S"
b0 d
b0 ,"
b0 O"
b0 {"
b1110 e
b1110 /"
b1110 N"
b1110 y"
1]
1\
xZ
1w
b110101110010100000000000000000 k
b110101110010100000000000000000 D"
b110101110010100000000000000000 D#
b0 X"
b0 V"
b110101110010100000000000000000 o
b110101110010100000000000000000 ]"
b110101110010100000000000000000 B#
b110101110010100000000000000000 B
b110101110010100000000000000000 R
b110101110010100000000000000000 V
b110101110010100000000000000000 T"
b100000 q
b100000 >"
b100000 w"
1p
b1110 t
b1110 :"
b1110 t"
b100100 \"
b0 `
b0 *"
b0 q"
b100000 l"
b100000 @
b100000 J
b100000 a
b100000 ^"
1&
#240
0&
#250
1{
b1 [
b1 '"
b1 R"
b11 n
b11 ."
b11 L"
0Y
b1100001 C"
b101100 E"
b0 A"
b0 G"
b0 H"
b1 I"
b1 B"
0?"
b11 F"
b0 c
b0 &"
b0 P"
b0 ~"
b0 e
b0 /"
b0 N"
b0 y"
1]
0\
b1 |
b1 1"
b1 J"
xZ
0w
b11000010000000000000000000101100 k
b11000010000000000000000000101100 D"
b11000010000000000000000000101100 D#
b101100 X"
b101100 V"
b11000010000000000000000000101100 o
b11000010000000000000000000101100 ]"
b11000010000000000000000000101100 B#
b11000010000000000000000000101100 B
b11000010000000000000000000101100 R
b11000010000000000000000000101100 V
b11000010000000000000000000101100 T"
b10 m
b10 5"
b10 z"
b0 ="
b0 q
b0 >"
b0 w"
0p
b100000000000 _
b100000000000 )"
b100000000000 r"
b0 s
b0 ;"
b0 u"
b100000000000 `
b100000000000 *"
b100000000000 q"
b0 t
b0 :"
b0 t"
b101000 \"
b10 3"
b100100 @
b100100 J
b100100 a
b100100 ^"
1&
#260
0&
#270
b110 4"
b1 7"
1p
b11110000111100001111000011110000 _
b11110000111100001111000011110000 )"
b11110000111100001111000011110000 r"
b100 s
b100 ;"
b100 u"
b0 `
b0 *"
b0 q"
b110 t
b110 :"
b110 t"
1\
b1 W"
b1 U"
b1 v
b1 #"
b1 S"
b1 d
b1 ,"
b1 O"
b1 {"
b100 c
b100 &"
b100 P"
b100 ~"
b110 e
b110 /"
b110 N"
b110 y"
1w
b1011 [
b1011 '"
b1011 R"
b0 n
b0 ."
b0 L"
1Y
b11011 C"
b1 E"
b100 A"
b110 G"
b110 H"
b11 I"
b1011 B"
1?"
b0 F"
1]
b11 |
b11 1"
b11 J"
xZ
0{
b110110110010000000000000000001 k
b110110110010000000000000000001 D"
b110110110010000000000000000001 D#
b1 X"
b1 V"
b110110110010000000000000000001 o
b110110110010000000000000000001 ]"
b110110110010000000000000000001 B#
b110110110010000000000000000001 B
b110110110010000000000000000001 R
b110110110010000000000000000001 V
b110110110010000000000000000001 T"
b101100 \"
b101000 @
b101000 J
b101000 a
b101000 ^"
1&
#280
0&
#290
b1111000011110000111100001111000 q
b1111000011110000111100001111000 >"
b1111000011110000111100001111000 w"
b101 [
b101 '"
b101 R"
0Y
b101 C"
b100 G"
b100 H"
b101 I"
b101 B"
0?"
b1 W"
b1 U"
b1 v
b1 #"
b1 S"
b1 d
b1 ,"
b1 O"
b1 {"
b100 c
b100 &"
b100 P"
b100 ~"
b100 e
b100 /"
b100 N"
b100 y"
1]
1\
b101 |
b101 1"
b101 J"
xZ
1w
b1010100010000000000000000001 k
b1010100010000000000000000001 D"
b1010100010000000000000000001 D#
b1010100010000000000000000001 o
b1010100010000000000000000001 ]"
b1010100010000000000000000001 B#
b1010100010000000000000000001 B
b1010100010000000000000000001 R
b1010100010000000000000000001 V
b1010100010000000000000000001 T"
b110 m
b110 5"
b110 z"
b0 7"
1p
b11110000111100001111000011110000 _
b11110000111100001111000011110000 )"
b11110000111100001111000011110000 r"
b100 s
b100 ;"
b100 u"
b11110000111100001111000011110000 `
b11110000111100001111000011110000 *"
b11110000111100001111000011110000 q"
b100 t
b100 :"
b100 t"
b110000 \"
b110 3"
b101100 @
b101100 J
b101100 a
b101100 ^"
1&
#300
0&
#310
b1010 [
b1010 '"
b1010 R"
1Y
b11010 C"
b0 E"
b110 A"
b1110 G"
b1110 H"
b10 I"
b1010 B"
1?"
b0 W"
b0 U"
b0 v
b0 #"
b0 S"
b0 d
b0 ,"
b0 O"
b0 {"
b110 c
b110 &"
b110 P"
b110 ~"
b1110 e
b1110 /"
b1110 N"
b1110 y"
1]
1\
b10 |
b10 1"
b10 J"
xZ
1w
b110101110011000000000000000000 k
b110101110011000000000000000000 D"
b110101110011000000000000000000 D#
b0 X"
b0 V"
b110101110011000000000000000000 o
b110101110011000000000000000000 ]"
b110101110011000000000000000000 B#
b110101110011000000000000000000 B
b110101110011000000000000000000 R
b110101110011000000000000000000 V
b110101110011000000000000000000 T"
b0 q
b0 >"
b0 w"
1p
b110 s
b110 ;"
b110 u"
b1110 t
b1110 :"
b1110 t"
b110100 \"
b0 `
b0 *"
b0 q"
b0 _
b0 )"
b0 r"
b1111000011110000111100001111000 k"
b110000 @
b110000 J
b110000 a
b110000 ^"
1&
#320
0&
#330
1u
1{
b1 [
b1 '"
b1 R"
b11 n
b11 ."
b11 L"
0Y
0p
b100000000000 _
b100000000000 )"
b100000000000 r"
b0 s
b0 ;"
b0 u"
b100000000000 `
b100000000000 *"
b100000000000 q"
b0 t
b0 :"
b0 t"
b1100001 C"
b1100 E"
b0 A"
b0 G"
b0 H"
b1 I"
b1 B"
0?"
b11 F"
b0 c
b0 &"
b0 P"
b0 ~"
b0 e
b0 /"
b0 N"
b0 y"
1]
0\
b1 |
b1 1"
b1 J"
xZ
0w
b11000010000000000000000000001100 k
b11000010000000000000000000001100 D"
b11000010000000000000000000001100 D#
b1100 X"
b1100 V"
b11000010000000000000000000001100 o
b11000010000000000000000000001100 ]"
b11000010000000000000000000001100 B#
b11000010000000000000000000001100 B
b11000010000000000000000000001100 R
b11000010000000000000000000001100 V
b11000010000000000000000000001100 T"
b110100 \"
b110100 @
b110100 J
b110100 a
b110100 ^"
1&
