Project_2_SCC/src/dump.vcd
$date
	Sun Nov 02 21:07:13 2025
$end
$version
	Icarus Verilog
$end
$timescale
	1ns
$end
$scope module scc_tb_simple_crc $end
$var wire 32 ! instruction_memory_v [31:0] $end
$var wire 1 " halt_f $end
$var wire 2 # err_bits [1:0] $end
$var wire 32 $ data_memory_in_v [31:0] $end
$var reg 32 % actual_value [31:0] $end
$var reg 32 & addr [31:0] $end
$var reg 1 ' clk $end
$var reg 1 ( clk_en $end
$var reg 16 ) current_address [15:0] $end
$var reg 256 * dummy_line [255:0] $end
$var reg 32 + dut_checksum_val [31:0] $end
$var reg 32 , dut_revert_val [31:0] $end
$var reg 32 - expected_checksum [31:0] $end
$var reg 32 . expected_value [31:0] $end
$var reg 32 / initial_value [31:0] $end
$var reg 1 0 rst $end
$var reg 32 1 value [31:0] $end
$var integer 32 2 error_count [31:0] $end
$var integer 32 3 fd [31:0] $end
$var integer 32 4 found_checksum [31:0] $end
$var integer 32 5 found_revert [31:0] $end
$var integer 32 6 line_num [31:0] $end
$var integer 32 7 matched [31:0] $end
$scope function compute_checksum $end
$var reg 32 8 R1 [31:0] $end
$var reg 32 9 R2 [31:0] $end
$var reg 32 : R4 [31:0] $end
$var reg 32 ; R5 [31:0] $end
$var reg 32 < R6 [31:0] $end
$var reg 32 = init_val [31:0] $end
$var integer 32 > j [31:0] $end
$upscope $end
$scope module top $end
$var wire 1 ' clk $end
$var wire 1 ( clk_en $end
$var wire 1 0 rst $end
$var wire 1 ? writeBit $end
$var wire 1 @ readBit $end
$var wire 32 A programCounter [31:0] $end
$var wire 32 B instruction_memory_v [31:0] $end
$var wire 32 C instruction [31:0] $end
$var wire 1 " halt_f $end
$var wire 2 D err_bits [1:0] $end
$var wire 32 E data_memory_in_v [31:0] $end
$var wire 32 F dataOutMem [31:0] $end
$var wire 32 G dataIn [31:0] $end
$var wire 32 H addressFetch [31:0] $end
$scope module memMod $end
$var wire 1 I instruction_memory_en $end
$var wire 1 ' mem_Clk $end
$var wire 32 J instruction_memory_a [31:0] $end
$var wire 1 " halt_f $end
$var wire 1 ? data_memory_write $end
$var wire 1 @ data_memory_read $end
$var wire 32 K data_memory_out_v [31:0] $end
$var wire 32 L data_memory_a [31:0] $end
$var reg 8 M a [7:0] $end
$var reg 8 N b [7:0] $end
$var reg 8 O c [7:0] $end
$var reg 8 P d [7:0] $end
$var reg 32 Q data_memory_in_v [31:0] $end
$var reg 32 R instruction_memory_v [31:0] $end
$var integer 32 S fd [31:0] $end
$var integer 32 T i [31:0] $end
$upscope $end
$scope module scc $end
$var wire 1 ' clk $end
$var wire 1 ( clk_en $end
$var wire 32 U dataIn [31:0] $end
$var wire 32 V instruction [31:0] $end
$var wire 32 W memoryDataIn [31:0] $end
$var wire 1 0 rst $end
$var wire 1 ? writeFlag $end
$var wire 32 X ucode_inst [31:0] $end
$var wire 1 Y specialEncoding $end
$var wire 1 Z setFlags $end
$var wire 4 [ secondLevelDecode [3:0] $end
$var wire 1 \ regWrite $end
$var wire 1 ] regRead $end
$var wire 32 ^ readDataSec [31:0] $end
$var wire 32 _ readDataFirst [31:0] $end
$var wire 32 ` readDataDest [31:0] $end
$var wire 32 a programCounter [31:0] $end
$var wire 4 b out_sourceSecReg [3:0] $end
$var wire 4 c out_sourceFirstReg [3:0] $end
$var wire 16 d out_imm [15:0] $end
$var wire 4 e out_destRegister [3:0] $end
$var wire 7 f opcode [6:0] $end
$var wire 1 g mux_ctrl $end
$var wire 2 h mul_type [1:0] $end
$var wire 1 i mul_trigger $end
$var wire 1 j mul_release $end
$var wire 1 @ memoryRead $end
$var wire 1 k loadStore $end
$var wire 32 l instructionForID [31:0] $end
$var wire 1 " halt $end
$var wire 4 m flags_ucode_to_exe [3:0] $end
$var wire 4 n flags_out [3:0] $end
$var wire 2 o firstLevelDecode [1:0] $end
$var wire 32 p filtered_instruction [31:0] $end
$var wire 1 q exe_writeToReg $end
$var wire 32 r exe_writeData [31:0] $end
$var wire 4 s exe_readRegSec [3:0] $end
$var wire 4 t exe_readRegFirst [3:0] $end
$var wire 4 u exe_readRegDest [3:0] $end
$var wire 1 v exeOverrideBR $end
$var wire 1 w exeOverride $end
$var wire 16 x exeData [15:0] $end
$var wire 1 y dataRegisterImm $end
$var wire 1 z dataRegister $end
$var wire 32 { dataOut [31:0] $end
$var wire 4 | branchInstruction [3:0] $end
$var wire 1 } branch $end
$var wire 3 ~ aluFunction [2:0] $end
$var wire 32 !" addressIn [31:0] $end
$var reg 32 "" data_memory_v [31:0] $end
$var reg 2 #" err_bits [1:0] $end
$var reg 32 $" instruction_memory_v [31:0] $end
$scope module EXE $end
$var wire 1 ' clk $end
$var wire 16 %" exeData [15:0] $end
$var wire 32 &" memoryDataIn [31:0] $end
$var wire 1 0 rst $end
$var wire 1 Y specialEncoding $end
$var wire 4 '" sourceSecReg [3:0] $end
$var wire 4 (" sourceFirstReg [3:0] $end
$var wire 1 Z setFlags $end
$var wire 4 )" secondLevelDecode [3:0] $end
$var wire 32 *" readDataSec [31:0] $end
$var wire 32 +" readDataFirst [31:0] $end
$var wire 32 ," readDataDest [31:0] $end
$var wire 7 -" opcode_in [6:0] $end
$var wire 2 ." mul_type [1:0] $end
$var wire 1 j mul_release $end
$var wire 16 /" imm [15:0] $end
$var wire 4 0" flags_back_in [3:0] $end
$var wire 2 1" firstLevelDecode [1:0] $end
$var wire 4 2" destReg [3:0] $end
$var wire 4 3" branchInstruction [3:0] $end
$var wire 3 4" aluFunctions [2:0] $end
$var reg 33 5" aluRegister [32:0] $end
$var reg 1 w exeOverride $end
$var reg 1 v exeOverrideBR $end
$var reg 4 6" flags [3:0] $end
$var reg 4 7" flags_next [3:0] $end
$var reg 4 8" flags_out [3:0] $end
$var reg 1 9" help_trigger $end
$var reg 32 :" immExt [31:0] $end
$var reg 32 ;" mem_addr_latched [31:0] $end
$var reg 32 <" mem_data_latched [31:0] $end
$var reg 1 =" mem_write_latched $end
$var reg 32 >" memoryAddressOut [31:0] $end
$var reg 32 ?" memoryDataOut [31:0] $end
$var reg 1 @ memoryRead $end
$var reg 1 ? memoryWrite $end
$var reg 4 @" readRegDest [3:0] $end
$var reg 4 A" readRegFirst [3:0] $end
$var reg 4 B" readRegSec [3:0] $end
$var reg 33 C" tempDiff [32:0] $end
$var reg 32 D" writeData [31:0] $end
$var reg 1 q writeToReg $end
$upscope $end
$scope module ID $end
$var wire 1 ' clk $end
$var wire 1 0 rst $end
$var wire 1 E" specialBit $end
$var wire 4 F" sourceSecReg [3:0] $end
$var wire 4 G" sourceFirstReg [3:0] $end
$var wire 4 H" secondLevelDecode [3:0] $end
$var wire 7 I" opcode [6:0] $end
$var wire 32 J" instruction [31:0] $end
$var wire 16 K" imm [15:0] $end
$var wire 2 L" firstLevelDecode [1:0] $end
$var wire 4 M" destReg [3:0] $end
$var wire 4 N" branchCondition [3:0] $end
$var wire 3 O" aluOperationCommands [2:0] $end
$var reg 3 P" aluFunction [2:0] $end
$var reg 1 } branch $end
$var reg 4 Q" branchInstruction [3:0] $end
$var reg 1 z dataRegister $end
$var reg 1 y dataRegisterImm $end
$var reg 2 R" firstLevelDecode_out [1:0] $end
$var reg 1 " halt $end
$var reg 1 k loadStore $end
$var reg 1 i mul_trigger $end
$var reg 2 S" mul_type [1:0] $end
$var reg 7 T" opcode_out [6:0] $end
$var reg 4 U" out_destRegister [3:0] $end
$var reg 16 V" out_imm [15:0] $end
$var reg 4 W" out_sourceFirstReg [3:0] $end
$var reg 4 X" out_sourceSecReg [3:0] $end
$var reg 1 ] regRead $end
$var reg 1 \ regWrite $end
$var reg 4 Y" secondLevelDecode_out [3:0] $end
$var reg 1 Z setFlags $end
$var reg 1 Y specialEncoding $end
$upscope $end
$scope module IF $end
$var wire 1 ' clk $end
$var wire 16 Z" exeData [15:0] $end
$var wire 1 w exeOverride $end
$var wire 1 v exeOverrideBR $end
$var wire 32 [" fetchedInstruction [31:0] $end
$var wire 16 \" imm16_exe [15:0] $end
$var wire 1 i mul_trigger $end
$var wire 7 ]" opcode [6:0] $end
$var wire 1 0 rst $end
$var wire 32 ^" readDataFirst [31:0] $end
$var wire 1 j mul_release $end
$var wire 16 _" imm16 [15:0] $end
$var wire 32 `" for_br [31:0] $end
$var wire 32 a" branchOffsetAddress_exe [31:0] $end
$var wire 32 b" branchOffsetAddress [31:0] $end
$var parameter 32 c" sFilter $end
$var parameter 32 d" sIdle $end
$var parameter 32 e" sUcode $end
$var reg 32 f" PC_next [31:0] $end
$var reg 32 g" filteredInstruction [31:0] $end
$var reg 32 h" programCounter [31:0] $end
$var reg 2 i" state [1:0] $end
$var reg 2 j" stateNext [1:0] $end
$var reg 32 k" true_for_br [31:0] $end
$upscope $end
$scope module REGFILE $end
$var wire 1 ' clk $end
$var wire 32 l" dbg_R0 [31:0] $end
$var wire 32 m" dbg_R1 [31:0] $end
$var wire 32 n" dbg_R10 [31:0] $end
$var wire 32 o" dbg_R11 [31:0] $end
$var wire 32 p" dbg_R12 [31:0] $end
$var wire 32 q" dbg_R13 [31:0] $end
$var wire 32 r" dbg_R14 [31:0] $end
$var wire 32 s" dbg_R15 [31:0] $end
$var wire 32 t" dbg_R2 [31:0] $end
$var wire 32 u" dbg_R3 [31:0] $end
$var wire 32 v" dbg_R4 [31:0] $end
$var wire 32 w" dbg_R5 [31:0] $end
$var wire 32 x" dbg_R6 [31:0] $end
$var wire 32 y" dbg_R7 [31:0] $end
$var wire 32 z" dbg_R8 [31:0] $end
$var wire 32 {" dbg_R9 [31:0] $end
$var wire 32 |" out_rd [31:0] $end
$var wire 32 }" out_rs1 [31:0] $end
$var wire 32 ~" out_rs2 [31:0] $end
$var wire 4 !# rd [3:0] $end
$var wire 4 "# rs1 [3:0] $end
$var wire 4 ## rs2 [3:0] $end
$var wire 1 0 rst $end
$var wire 1 q write $end
$var wire 32 $# writeData [31:0] $end
$var integer 32 %# i [31:0] $end
$upscope $end
$scope module Ucode $end
$var wire 1 ' clk $end
$var wire 4 &# dest_reg [3:0] $end
$var wire 4 '# flags_in [3:0] $end
$var wire 16 (# immediate [15:0] $end
$var wire 2 )# mul_type [1:0] $end
$var wire 32 *# readDataSecond [31:0] $end
$var wire 1 0 rst $end
$var wire 4 +# source_reg [3:0] $end
$var wire 1 i start_mul $end
$var parameter 7 ,# ADDS_OPCODE $end
$var parameter 7 -# ADD_OPCODE $end
$var parameter 7 .# MOV_OPCODE $end
$var parameter 2 /# MULI $end
$var parameter 2 0# MULR $end
$var parameter 2 1# MULSI $end
$var parameter 2 2# MULSR $end
$var parameter 7 3# NOT_OPCODE $end
$var parameter 7 4# SUBI_OPCODE $end
$var parameter 7 5# SUBS_OPCODE $end
$var parameter 7 6# SUB_OPCODE $end
$var parameter 3 7# sClear $end
$var parameter 3 8# sFix_it $end
$var parameter 3 9# sHalt $end
$var parameter 3 :# sIdle $end
$var parameter 3 ;# sKeep_adding $end
$var parameter 3 <# sMov $end
$var reg 16 =# corrected_imm [15:0] $end
$var reg 32 ># corrected_readDataSecond [31:0] $end
$var reg 16 ?# count_next [15:0] $end
$var reg 16 @# count_reg [15:0] $end
$var reg 4 A# dest_reg_hold [3:0] $end
$var reg 2 B# fix [1:0] $end
$var reg 2 C# fix_next [1:0] $end
$var reg 4 D# flags_back_out [3:0] $end
$var reg 4 E# flags_hold [3:0] $end
$var reg 1 j mul_release $end
$var reg 1 g mux_ctrl $end
$var reg 32 F# output_instruction [31:0] $end
$var reg 32 G# register_decrementer_count [31:0] $end
$var reg 32 H# register_decrementer_count_next [31:0] $end
$var reg 3 I# state_next [2:0] $end
$var reg 3 J# state_reg [2:0] $end
$var reg 2 K# true_mul_type [1:0] $end
$var reg 4 L# true_source_reg [3:0] $end
$upscope $end
$scope module mux $end
$var wire 1 g control $end
$var wire 32 M# filtered_instruction [31:0] $end
$var wire 32 N# ucode_instruction [31:0] $end
$var reg 32 O# finalized_instruction [31:0] $end
$upscope $end
$upscope $end
$upscope $end
$upscope $end
$enddefinitions $end
$comment Show the parameter values. $end
$dumpall
b10 <#
b11 ;#
b0 :#
b100 9#
b101 8#
b1 7#
b110010 6#
b111010 5#
b10010 4#
b110110 3#
b11 2#
b10 1#
b1 0#
b0 /#
b0 .#
b110001 -#
b111001 ,#
b10 e"
b0 d"
b1 c"
$end
#0
$dumpvars
bx O#
bx N#
bx M#
bx L#
bx K#
bx J#
bx I#
bx H#
bx G#
bx F#
bx E#
bx D#
bx C#
bx B#
bx A#
bx @#
bx ?#
bx >#
bx =#
bx +#
bx *#
bx )#
bx (#
bx '#
bx &#
bx %#
bx $#
bx ##
bx "#
bx !#
bx ~"
bx }"
bx |"
bx {"
bx z"
bx y"
bx x"
bx w"
bx v"
bx u"
bx t"
bx s"
bx r"
bx q"
bx p"
bx o"
bx n"
bx m"
bx l"
bx k"
b0 j"
bx i"
bx h"
bx g"
bx f"
bx b"
bx a"
bx `"
bx _"
bx ^"
bx ]"
bx \"
bx ["
bx Z"
bx Y"
bx X"
bx W"
bx V"
bx U"
bx T"
bx S"
bx R"
bx Q"
bx P"
bx O"
bx N"
bx M"
bx L"
bx K"
bx J"
bx I"
bx H"
bx G"
bx F"
xE"
bx D"
bx C"
bx B"
bx A"
bx @"
bx ?"
bx >"
x="
bx <"
bx ;"
bx :"
x9"
bx 8"
bx 7"
bx 6"
bx 5"
bx 4"
bx 3"
bx 2"
bx 1"
bx 0"
bx /"
bx ."
bx -"
bx ,"
bx +"
bx *"
bx )"
bx ("
bx '"
bx &"
bx %"
bx $"
bx #"
bx ""
bx !"
bx ~
x}
bx |
bx {
xz
xy
bx x
xw
xv
bx u
bx t
bx s
bx r
xq
bx p
bx o
bx n
bx m
bx l
xk
xj
xi
bx h
xg
bx f
bx e
bx d
bx c
bx b
bx a
bx `
bx _
bx ^
x]
x\
bx [
xZ
xY
bx X
bx W
bx V
bx U
bx T
bx S
bx R
bx Q
bx P
bx O
bx N
bx M
bx L
bx K
bx J
1I
bx H
bx G
bx F
bx E
bx D
bx C
bx B
bx A
x@
x?
bx >
bx =
bx <
bx ;
bx :
bx 9
bx 8
bx 7
bx 6
bx 5
bx 4
bx 3
b0 2
bx 1
00
bx /
bx .
bx -
bx ,
bx +
bx *
bx )
1(
0'
bx &
bx %
bx $
bx #
x"
bx !
$end
#5
b11111111111111111101010100000000 b"
b1101010100000000 _"
b100 f"
b11000001101010100000000 C
b11000001101010100000000 R
b11000001101010100000000 V
b11000001101010100000000 ["
0?
b0 A
b0 J
b0 a
b0 h"
b1 j"
0="
b0 i"
b0 r"
1'
#10
b0 n
b0 8"
b0 '#
b0 7"
b0 C"
b0 :"
b0 H
b0 L
b0 !"
b0 >"
0@
b0 F
b0 K
b0 {
b0 ?"
b0 r
b0 D"
b0 $#
0q
b0 s
b0 B"
b0 ##
b0 t
b0 A"
b0 "#
b0 u
b0 @"
b0 !#
0w
0v
b0 >#
b0 =#
0j
0g
b11001000000000000000000000000000 X
b11001000000000000000000000000000 F#
b11001000000000000000000000000000 N#
b0 ?#
b0 I#
b0 <"
b0 ;"
b0 6"
b0 @#
b0 J#
b0 j"
0'
10
#15
b0 `"
b0 s"
b0 q"
b0 p"
b0 o"
b0 n"
b0 {"
b0 z"
b0 y"
b0 x"
b0 w"
b0 v"
b0 u"
b0 t"
b0 m"
b0 `
b0 ,"
b0 |"
b0 _
b0 +"
b0 ^"
b0 }"
b0 ^
b0 *"
b0 ~"
b0 *#
b0 l"
b10000 %#
1'
#20
0'
#25
b10000 %#
1'
#30
0'
#35
b10000 %#
1'
#40
b1 j"
0'
00
#45
1q
b1101010100000000 r
b1101010100000000 D"
b1101010100000000 $#
b11 u
b11 @"
b11 !#
b0 f
b0 -"
b0 T"
b0 ]"
b0 [
b0 )"
b0 Y"
b0 o
b0 1"
b0 R"
0Y
b0 I"
b1101010100000000 K"
b110 F"
b0 G"
b11 M"
b11 N"
b0 O"
b0 H"
0E"
b0 L"
0"
0i
b11111111111111111101010100000000 a"
b1101010100000000 \"
b1101010100000000 x
b1101010100000000 %"
b1101010100000000 Z"
b1101010100000000 d
b1101010100000000 /"
b1101010100000000 V"
b1101010100000000 (#
b0 b
b0 '"
b0 X"
b0 c
b0 ("
b0 W"
b0 +#
b11 e
b11 2"
b11 U"
b11 &#
1]
1\
b0 |
b0 3"
b0 Q"
b0 ~
b0 4"
b0 P"
0Z
1y
0z
0k
0}
b11000001101010100000000 l
b11000001101010100000000 J"
b11000001101010100000000 O#
b11000001101010100000000 p
b11000001101010100000000 g"
b11000001101010100000000 M#
b1 i"
1'
#50
0'
#55
b1 f
b1 -"
b1 T"
b1 ]"
b1 ~
b1 4"
b1 P"
b1 [
b1 )"
b1 Y"
b1 I"
b0 K"
b0 F"
b1 O"
b1 H"
b0 a"
b0 \"
b0 x
b0 %"
b0 Z"
b0 d
b0 /"
b0 V"
b0 (#
b11 e
b11 2"
b11 U"
b11 &#
1]
1\
1y
b10011000000000000000000000 l
b10011000000000000000000000 J"
b10011000000000000000000000 O#
b0 b"
b0 _"
b10011000000000000000000000 p
b10011000000000000000000000 g"
b10011000000000000000000000 M#
b10011000000000000000000000 C
b10011000000000000000000000 R
b10011000000000000000000000 V
b10011000000000000000000000 ["
b1101010100000000 r
b1101010100000000 D"
b1101010100000000 $#
1q
b11 u
b11 @"
b11 !#
b1000 f"
b1101010100000000 `
b1101010100000000 ,"
b1101010100000000 |"
b1101010100000000 u"
b100 A
b100 J
b100 a
b100 h"
1'
#60
0'
#65
b110 a"
b110 \"
b110 x
b110 %"
b110 Z"
b110 d
b110 /"
b110 V"
b110 (#
b0 f
b0 -"
b0 T"
b0 ]"
b0 [
b0 )"
b0 Y"
b110 r
b110 D"
b110 $#
1q
b0 `
b0 ,"
b0 |"
b0 u
b0 @"
b0 !#
b0 I"
b110 K"
b0 M"
b0 N"
b0 O"
b0 H"
b0 e
b0 2"
b0 U"
b0 &#
1]
1\
b0 ~
b0 4"
b0 P"
1y
b110 l
b110 J"
b110 O#
b110 b"
b110 _"
b110 p
b110 g"
b110 M#
b110 C
b110 R
b110 V
b110 ["
b1100 f"
b1000 A
b1000 J
b1000 a
b1000 h"
1'
#70
0'
#75
b1 u
b1 @"
b1 !#
b1 e
b1 2"
b1 U"
b1 &#
b11 f
b11 -"
b11 T"
b11 ]"
b11 ~
b11 4"
b11 P"
b11 [
b11 )"
b11 Y"
b11 I"
b0 K"
b1 M"
b1 N"
b11 O"
b11 H"
b0 a"
b0 \"
b0 x
b0 %"
b0 Z"
b0 d
b0 /"
b0 V"
b0 (#
1]
1\
1y
b110001000000000000000000000 l
b110001000000000000000000000 J"
b110001000000000000000000000 O#
b0 b"
b0 _"
b110001000000000000000000000 p
b110001000000000000000000000 g"
b110001000000000000000000000 M#
b110001000000000000000000000 C
b110001000000000000000000000 R
b110001000000000000000000000 V
b110001000000000000000000000 ["
b110 `"
b11111111111111111111111111111111 r
b11111111111111111111111111111111 D"
b11111111111111111111111111111111 $#
1q
b10000 f"
b0 `
b0 ,"
b0 |"
b110 _
b110 +"
b110 ^"
b110 }"
b110 ^
b110 *"
b110 ~"
b110 *#
b110 l"
b1100 A
b1100 J
b1100 a
b1100 h"
1'
#80
0'
#85
b0 f
b0 -"
b0 T"
b0 ]"
b0 [
b0 )"
b0 Y"
b0 I"
b111 M"
b111 N"
b0 O"
b0 H"
b111 e
b111 2"
b111 U"
b111 &#
1]
1\
b0 ~
b0 4"
b0 P"
1y
b111000000000000000000000 l
b111000000000000000000000 J"
b111000000000000000000000 O#
b111000000000000000000000 p
b111000000000000000000000 g"
b111000000000000000000000 M#
b111000000000000000000000 C
b111000000000000000000000 R
b111000000000000000000000 V
b111000000000000000000000 ["
b10100 f"
b0 r
b0 D"
b0 $#
1q
b111 u
b111 @"
b111 !#
b10000 A
b10000 J
b10000 a
b10000 h"
b0 `
b0 ,"
b0 |"
b11111111111111111111111111111111 m"
1'
#90
0'
#95
b11100 r
b11100 D"
b11100 $#
b11100 a"
b11100 \"
b11100 x
b11100 %"
b11100 Z"
b11100 d
b11100 /"
b11100 V"
b11100 (#
1q
b0 `
b0 ,"
b0 |"
b1000 u
b1000 @"
b1000 !#
b11100 K"
b1000 M"
b1000 N"
b1000 e
b1000 2"
b1000 U"
b1000 &#
1]
1\
1y
b1000000000000000000011100 l
b1000000000000000000011100 J"
b1000000000000000000011100 O#
b11100 b"
b11100 _"
b1000000000000000000011100 p
b1000000000000000000011100 g"
b1000000000000000000011100 M#
b1000000000000000000011100 C
b1000000000000000000011100 R
b1000000000000000000011100 V
b1000000000000000000011100 ["
b11000 f"
b10100 A
b10100 J
b10100 a
b10100 h"
1'
#100
0'
#105
b11100 `"
b11100 k"
19"
1v
b11100 _
b11100 +"
b11100 ^"
b11100 }"
b1000 t
b1000 A"
b1000 "#
b1000 |
b1000 3"
b1000 Q"
1}
b1100010 f
b1100010 -"
b1100010 T"
b1100010 ]"
b10 ~
b10 4"
b10 P"
b10 [
b10 )"
b10 Y"
b11 o
b11 1"
b11 R"
b1100010 I"
b0 K"
b10 O"
b10 H"
b11 L"
b0 a"
b0 \"
b0 x
b0 %"
b0 Z"
b0 d
b0 /"
b0 V"
b0 (#
b0 e
b0 2"
b0 U"
b0 &#
1]
0\
0y
b11000101000000000000000000000000 l
b11000101000000000000000000000000 J"
b11000101000000000000000000000000 O#
b0 b"
b0 _"
b11000101000000000000000000000000 p
b11000101000000000000000000000000 g"
b11000101000000000000000000000000 M#
b11000101000000000000000000000000 C
b11000101000000000000000000000000 R
b11000101000000000000000000000000 V
b11000101000000000000000000000000 ["
b11100 f"
b0 r
b0 D"
b0 $#
0q
b0 u
b0 @"
b0 !#
b11000 A
b11000 J
b11000 a
b11000 h"
b110 `
b110 ,"
b110 |"
b11100 z"
1'
#110
0'
#115
b11011110101011011011111011101111 G
b11011110101011011011111011101111 Q
b11011110101011011011111011101111 U
b11011110101011011011111011101111 W
b11011110101011011011111011101111 &"
b1101010100000000 `"
1q
b11011110101011011011111011101111 r
b11011110101011011011111011101111 D"
b11011110101011011011111011101111 $#
b0 `
b0 ,"
b0 |"
b10 u
b10 @"
b10 !#
1@
b1101010100000000 H
b1101010100000000 L
b1101010100000000 !"
b1101010100000000 >"
b11 c
b11 ("
b11 W"
b11 +#
b10 e
b10 2"
b10 U"
b10 &#
1k
b1000000 f
b1000000 -"
b1000000 T"
b1000000 ]"
b0 [
b0 )"
b0 Y"
b10 o
b10 1"
b10 R"
b1101010100000000 _
b1101010100000000 +"
b1101010100000000 ^"
b1101010100000000 }"
b11 t
b11 A"
b11 "#
0v
b1000000 I"
b11 G"
b10 M"
b10 N"
b0 O"
b0 H"
b10 L"
0]
b0 |
b0 3"
b0 Q"
b0 ~
b0 4"
b0 P"
0}
b10000000010001100000000000000000 l
b10000000010001100000000000000000 J"
b10000000010001100000000000000000 O#
b10000000010001100000000000000000 p
b10000000010001100000000000000000 g"
b10000000010001100000000000000000 M#
b10000000010001100000000000000000 C
b10000000010001100000000000000000 R
b10000000010001100000000000000000 V
b10000000010001100000000000000000 ["
b100000 f"
b11100 A
b11100 J
b11100 a
b11100 h"
1'
#120
0'
#125
b11111111111111111111111111111111 `"
b11011110101011011011111011101111 ^
b11011110101011011011111011101111 *"
b11011110101011011011111011101111 ~"
b11011110101011011011111011101111 *#
b10 s
b10 B"
b10 ##
1\
1]
b10 b
b10 '"
b10 X"
1z
b100000000000000 a"
b100000000000000 \"
b100000000000000 x
b100000000000000 %"
b100000000000000 Z"
b100000000000000 d
b100000000000000 /"
b100000000000000 V"
b100000000000000 (#
b110101 f
b110101 -"
b110101 T"
b110101 ]"
b101 ~
b101 4"
b101 P"
b101 [
b101 )"
b101 Y"
b1 o
b1 1"
b1 R"
1Y
b110101 I"
b100000000000000 K"
b10 F"
b1 G"
b1 M"
b1 N"
b101 O"
b101 H"
1E"
b1 L"
b1 c
b1 ("
b1 W"
b1 +#
b1 e
b1 2"
b1 U"
b1 &#
0k
b1101010001000100100000000000000 l
b1101010001000100100000000000000 J"
b1101010001000100100000000000000 O#
b100000000000000 b"
b100000000000000 _"
b1101010001000100100000000000000 p
b1101010001000100100000000000000 g"
b1101010001000100100000000000000 M#
b1101010001000100100000000000000 C
b1101010001000100100000000000000 R
b1101010001000100100000000000000 V
b1101010001000100100000000000000 ["
b100100 f"
b0 H
b0 L
b0 !"
b0 >"
0@
b100001010100100100000100010000 r
b100001010100100100000100010000 D"
b100001010100100100000100010000 $#
1q
b11111111111111111111111111111111 _
b11111111111111111111111111111111 +"
b11111111111111111111111111111111 ^"
b11111111111111111111111111111111 }"
b1 t
b1 A"
b1 "#
b1 u
b1 @"
b1 !#
b100000 A
b100000 J
b100000 a
b100000 h"
b11111111111111111111111111111111 `
b11111111111111111111111111111111 ,"
b11111111111111111111111111111111 |"
b11011110101011011011111011101111 t"
1'
#130
0'
#135
1y
b101 f
b101 -"
b101 T"
b101 ]"
b0 o
b0 1"
b0 R"
0Y
b101 I"
b11 K"
b0 F"
b10 G"
b100 M"
b100 N"
0E"
b0 L"
b11 a"
b11 \"
b11 x
b11 %"
b11 Z"
b11 d
b11 /"
b11 V"
b11 (#
b0 b
b0 '"
b0 X"
b10 c
b10 ("
b10 W"
b10 +#
b100 e
b100 2"
b100 U"
b100 &#
1]
1\
b101 ~
b101 4"
b101 P"
0z
b1010100001000000000000000011 l
b1010100001000000000000000011 J"
b1010100001000000000000000011 O#
b11 b"
b11 _"
b1010100001000000000000000011 p
b1010100001000000000000000011 g"
b1010100001000000000000000011 M#
b1010100001000000000000000011 C
b1010100001000000000000000011 R
b1010100001000000000000000011 V
b1010100001000000000000000011 ["
b11011110101011011011111011101111 `"
b11011110101011011011111011101 r
b11011110101011011011111011101 D"
b11011110101011011011111011101 $#
1q
b110 ^
b110 *"
b110 ~"
b110 *#
b0 s
b0 B"
b0 ##
b10 t
b10 A"
b10 "#
b100 u
b100 @"
b100 !#
b101000 f"
b0 `
b0 ,"
b0 |"
b11011110101011011011111011101111 _
b11011110101011011011111011101111 +"
b11011110101011011011111011101111 ^"
b11011110101011011011111011101111 }"
b100001010100100100000100010000 m"
b100100 A
b100100 J
b100100 a
b100100 h"
1'
#140
0'
#145
b100 f
b100 -"
b100 T"
b100 ]"
b100 [
b100 )"
b100 Y"
b100 I"
b101 K"
b101 M"
b101 N"
b100 O"
b100 H"
b101 a"
b101 \"
b101 x
b101 %"
b101 Z"
b101 d
b101 /"
b101 V"
b101 (#
b10 c
b10 ("
b10 W"
b10 +#
b101 e
b101 2"
b101 U"
b101 &#
1]
1\
b100 ~
b100 4"
b100 P"
1y
b1000101001000000000000000101 l
b1000101001000000000000000101 J"
b1000101001000000000000000101 O#
b101 b"
b101 _"
b1000101001000000000000000101 p
b1000101001000000000000000101 g"
b1000101001000000000000000101 M#
b1000101001000000000000000101 C
b1000101001000000000000000101 R
b1000101001000000000000000101 V
b1000101001000000000000000101 ["
b101100 f"
b11010101101101111101110111100000 r
b11010101101101111101110111100000 D"
b11010101101101111101110111100000 $#
1q
b11011110101011011011111011101111 _
b11011110101011011011111011101111 +"
b11011110101011011011111011101111 ^"
b11011110101011011011111011101111 }"
b10 t
b10 A"
b10 "#
b101 u
b101 @"
b101 !#
b101000 A
b101000 J
b101000 a
b101000 h"
b0 `
b0 ,"
b0 |"
b11011110101011011011111011101 v"
1'
#150
0'
#155
b11011110101011011011111011101 `"
b11010101101101111101110111100000 ^
b11010101101101111101110111100000 *"
b11010101101101111101110111100000 ~"
b11010101101101111101110111100000 *#
b101 s
b101 B"
b101 ##
b101 b
b101 '"
b101 X"
1z
b110011 f
b110011 -"
b110011 T"
b110011 ]"
b11 [
b11 )"
b11 Y"
b1 o
b1 1"
b1 R"
1Y
b110011 I"
b1010000000000000 K"
b101 F"
b100 G"
b110 M"
b110 N"
b11 O"
b11 H"
1E"
b1 L"
b11111111111111111010000000000000 a"
b1010000000000000 \"
b1010000000000000 x
b1010000000000000 %"
b1010000000000000 Z"
b1010000000000000 d
b1010000000000000 /"
b1010000000000000 V"
b1010000000000000 (#
b100 c
b100 ("
b100 W"
b100 +#
b110 e
b110 2"
b110 U"
b110 &#
1]
1\
b11 ~
b11 4"
b11 P"
0y
b1100110110010001010000000000000 l
b1100110110010001010000000000000 J"
b1100110110010001010000000000000 O#
b11111111111111111010000000000000 b"
b1010000000000000 _"
b1100110110010001010000000000000 p
b1100110110010001010000000000000 g"
b1100110110010001010000000000000 M#
b1100110110010001010000000000000 C
b1100110110010001010000000000000 R
b1100110110010001010000000000000 V
b1100110110010001010000000000000 ["
b10001100101011001010111000000 r
b10001100101011001010111000000 D"
b10001100101011001010111000000 $#
1q
b11011110101011011011111011101 _
b11011110101011011011111011101 +"
b11011110101011011011111011101 ^"
b11011110101011011011111011101 }"
b100 t
b100 A"
b100 "#
b110 u
b110 @"
b110 !#
b110000 f"
b0 `
b0 ,"
b0 |"
b11010101101101111101110111100000 w"
b101100 A
b101100 J
b101100 a
b101100 h"
1'
#160
0'
