Project_2_SCC/src/dump.vcd
$date
	Mon Oct 20 14:43:43 2025
$end
$version
	Icarus Verilog
$end
$timescale
	1ps
$end
$scope module oct_17_checkpoint $end
$var wire 1 ! halt_f $end
$var wire 32 " instruction_memory_v [31:0] $end
$var wire 2 # err_bits [1:0] $end
$var wire 32 $ data_memory_in_v [31:0] $end
$var reg 1 % clk $end
$var reg 1 & clk_en $end
$var reg 1 ' rst $end
$scope module topMod $end
$var wire 1 % clk $end
$var wire 1 & clk_en $end
$var wire 1 ! halt_f $end
$var wire 1 ' rst $end
$var wire 1 ( writeBit $end
$var wire 1 ) readBit $end
$var wire 32 * programCounter [31:0] $end
$var wire 32 + instruction_memory_v [31:0] $end
$var wire 32 , instruction [31:0] $end
$var wire 1 - halt $end
$var wire 2 . err_bits [1:0] $end
$var wire 32 / data_memory_in_v [31:0] $end
$var wire 32 0 dataOutMem [31:0] $end
$var wire 32 1 dataIn [31:0] $end
$var wire 32 2 addressFetch [31:0] $end
$scope module memMod $end
$var wire 1 3 instruction_memory_en $end
$var wire 1 % mem_Clk $end
$var wire 32 4 instruction_memory_a [31:0] $end
$var wire 1 - halt_f $end
$var wire 1 ( data_memory_write $end
$var wire 1 ) data_memory_read $end
$var wire 32 5 data_memory_out_v [31:0] $end
$var wire 32 6 data_memory_a [31:0] $end
$var reg 8 7 a [7:0] $end
$var reg 8 8 b [7:0] $end
$var reg 8 9 c [7:0] $end
$var reg 8 : d [7:0] $end
$var reg 32 ; data_memory_in_v [31:0] $end
$var reg 32 < instruction_memory_v [31:0] $end
$var integer 32 = fd [31:0] $end
$var integer 32 > i [31:0] $end
$upscope $end
$scope module scc $end
$var wire 1 % clk $end
$var wire 1 & clk_en $end
$var wire 32 ? dataIn [31:0] $end
$var wire 32 @ instruction [31:0] $end
$var wire 32 A memoryDataIn [31:0] $end
$var wire 1 ' rst $end
$var wire 1 ( writeFlag $end
$var wire 1 B switchReg $end
$var wire 1 C specialEncoding $end
$var wire 1 D setFlags $end
$var wire 4 E secondLevelDecode [3:0] $end
$var wire 1 F regWrite $end
$var wire 1 G regRead $end
$var wire 32 H readDataSec [31:0] $end
$var wire 32 I readDataFirst [31:0] $end
$var wire 32 J readDataDest [31:0] $end
$var wire 32 K programCounter [31:0] $end
$var wire 4 L out_sourceSecReg [3:0] $end
$var wire 4 M out_sourceFirstReg [3:0] $end
$var wire 16 N out_imm [15:0] $end
$var wire 4 O out_destRegister [3:0] $end
$var wire 1 ) memoryRead $end
$var wire 1 P loadStore $end
$var wire 32 Q instrcutionForID [31:0] $end
$var wire 1 - halt $end
$var wire 2 R firstLevelDecode [1:0] $end
$var wire 1 S exe_writeToReg $end
$var wire 32 T exe_writeData [31:0] $end
$var wire 4 U exe_readRegSec [3:0] $end
$var wire 4 V exe_readRegFirst [3:0] $end
$var wire 4 W exe_readRegDest [3:0] $end
$var wire 1 X exeOverride $end
$var wire 16 Y exeData [15:0] $end
$var wire 1 Z dataRegisterImm $end
$var wire 1 [ dataRegister $end
$var wire 32 \ dataOut [31:0] $end
$var wire 4 ] branchInstruction [3:0] $end
$var wire 1 ^ branch $end
$var wire 3 _ aluFunction [2:0] $end
$var wire 32 ` addressIn [31:0] $end
$var reg 32 a data_memory_v [31:0] $end
$var reg 2 b err_bits [1:0] $end
$var reg 32 c instruction_memory_v [31:0] $end
$scope module EXE $end
$var wire 1 % clk $end
$var wire 16 d exeData [15:0] $end
$var wire 32 e memoryDataIn [31:0] $end
$var wire 1 ' rst $end
$var wire 1 C specialEncoding $end
$var wire 4 f sourceSecReg [3:0] $end
$var wire 4 g sourceFirstReg [3:0] $end
$var wire 1 D setFlags $end
$var wire 4 h secondLevelDecode [3:0] $end
$var wire 32 i readDataSec [31:0] $end
$var wire 32 j readDataFirst [31:0] $end
$var wire 32 k readDataDest [31:0] $end
$var wire 16 l imm [15:0] $end
$var wire 2 m firstLevelDecode [1:0] $end
$var wire 4 n destReg [3:0] $end
$var wire 4 o branchInstruction [3:0] $end
$var wire 3 p aluFunctions [2:0] $end
$var reg 33 q aluRegister [32:0] $end
$var reg 1 X exeOverride $end
$var reg 4 r flags [3:0] $end
$var reg 4 s flags_next [3:0] $end
$var reg 32 t immExt [31:0] $end
$var reg 32 u memoryAddressOut [31:0] $end
$var reg 32 v memoryDataOut [31:0] $end
$var reg 1 ) memoryRead $end
$var reg 1 ( memoryWrite $end
$var reg 4 w readRegDest [3:0] $end
$var reg 4 x readRegFirst [3:0] $end
$var reg 4 y readRegSec [3:0] $end
$var reg 33 z tempDiff [32:0] $end
$var reg 32 { writeData [31:0] $end
$var reg 1 S writeToReg $end
$upscope $end
$scope module ID $end
$var wire 1 % clk $end
$var wire 1 ' rst $end
$var wire 1 | specialBit $end
$var wire 4 } sourceSecReg [3:0] $end
$var wire 4 ~ sourceFirstReg [3:0] $end
$var wire 4 !" secondLevelDecode [3:0] $end
$var wire 32 "" instruction [31:0] $end
$var wire 16 #" imm [15:0] $end
$var wire 2 $" firstLevelDecode [1:0] $end
$var wire 4 %" destReg [3:0] $end
$var wire 4 &" branchCondition [3:0] $end
$var wire 3 '" aluOperationCommands [2:0] $end
$var reg 3 (" aluFunction [2:0] $end
$var reg 1 ^ branch $end
$var reg 4 )" branchInstruction [3:0] $end
$var reg 1 [ dataRegister $end
$var reg 1 Z dataRegisterImm $end
$var reg 2 *" firstLevelDecode_out [1:0] $end
$var reg 1 - halt $end
$var reg 1 P loadStore $end
$var reg 4 +" out_destRegister [3:0] $end
$var reg 16 ," out_imm [15:0] $end
$var reg 4 -" out_sourceFirstReg [3:0] $end
$var reg 4 ." out_sourceSecReg [3:0] $end
$var reg 1 G regRead $end
$var reg 1 F regWrite $end
$var reg 4 /" secondLevelDecode_out [3:0] $end
$var reg 1 D setFlags $end
$var reg 1 C specialEncoding $end
$upscope $end
$scope module IF $end
$var wire 1 % clk $end
$var wire 16 0" exeData [15:0] $end
$var wire 1 X exeOverride $end
$var wire 32 1" fetchedInstruction [31:0] $end
$var wire 16 2" imm16_exe [15:0] $end
$var wire 1 ' rst $end
$var wire 16 3" imm16 [15:0] $end
$var wire 32 4" branchOffsetAddress_exe [31:0] $end
$var wire 32 5" branchOffsetAddress [31:0] $end
$var parameter 32 6" sFilter $end
$var parameter 32 7" sIdle $end
$var reg 32 8" PC [31:0] $end
$var reg 32 9" PC_next [31:0] $end
$var reg 32 :" filteredInstruction [31:0] $end
$var reg 32 ;" programCounter [31:0] $end
$var reg 2 <" state [1:0] $end
$var reg 2 =" stateNext [1:0] $end
$var reg 1 B switchReg $end
$upscope $end
$scope module REGFILE $end
$var wire 1 % clk $end
$var wire 4 >" rd [3:0] $end
$var wire 4 ?" rs1 [3:0] $end
$var wire 4 @" rs2 [3:0] $end
$var wire 1 ' rst $end
$var wire 1 B uCodeFlag $end
$var wire 1 S write $end
$var wire 32 A" writeData [31:0] $end
$var wire 32 B" out_rs2 [31:0] $end
$var wire 32 C" out_rs1 [31:0] $end
$var wire 32 D" out_rd [31:0] $end
$var integer 32 E" i [31:0] $end
$upscope $end
$upscope $end
$upscope $end
$upscope $end
$enddefinitions $end
$comment Show the parameter values. $end
$dumpall
b0 7"
b1 6"
$end
#0
$dumpvars
b10000 E"
bx D"
bx C"
bx B"
b0 A"
b0 @"
b0 ?"
b0 >"
b0 ="
b0 <"
b0 ;"
bx :"
b100 9"
b0 8"
b10000000000 5"
bx 4"
b10000000000 3"
bx 2"
b10000000000 1"
bx 0"
bx /"
bx ."
bx -"
bx ,"
bx +"
bx *"
bx )"
bx ("
bx '"
bx &"
bx %"
bx $"
bx #"
bx ""
bx !"
bx ~
bx }
x|
b0 {
b0 z
b0 y
b0 x
b0 w
b0 v
b0 u
b0 t
b0 s
b0 r
bx q
bx p
bx o
bx n
bx m
bx l
bx k
bx j
bx i
bx h
bx g
bx f
bx e
bx d
bx c
bx b
bx a
b0 `
bx _
x^
bx ]
b0 \
x[
xZ
bx Y
0X
b0 W
b0 V
b0 U
b0 T
0S
bx R
bx Q
xP
bx O
bx N
bx M
bx L
b0 K
bx J
bx I
bx H
xG
xF
bx E
xD
xC
xB
bx A
b10000000000 @
bx ?
bx >
bx =
b10000000000 <
bx ;
bx :
bx 9
bx 8
bx 7
b0 6
b0 5
b0 4
13
b0 2
bx 1
b0 0
bx /
bx .
x-
b10000000000 ,
bx +
b0 *
0)
0(
1'
1&
1%
bx $
bx #
bx "
z!
$end
#5
0%
#10
b10000 E"
1%
#15
0%
#20
b10000 E"
1%
#25
0%
#30
b0 J
b0 k
b0 D"
b0 I
b0 j
b0 C"
b0 H
b0 i
b0 B"
0B
b0 9"
b1 ="
0'
b10000 E"
1%
#35
0%
#40
1S
b10000000000 T
b10000000000 {
b10000000000 A"
b0 E
b0 h
b0 /"
b0 R
b0 m
b0 *"
b10000000000 #"
b0 }
b0 ~
b0 %"
b0 &"
b0 '"
b0 !"
0|
b0 $"
0-
b10000000000 4"
b10000000000 2"
b10000000000 Y
b10000000000 d
b10000000000 0"
b10000000000 N
b10000000000 l
b10000000000 ,"
b0 L
b0 f
b0 ."
b0 M
b0 g
b0 -"
b0 O
b0 n
b0 +"
1G
1F
b0 ]
b0 o
b0 )"
b0 _
b0 p
b0 ("
0D
0C
1Z
0[
0P
0^
b10000000000 Q
b10000000000 ""
b10000000000 :"
b100 9"
b1 <"
1%
#45
0%
#50
b100 W
b100 w
b100 >"
b100 O
b100 n
b100 +"
b100 %"
b100 &"
b10000000000 4"
b10000000000 2"
b10000000000 Y
b10000000000 d
b10000000000 0"
b10000000000 N
b10000000000 l
b10000000000 ,"
1G
1F
1Z
b100000000000010000000000 Q
b100000000000010000000000 ""
b100000000000010000000000 :"
b100000000000010000000000 ,
b100000000000010000000000 <
b100000000000010000000000 @
b100000000000010000000000 1"
b10000000000 T
b10000000000 {
b10000000000 A"
1S
b0 J
b0 k
b0 D"
b10000000000 I
b10000000000 j
b10000000000 C"
b10000000000 H
b10000000000 i
b10000000000 B"
b1000 9"
b100 *
b100 4
b100 K
b100 ;"
b100 8"
1%
#55
0%
#60
b1001 #"
b101 %"
b101 &"
b1001 4"
b1001 2"
b1001 Y
b1001 d
b1001 0"
b1001 N
b1001 l
b1001 ,"
b101 O
b101 n
b101 +"
1G
1F
1Z
b1001 5"
b1001 3"
b101000000000000000001001 Q
b101000000000000000001001 ""
b101000000000000000001001 :"
b101000000000000000001001 ,
b101000000000000000001001 <
b101000000000000000001001 @
b101000000000000000001001 1"
b1001 T
b1001 {
b1001 A"
1S
b101 W
b101 w
b101 >"
b1100 9"
b0 J
b0 k
b0 D"
b1000 *
b1000 4
b1000 K
b1000 ;"
b1000 8"
1%
#65
0%
#70
b0 #"
b111 %"
b111 &"
b0 4"
b0 2"
b0 Y
b0 d
b0 0"
b0 N
b0 l
b0 ,"
b111 O
b111 n
b111 +"
1G
1F
1Z
b0 5"
b0 3"
b111000000000000000000000 Q
b111000000000000000000000 ""
b111000000000000000000000 :"
b111000000000000000000000 ,
b111000000000000000000000 <
b111000000000000000000000 @
b111000000000000000000000 1"
b0 T
b0 {
b0 A"
1S
b111 W
b111 w
b111 >"
b0 J
b0 k
b0 D"
b10000 9"
b1100 *
b1100 4
b1100 K
b1100 ;"
b1100 8"
1%
#75
0%
#80
b1001 I
b1001 j
b1001 C"
b10 s
b1001 T
b1001 {
b1001 A"
b1001 z
b101 V
b101 x
b101 ?"
b101 M
b101 g
b101 -"
1C
b10 _
b10 p
b10 ("
b1010 E
b1010 h
b1010 /"
1S
b1110 W
b1110 w
b1110 >"
b101 ~
b1110 %"
b1110 &"
b10 '"
b1010 !"
1|
b1110 O
b1110 n
b1110 +"
1G
1F
1Z
b110101110010100000000000000000 Q
b110101110010100000000000000000 ""
b110101110010100000000000000000 :"
b110101110010100000000000000000 ,
b110101110010100000000000000000 <
b110101110010100000000000000000 @
b110101110010100000000000000000 1"
b10100 9"
b10000 *
b10000 4
b10000 K
b10000 ;"
b10000 8"
1%
#85
0%
#90
b10000000000 I
b10000000000 j
b10000000000 C"
b10000000000 J
b10000000000 k
b10000000000 D"
1^
b1010100 4"
b1010100 2"
b1010100 Y
b1010100 d
b1010100 0"
b1010100 N
b1010100 l
b1010100 ,"
1D
b1 E
b1 h
b1 /"
b11 R
b11 m
b11 *"
b1010100 #"
b0 ~
b0 %"
b0 &"
b1 '"
b1 !"
0|
b11 $"
b0 M
b0 g
b0 -"
b0 O
b0 n
b0 +"
1G
0F
b1 _
b1 p
b1 ("
0C
0Z
b1010100 5"
b1010100 3"
b11000010000000000000000001010100 Q
b11000010000000000000000001010100 ""
b11000010000000000000000001010100 :"
b11000010000000000000000001010100 ,
b11000010000000000000000001010100 <
b11000010000000000000000001010100 @
b11000010000000000000000001010100 1"
b0 z
b0 T
b0 {
b0 A"
0S
b0 V
b0 x
b0 ?"
b0 W
b0 w
b0 >"
b11000 9"
b10 r
b10100 *
b10100 4
b10100 K
b10100 ;"
b10100 8"
1%
#95
0%
#100
b101 1
b101 ;
b101 ?
b101 A
b101 e
b0 J
b0 k
b0 D"
1S
b101 T
b101 {
b101 A"
b1 W
b1 w
b1 >"
1)
b10000000000 2
b10000000000 6
b10000000000 `
b10000000000 u
b100 V
b100 x
b100 ?"
b100 M
b100 g
b100 -"
b1 O
b1 n
b1 +"
1P
b0 E
b0 h
b0 /"
b10 R
b10 m
b10 *"
b0 #"
b100 ~
b1 %"
b1 &"
b0 '"
b0 !"
b10 $"
b0 4"
b0 2"
b0 Y
b0 d
b0 0"
b0 N
b0 l
b0 ,"
0G
b0 _
b0 p
b0 ("
0D
0^
b0 5"
b0 3"
b10000000001010000000000000000000 Q
b10000000001010000000000000000000 ""
b10000000001010000000000000000000 :"
b10000000001010000000000000000000 ,
b10000000001010000000000000000000 <
b10000000001010000000000000000000 @
b10000000001010000000000000000000 1"
b11100 9"
b11000 *
b11000 4
b11000 K
b11000 ;"
b11000 8"
1%
#105
0%
#110
b0 H
b0 i
b0 B"
b1001 I
b1001 j
b1001 C"
b10 s
b1001 q
b111 U
b111 y
b111 @"
b111 L
b111 f
b111 ."
1[
b11111111111111111110000000000000 4"
b1110000000000000 2"
b1110000000000000 Y
b1110000000000000 d
b1110000000000000 0"
b1110000000000000 N
b1110000000000000 l
b1110000000000000 ,"
1C
b10 _
b10 p
b10 ("
b1010 E
b1010 h
b1010 /"
b1 R
b1 m
b1 *"
b1110000000000000 #"
b111 }
b101 ~
b1110 %"
b1110 &"
b10 '"
b1010 !"
1|
b1 $"
b101 M
b101 g
b101 -"
b1110 O
b1110 n
b1110 +"
0P
b11111111111111111110000000000000 5"
b1110000000000000 3"
b1110101110010101110000000000000 Q
b1110101110010101110000000000000 ""
b1110101110010101110000000000000 :"
b1110101110010101110000000000000 ,
b1110101110010101110000000000000 <
b1110101110010101110000000000000 @
b1110101110010101110000000000000 1"
b0 2
b0 6
b0 `
b0 u
0)
b1001 T
b1001 {
b1001 A"
1S
b101 V
b101 x
b101 ?"
b1110 W
b1110 w
b1110 >"
b0 J
b0 k
b0 D"
b100000 9"
b11100 *
b11100 4
b11100 K
b11100 ;"
b11100 8"
1%
#115
0%
#120
b10000000000 H
b10000000000 i
b10000000000 B"
b10000000000 I
b10000000000 j
b10000000000 C"
b10000000000 J
b10000000000 k
b10000000000 D"
1G
1^
1D
b1 E
b1 h
b1 /"
b11 R
b11 m
b11 *"
b0 T
b0 {
b0 A"
0S
b0 U
b0 y
b0 @"
b0 V
b0 x
b0 ?"
b0 W
b0 w
b0 >"
b11000 #"
b0 }
b0 ~
b0 %"
b0 &"
b1 '"
b1 !"
0|
b11 $"
b11000 4"
b11000 2"
b11000 Y
b11000 d
b11000 0"
b11000 N
b11000 l
b11000 ,"
b0 L
b0 f
b0 ."
b0 M
b0 g
b0 -"
b0 O
b0 n
b0 +"
b1 _
b1 p
b1 ("
0C
0[
b11000 5"
b11000 3"
b11000010000000000000000000011000 Q
b11000010000000000000000000011000 ""
b11000010000000000000000000011000 :"
b11000010000000000000000000011000 ,
b11000010000000000000000000011000 <
b11000010000000000000000000011000 @
b11000010000000000000000000011000 1"
b100100 9"
b100000 *
b100000 4
b100000 K
b100000 ;"
b100000 8"
1%
#125
0%
#130
b0 E
b0 h
b0 /"
b101000 #"
b0 '"
b0 !"
b101000 4"
b101000 2"
b101000 Y
b101000 d
b101000 0"
b101000 N
b101000 l
b101000 ,"
1G
b0 _
b0 p
b0 ("
0D
1^
b101000 5"
b101000 3"
b11000000000000000000000000101000 Q
b11000000000000000000000000101000 ""
b11000000000000000000000000101000 :"
b11000000000000000000000000101000 ,
b11000000000000000000000000101000 <
b11000000000000000000000000101000 @
b11000000000000000000000000101000 1"
b1001100 9"
b100100 *
b100100 4
b100100 K
b100100 ;"
b100100 8"
1%
#135
0%
#140
b11 1
b11 ;
b11 ?
b11 A
b11 e
b0 J
b0 k
b0 D"
1S
b11 T
b11 {
b11 A"
b10 W
b10 w
b10 >"
1)
b10000000100 2
b10000000100 6
b10000000100 `
b10000000100 u
b100 V
b100 x
b100 ?"
b100 M
b100 g
b100 -"
b10 O
b10 n
b10 +"
1P
b10 R
b10 m
b10 *"
b100 #"
b100 ~
b10 %"
b10 &"
b10 $"
b100 4"
b100 2"
b100 Y
b100 d
b100 0"
b100 N
b100 l
b100 ,"
0G
0^
b100 5"
b100 3"
b10000000010010000000000000000100 Q
b10000000010010000000000000000100 ""
b10000000010010000000000000000100 :"
b10000000010010000000000000000100 ,
b10000000010010000000000000000100 <
b10000000010010000000000000000100 @
b10000000010010000000000000000100 1"
b1010000 9"
b1001100 *
b1001100 4
b1001100 K
b1001100 ;"
b1001100 8"
1%
#145
0%
#150
b101 H
b101 i
b101 B"
b11 I
b11 j
b11 C"
b1000 s
b111111111111111111111111111111110 q
b1 U
b1 y
b1 @"
b1 L
b1 f
b1 ."
1[
1C
b10 _
b10 p
b10 ("
b1010 E
b1010 h
b1010 /"
b1 R
b1 m
b1 *"
b10000000000000 #"
b1 }
b10 ~
b1110 %"
b1110 &"
b10 '"
b1010 !"
1|
b1 $"
b10000000000000 4"
b10000000000000 2"
b10000000000000 Y
b10000000000000 d
b10000000000000 0"
b10000000000000 N
b10000000000000 l
b10000000000000 ,"
b10 M
b10 g
b10 -"
b1110 O
b1110 n
b1110 +"
0P
b10000000000000 5"
b10000000000000 3"
b1110101110001000010000000000000 Q
b1110101110001000010000000000000 ""
b1110101110001000010000000000000 :"
b1110101110001000010000000000000 ,
b1110101110001000010000000000000 <
b1110101110001000010000000000000 @
b1110101110001000010000000000000 1"
b0 2
b0 6
b0 `
b0 u
0)
b11111111111111111111111111111110 T
b11111111111111111111111111111110 {
b11111111111111111111111111111110 A"
1S
b10 V
b10 x
b10 ?"
b1110 W
b1110 w
b1110 >"
b0 J
b0 k
b0 D"
b1010100 9"
b1010000 *
b1010000 4
b1010000 K
b1010000 ;"
b1010000 8"
1%
#155
0%
#160
b10000000000 H
b10000000000 i
b10000000000 B"
b10000000000 I
b10000000000 j
b10000000000 C"
b10000000000 J
b10000000000 k
b10000000000 D"
1X
1G
b100 ]
b100 o
b100 )"
1^
1D
b1 E
b1 h
b1 /"
b11 R
b11 m
b11 *"
b1000 #"
b0 }
b0 ~
b100 %"
b100 &"
b1 '"
b1 !"
0|
b11 $"
b1000 4"
b1000 2"
b1000 Y
b1000 d
b1000 0"
b1000 N
b1000 l
b1000 ,"
b0 L
b0 f
b0 ."
b0 M
b0 g
b0 -"
b0 O
b0 n
b0 +"
b1 _
b1 p
b1 ("
0C
0[
b1000 5"
b1000 3"
b11000010100000000000000000001000 Q
b11000010100000000000000000001000 ""
b11000010100000000000000000001000 :"
b11000010100000000000000000001000 ,
b11000010100000000000000000001000 <
b11000010100000000000000000001000 @
b11000010100000000000000000001000 1"
b0 T
b0 {
b0 A"
0S
b0 U
b0 y
b0 @"
b0 V
b0 x
b0 ?"
b0 W
b0 w
b0 >"
b1011100 9"
b1000 r
b1010100 *
b1010100 4
b1010100 K
b1010100 ;"
b1010100 8"
1%
#165
0%
#170
bx 1
bx ;
bx ?
bx A
bx e
b101 J
b101 k
b101 D"
1(
b101 0
b101 5
b101 \
b101 v
b10000000100 2
b10000000100 6
b10000000100 `
b10000000100 u
b1 W
b1 w
b1 >"
b100 V
b100 x
b100 ?"
b100 M
b100 g
b100 -"
b1 O
b1 n
b1 +"
1P
b10 R
b10 m
b10 *"
0X
b100 #"
b100 ~
b1 %"
b1 &"
b10 $"
b100 4"
b100 2"
b100 Y
b100 d
b100 0"
b100 N
b100 l
b100 ,"
0G
b0 ]
b0 o
b0 )"
b1 _
b1 p
b1 ("
1D
0^
b100 5"
b100 3"
b10000010001010000000000000000100 Q
b10000010001010000000000000000100 ""
b10000010001010000000000000000100 :"
b10000010001010000000000000000100 ,
b10000010001010000000000000000100 <
b10000010001010000000000000000100 @
b10000010001010000000000000000100 1"
b1100000 9"
b1011100 *
b1011100 4
b1011100 K
b1011100 ;"
b1011100 8"
1%
#175
0%
#180
b11 J
b11 k
b11 D"
b10000000000 2
b10000000000 6
b10000000000 `
b10000000000 u
b11 0
b11 5
b11 \
b11 v
1(
b100 V
b100 x
b100 ?"
b10 W
b10 w
b10 >"
b0 #"
b10 %"
b10 &"
b0 4"
b0 2"
b0 Y
b0 d
b0 0"
b0 N
b0 l
b0 ,"
b100 M
b100 g
b100 -"
b10 O
b10 n
b10 +"
b1 _
b1 p
b1 ("
1D
1P
b0 5"
b0 3"
b10000010010010000000000000000000 Q
b10000010010010000000000000000000 ""
b10000010010010000000000000000000 :"
b10000010010010000000000000000000 ,
b10000010010010000000000000000000 <
b10000010010010000000000000000000 @
b10000010010010000000000000000000 1"
b1100100 9"
b1100000 *
b1100000 4
b1100000 K
b1100000 ;"
b1100000 8"
1%
#185
0%
#190
b10000000000 J
b10000000000 k
b10000000000 D"
1G
b111 L
b111 f
b111 ."
1^
b11111111111111111111111111000100 4"
b1111111111000100 2"
b1111111111000100 Y
b1111111111000100 d
b1111111111000100 0"
b1111111111000100 N
b1111111111000100 l
b1111111111000100 ,"
b0 E
b0 h
b0 /"
b11 R
b11 m
b11 *"
b0 2
b0 6
b0 `
b0 u
b0 0
b0 5
b0 \
b0 v
0(
b0 V
b0 x
b0 ?"
b0 W
b0 w
b0 >"
b1111111111000100 #"
b111 }
b0 ~
b0 %"
b0 &"
b0 '"
b0 !"
b11 $"
b0 M
b0 g
b0 -"
b0 O
b0 n
b0 +"
b0 _
b0 p
b0 ("
0D
0P
b11111111111111111111111111000100 5"
b1111111111000100 3"
b11000000000000001111111111000100 Q
b11000000000000001111111111000100 ""
b11000000000000001111111111000100 :"
b11000000000000001111111111000100 ,
b11000000000000001111111111000100 <
b11000000000000001111111111000100 @
b11000000000000001111111111000100 1"
b101000 9"
b1100100 *
b1100100 4
b1100100 K
b1100100 ;"
b1100100 8"
1%
#195
0%
#200
b10000000100 T
b10000000100 {
b10000000100 A"
b10000000100 z
b100 t
1S
b100 V
b100 x
b100 ?"
b100 W
b100 w
b100 >"
1F
b100 M
b100 g
b100 -"
b100 O
b100 n
b100 +"
1Z
1D
1C
b1 _
b1 p
b1 ("
b1 E
b1 h
b1 /"
b0 R
b0 m
b0 *"
b100 #"
b0 }
b100 ~
b100 %"
b100 &"
b1 '"
b1 !"
1|
b0 $"
b100 4"
b100 2"
b100 Y
b100 d
b100 0"
b100 N
b100 l
b100 ,"
b0 L
b0 f
b0 ."
1G
0^
b100 5"
b100 3"
b100010100010000000000000000100 Q
b100010100010000000000000000100 ""
b100010100010000000000000000100 :"
b100010100010000000000000000100 ,
b100010100010000000000000000100 <
b100010100010000000000000000100 @
b100010100010000000000000000100 1"
b101100 9"
b101000 *
b101000 4
b101000 K
b101000 ;"
b101000 8"
1%
#205
0%
#210
b1 #"
b111 ~
b111 %"
b111 &"
b1 4"
b1 2"
b1 Y
b1 d
b1 0"
b1 N
b1 l
b1 ,"
b111 M
b111 g
b111 -"
b111 O
b111 n
b111 +"
1G
1F
b1 _
b1 p
b1 ("
1D
1C
1Z
b1 5"
b1 3"
b100010111011100000000000000001 Q
b100010111011100000000000000001 ""
b100010111011100000000000000001 :"
b100010111011100000000000000001 ,
b100010111011100000000000000001 <
b100010111011100000000000000001 @
b100010111011100000000000000001 1"
b1 z
b1 t
b1 T
b1 {
b1 A"
1S
b111 V
b111 x
b111 ?"
b111 W
b111 w
b111 >"
b0 J
b0 k
b0 D"
b0 I
b0 j
b0 C"
b110000 9"
b101100 *
b101100 4
b101100 K
b101100 ;"
b101100 8"
1%
#215
0%
#220
b101 1
b101 ;
b101 ?
b101 A
b101 e
1)
b10000000100 2
b10000000100 6
b10000000100 `
b10000000100 u
1P
b0 E
b0 h
b0 /"
b10 R
b10 m
b10 *"
b0 #"
b100 ~
b1 %"
b1 &"
b0 '"
b0 !"
0|
b10 $"
b0 4"
b0 2"
b0 Y
b0 d
b0 0"
b0 N
b0 l
b0 ,"
b100 M
b100 g
b100 -"
b1 O
b1 n
b1 +"
0G
0F
b0 _
b0 p
b0 ("
0D
0C
0Z
b0 5"
b0 3"
b10000000001010000000000000000000 Q
b10000000001010000000000000000000 ""
b10000000001010000000000000000000 :"
b10000000001010000000000000000000 ,
b10000000001010000000000000000000 <
b10000000001010000000000000000000 @
b10000000001010000000000000000000 1"
b0 z
b0 t
b101 T
b101 {
b101 A"
1S
b100 V
b100 x
b100 ?"
b1 W
b1 w
b1 >"
b110100 9"
b101 J
b101 k
b101 D"
b10000000100 I
b10000000100 j
b10000000100 C"
b110000 *
b110000 4
b110000 K
b110000 ;"
b110000 8"
1%
#225
0%
#230
b10000000000 I
b10000000000 j
b10000000000 C"
b10000000000 J
b10000000000 k
b10000000000 D"
1G
b111 L
b111 f
b111 ."
1^
b11111111111111111111111111101000 4"
b1111111111101000 2"
b1111111111101000 Y
b1111111111101000 d
b1111111111101000 0"
b1111111111101000 N
b1111111111101000 l
b1111111111101000 ,"
b11 R
b11 m
b11 *"
b0 2
b0 6
b0 `
b0 u
0)
b0 T
b0 {
b0 A"
0S
b0 V
b0 x
b0 ?"
b0 W
b0 w
b0 >"
b1111111111101000 #"
b111 }
b0 ~
b0 %"
b0 &"
b11 $"
b0 M
b0 g
b0 -"
b0 O
b0 n
b0 +"
0P
b11111111111111111111111111101000 5"
b1111111111101000 3"
b11000000000000001111111111101000 Q
b11000000000000001111111111101000 ""
b11000000000000001111111111101000 :"
b11000000000000001111111111101000 ,
b11000000000000001111111111101000 <
b11000000000000001111111111101000 @
b11000000000000001111111111101000 1"
b11100 9"
b110100 *
b110100 4
b110100 K
b110100 ;"
b110100 8"
1%
#235
0%
#240
b1000 T
b1000 {
b1000 A"
b1 H
b1 i
b1 B"
b1001 I
b1001 j
b1001 C"
b0 J
b0 k
b0 D"
b10 s
1S
b1000 q
b111 U
b111 y
b111 @"
b101 V
b101 x
b101 ?"
b1110 W
b1110 w
b1110 >"
b101 M
b101 g
b101 -"
b1110 O
b1110 n
b1110 +"
1[
1C
b10 _
b10 p
b10 ("
b1010 E
b1010 h
b1010 /"
b1 R
b1 m
b1 *"
b1110000000000000 #"
b101 ~
b1110 %"
b1110 &"
b10 '"
b1010 !"
1|
b1 $"
b11111111111111111110000000000000 4"
b1110000000000000 2"
b1110000000000000 Y
b1110000000000000 d
b1110000000000000 0"
b1110000000000000 N
b1110000000000000 l
b1110000000000000 ,"
b111 L
b111 f
b111 ."
0G
0^
b11111111111111111110000000000000 5"
b1110000000000000 3"
b1110101110010101110000000000000 Q
b1110101110010101110000000000000 ""
b1110101110010101110000000000000 :"
b1110101110010101110000000000000 ,
b1110101110010101110000000000000 <
b1110101110010101110000000000000 @
b1110101110010101110000000000000 1"
b100000 9"
b11100 *
b11100 4
b11100 K
b11100 ;"
b11100 8"
1%
#245
0%
#250
b10000000000 H
b10000000000 i
b10000000000 B"
b10000000000 I
b10000000000 j
b10000000000 C"
b10000000000 J
b10000000000 k
b10000000000 D"
1G
1^
1D
b1 E
b1 h
b1 /"
b11 R
b11 m
b11 *"
b11000 #"
b0 }
b0 ~
b0 %"
b0 &"
b1 '"
b1 !"
0|
b11 $"
b11000 4"
b11000 2"
b11000 Y
b11000 d
b11000 0"
b11000 N
b11000 l
b11000 ,"
b0 L
b0 f
b0 ."
b0 M
b0 g
b0 -"
b0 O
b0 n
b0 +"
b1 _
b1 p
b1 ("
0C
0[
b11000 5"
b11000 3"
b11000010000000000000000000011000 Q
b11000010000000000000000000011000 ""
b11000010000000000000000000011000 :"
b11000010000000000000000000011000 ,
b11000010000000000000000000011000 <
b11000010000000000000000000011000 @
b11000010000000000000000000011000 1"
b0 T
b0 {
b0 A"
0S
b0 U
b0 y
b0 @"
b0 V
b0 x
b0 ?"
b0 W
b0 w
b0 >"
b100100 9"
b10 r
b100000 *
b100000 4
b100000 K
b100000 ;"
b100000 8"
1%
#255
0%
#260
b0 E
b0 h
b0 /"
b101000 #"
b0 '"
b0 !"
b101000 4"
b101000 2"
b101000 Y
b101000 d
b101000 0"
b101000 N
b101000 l
b101000 ,"
1G
b0 _
b0 p
b0 ("
0D
1^
b101000 5"
b101000 3"
b11000000000000000000000000101000 Q
b11000000000000000000000000101000 ""
b11000000000000000000000000101000 :"
b11000000000000000000000000101000 ,
b11000000000000000000000000101000 <
b11000000000000000000000000101000 @
b11000000000000000000000000101000 1"
b1001100 9"
b100100 *
b100100 4
b100100 K
b100100 ;"
b100100 8"
1%
#265
0%
