Project_2_SCC/src/dump.vcd
$date
	Mon Oct 27 05:29:35 2025
$end
$version
	Icarus Verilog
$end
$timescale
	1ms
$end
$scope module shift_count_tb $end
$var wire 32 ! instruction_tb [31:0] $end
$var wire 1 " halt_f_tb $end
$var wire 2 # err_bits_tb [1:0] $end
$var wire 32 $ data_memory_in_v_tb [31:0] $end
$var reg 1 % clk_en_tb $end
$var reg 1 & clk_tb $end
$var reg 256 ' line [255:0] $end
$var reg 1 ( rst_tb $end
$var reg 256 ) target_a_1 [255:0] $end
$var reg 256 * target_a_2 [255:0] $end
$var reg 256 + target_a_3 [255:0] $end
$var reg 256 , target_a_4 [255:0] $end
$var reg 256 - target_a_5 [255:0] $end
$var reg 256 . target_a_6 [255:0] $end
$var reg 256 / target_v_1 [255:0] $end
$var reg 256 0 target_v_2 [255:0] $end
$var reg 256 1 target_v_3 [255:0] $end
$var reg 256 2 target_v_4 [255:0] $end
$var reg 256 3 target_v_5 [255:0] $end
$var reg 256 4 target_v_6 [255:0] $end
$var reg 256 5 value1 [255:0] $end
$var reg 256 6 value2 [255:0] $end
$var reg 256 7 value3 [255:0] $end
$var reg 256 8 value4 [255:0] $end
$var reg 256 9 value5 [255:0] $end
$var reg 256 : value6 [255:0] $end
$var integer 32 ; file [31:0] $end
$var integer 32 < i [31:0] $end
$var integer 32 = status [31:0] $end
$scope module top $end
$var wire 1 & clk $end
$var wire 1 % clk_en $end
$var wire 1 " halt_f $end
$var wire 1 ( rst $end
$var wire 1 > writeBit $end
$var wire 1 ? readBit $end
$var wire 32 @ programCounter [31:0] $end
$var wire 32 A instruction_memory_v [31:0] $end
$var wire 32 B instruction [31:0] $end
$var wire 1 C halt $end
$var wire 2 D err_bits [1:0] $end
$var wire 32 E data_memory_in_v [31:0] $end
$var wire 32 F dataOutMem [31:0] $end
$var wire 32 G dataIn [31:0] $end
$var wire 32 H addressFetch [31:0] $end
$scope module memMod $end
$var wire 1 I instruction_memory_en $end
$var wire 1 & mem_Clk $end
$var wire 32 J instruction_memory_a [31:0] $end
$var wire 1 C halt_f $end
$var wire 1 > data_memory_write $end
$var wire 1 ? data_memory_read $end
$var wire 32 K data_memory_out_v [31:0] $end
$var wire 32 L data_memory_a [31:0] $end
$var reg 8 M a [7:0] $end
$var reg 8 N b [7:0] $end
$var reg 8 O c [7:0] $end
$var reg 8 P d [7:0] $end
$var reg 32 Q data_memory_in_v [31:0] $end
$var reg 32 R instruction_memory_v [31:0] $end
$var integer 32 S fd [31:0] $end
$var integer 32 T i [31:0] $end
$upscope $end
$scope module scc $end
$var wire 1 & clk $end
$var wire 1 % clk_en $end
$var wire 32 U dataIn [31:0] $end
$var wire 32 V instruction [31:0] $end
$var wire 32 W memoryDataIn [31:0] $end
$var wire 1 ( rst $end
$var wire 1 > writeFlag $end
$var wire 32 X ucode_inst [31:0] $end
$var wire 1 Y specialEncoding $end
$var wire 1 Z setFlags $end
$var wire 4 [ secondLevelDecode [3:0] $end
$var wire 1 \ regWrite $end
$var wire 1 ] regRead $end
$var wire 32 ^ readDataSec [31:0] $end
$var wire 32 _ readDataFirst [31:0] $end
$var wire 32 ` readDataDest [31:0] $end
$var wire 32 a programCounter [31:0] $end
$var wire 4 b out_sourceSecReg [3:0] $end
$var wire 4 c out_sourceFirstReg [3:0] $end
$var wire 16 d out_imm [15:0] $end
$var wire 4 e out_destRegister [3:0] $end
$var wire 7 f opcode [6:0] $end
$var wire 1 g mux_ctrl $end
$var wire 2 h mul_type [1:0] $end
$var wire 1 i mul_trigger $end
$var wire 1 j mul_release $end
$var wire 1 ? memoryRead $end
$var wire 1 k loadStore $end
$var wire 32 l instructionForID [31:0] $end
$var wire 1 C halt $end
$var wire 4 m flags_ucode_to_exe [3:0] $end
$var wire 4 n flags_out [3:0] $end
$var wire 2 o firstLevelDecode [1:0] $end
$var wire 32 p filtered_instruction [31:0] $end
$var wire 1 q exe_writeToReg $end
$var wire 32 r exe_writeData [31:0] $end
$var wire 4 s exe_readRegSec [3:0] $end
$var wire 4 t exe_readRegFirst [3:0] $end
$var wire 4 u exe_readRegDest [3:0] $end
$var wire 1 v exeOverrideBR $end
$var wire 1 w exeOverride $end
$var wire 16 x exeData [15:0] $end
$var wire 1 y dataRegisterImm $end
$var wire 1 z dataRegister $end
$var wire 32 { dataOut [31:0] $end
$var wire 4 | branchInstruction [3:0] $end
$var wire 1 } branch $end
$var wire 3 ~ aluFunction [2:0] $end
$var wire 32 !" addressIn [31:0] $end
$var reg 32 "" data_memory_v [31:0] $end
$var reg 2 #" err_bits [1:0] $end
$var reg 32 $" instruction_memory_v [31:0] $end
$scope module EXE $end
$var wire 1 & clk $end
$var wire 32 %" memoryDataIn [31:0] $end
$var wire 1 ( rst $end
$var wire 1 Y specialEncoding $end
$var wire 4 &" sourceSecReg [3:0] $end
$var wire 4 '" sourceFirstReg [3:0] $end
$var wire 1 Z setFlags $end
$var wire 4 (" secondLevelDecode [3:0] $end
$var wire 32 )" readDataSec [31:0] $end
$var wire 32 *" readDataFirst [31:0] $end
$var wire 32 +" readDataDest [31:0] $end
$var wire 7 ," opcode_in [6:0] $end
$var wire 2 -" mul_type [1:0] $end
$var wire 1 j mul_release $end
$var wire 16 ." imm [15:0] $end
$var wire 4 /" flags_back_in [3:0] $end
$var wire 2 0" firstLevelDecode [1:0] $end
$var wire 4 1" destReg [3:0] $end
$var wire 4 2" branchInstruction [3:0] $end
$var wire 3 3" aluFunctions [2:0] $end
$var reg 33 4" aluRegister [32:0] $end
$var reg 16 5" exeData [15:0] $end
$var reg 1 w exeOverride $end
$var reg 1 v exeOverrideBR $end
$var reg 4 6" flags [3:0] $end
$var reg 4 7" flags_next [3:0] $end
$var reg 4 8" flags_out [3:0] $end
$var reg 1 9" help_trigger $end
$var reg 32 :" immExt [31:0] $end
$var reg 32 ;" memoryAddressOut [31:0] $end
$var reg 32 <" memoryDataOut [31:0] $end
$var reg 1 ? memoryRead $end
$var reg 1 > memoryWrite $end
$var reg 4 =" readRegDest [3:0] $end
$var reg 4 >" readRegFirst [3:0] $end
$var reg 4 ?" readRegSec [3:0] $end
$var reg 33 @" tempDiff [32:0] $end
$var reg 32 A" writeData [31:0] $end
$var reg 1 q writeToReg $end
$upscope $end
$scope module ID $end
$var wire 1 & clk $end
$var wire 1 ( rst $end
$var wire 1 B" specialBit $end
$var wire 4 C" sourceSecReg [3:0] $end
$var wire 4 D" sourceFirstReg [3:0] $end
$var wire 4 E" secondLevelDecode [3:0] $end
$var wire 7 F" opcode [6:0] $end
$var wire 32 G" instruction [31:0] $end
$var wire 16 H" imm [15:0] $end
$var wire 2 I" firstLevelDecode [1:0] $end
$var wire 4 J" destReg [3:0] $end
$var wire 4 K" branchCondition [3:0] $end
$var wire 3 L" aluOperationCommands [2:0] $end
$var reg 3 M" aluFunction [2:0] $end
$var reg 1 } branch $end
$var reg 4 N" branchInstruction [3:0] $end
$var reg 1 z dataRegister $end
$var reg 1 y dataRegisterImm $end
$var reg 2 O" firstLevelDecode_out [1:0] $end
$var reg 1 C halt $end
$var reg 1 k loadStore $end
$var reg 1 i mul_trigger $end
$var reg 2 P" mul_type [1:0] $end
$var reg 7 Q" opcode_out [6:0] $end
$var reg 4 R" out_destRegister [3:0] $end
$var reg 16 S" out_imm [15:0] $end
$var reg 4 T" out_sourceFirstReg [3:0] $end
$var reg 4 U" out_sourceSecReg [3:0] $end
$var reg 1 ] regRead $end
$var reg 1 \ regWrite $end
$var reg 4 V" secondLevelDecode_out [3:0] $end
$var reg 1 Z setFlags $end
$var reg 1 Y specialEncoding $end
$upscope $end
$scope module IF $end
$var wire 1 & clk $end
$var wire 16 W" exeData [15:0] $end
$var wire 1 w exeOverride $end
$var wire 1 v exeOverrideBR $end
$var wire 32 X" fetchedInstruction [31:0] $end
$var wire 16 Y" imm16_exe [15:0] $end
$var wire 7 Z" opcode [6:0] $end
$var wire 1 ( rst $end
$var wire 32 [" readDataFirst [31:0] $end
$var wire 16 \" imm16 [15:0] $end
$var wire 32 ]" for_br [31:0] $end
$var wire 1 g control $end
$var wire 32 ^" branchOffsetAddress_exe [31:0] $end
$var wire 32 _" branchOffsetAddress [31:0] $end
$var parameter 32 `" sFilter $end
$var parameter 32 a" sIdle $end
$var parameter 32 b" sUcode $end
$var reg 32 c" PC_next [31:0] $end
$var reg 32 d" filteredInstruction [31:0] $end
$var reg 32 e" programCounter [31:0] $end
$var reg 2 f" state [1:0] $end
$var reg 2 g" stateNext [1:0] $end
$upscope $end
$scope module REGFILE $end
$var wire 1 & clk $end
$var wire 32 h" dbg_R0 [31:0] $end
$var wire 32 i" dbg_R1 [31:0] $end
$var wire 32 j" dbg_R10 [31:0] $end
$var wire 32 k" dbg_R11 [31:0] $end
$var wire 32 l" dbg_R12 [31:0] $end
$var wire 32 m" dbg_R13 [31:0] $end
$var wire 32 n" dbg_R14 [31:0] $end
$var wire 32 o" dbg_R15 [31:0] $end
$var wire 32 p" dbg_R2 [31:0] $end
$var wire 32 q" dbg_R3 [31:0] $end
$var wire 32 r" dbg_R4 [31:0] $end
$var wire 32 s" dbg_R5 [31:0] $end
$var wire 32 t" dbg_R6 [31:0] $end
$var wire 32 u" dbg_R7 [31:0] $end
$var wire 32 v" dbg_R8 [31:0] $end
$var wire 32 w" dbg_R9 [31:0] $end
$var wire 32 x" out_rd [31:0] $end
$var wire 32 y" out_rs1 [31:0] $end
$var wire 32 z" out_rs2 [31:0] $end
$var wire 4 {" rd [3:0] $end
$var wire 4 |" rs1 [3:0] $end
$var wire 4 }" rs2 [3:0] $end
$var wire 1 ( rst $end
$var wire 1 q write $end
$var wire 32 ~" writeData [31:0] $end
$var integer 32 !# i [31:0] $end
$upscope $end
$scope module Ucode $end
$var wire 1 & clk $end
$var wire 4 "# dest_reg [3:0] $end
$var wire 4 ## flags_in [3:0] $end
$var wire 16 $# immediate [15:0] $end
$var wire 2 %# mul_type [1:0] $end
$var wire 32 &# readDataSecond [31:0] $end
$var wire 1 ( rst $end
$var wire 4 '# source_reg [3:0] $end
$var wire 1 i start_mul $end
$var parameter 7 (# ADDS_OPCODE $end
$var parameter 7 )# ADD_OPCODE $end
$var parameter 7 *# MOV_OPCODE $end
$var parameter 2 +# MULI $end
$var parameter 2 ,# MULR $end
$var parameter 2 -# MULSI $end
$var parameter 2 .# MULSR $end
$var parameter 7 /# NOT_OPCODE $end
$var parameter 7 0# SUBI_OPCODE $end
$var parameter 7 1# SUBS_OPCODE $end
$var parameter 7 2# SUB_OPCODE $end
$var parameter 3 3# sClear $end
$var parameter 3 4# sFix_it $end
$var parameter 3 5# sHalt $end
$var parameter 3 6# sIdle $end
$var parameter 3 7# sKeep_adding $end
$var parameter 3 8# sMov $end
$var reg 16 9# corrected_imm [15:0] $end
$var reg 32 :# corrected_readDataSecond [31:0] $end
$var reg 16 ;# count_next [15:0] $end
$var reg 16 <# count_reg [15:0] $end
$var reg 4 =# dest_reg_hold [3:0] $end
$var reg 2 ># fix [1:0] $end
$var reg 2 ?# fix_next [1:0] $end
$var reg 4 @# flags_back_out [3:0] $end
$var reg 4 A# flags_hold [3:0] $end
$var reg 1 j mul_release $end
$var reg 1 g mux_ctrl $end
$var reg 32 B# output_instruction [31:0] $end
$var reg 32 C# register_decrementer_count [31:0] $end
$var reg 32 D# register_decrementer_count_next [31:0] $end
$var reg 3 E# state_next [2:0] $end
$var reg 3 F# state_reg [2:0] $end
$var reg 2 G# true_mul_type [1:0] $end
$var reg 4 H# true_source_reg [3:0] $end
$upscope $end
$scope module mux $end
$var wire 1 g control $end
$var wire 32 I# filtered_instruction [31:0] $end
$var wire 32 J# ucode_instruction [31:0] $end
$var reg 32 K# finalized_instruction [31:0] $end
$upscope $end
$upscope $end
$upscope $end
$upscope $end
$enddefinitions $end
$comment Show the parameter values. $end
$dumpall
b10 8#
b11 7#
b0 6#
b100 5#
b101 4#
b1 3#
b110010 2#
b111010 1#
b10010 0#
b110110 /#
b11 .#
b10 -#
b1 ,#
b0 +#
b0 *#
b110001 )#
b111001 (#
b10 b"
b0 a"
b1 `"
$end
#0
$dumpvars
bx K#
b11001000000000000000000000000000 J#
bx I#
bx H#
bx G#
b0 F#
b0 E#
bx D#
bx C#
b11001000000000000000000000000000 B#
bx A#
bx @#
bx ?#
bx >#
bx =#
b0 <#
b0 ;#
bx :#
bx 9#
bx '#
bx &#
bx %#
bx $#
b0 ##
bx "#
bx !#
b0 ~"
b0 }"
b0 |"
b0 {"
bx z"
bx y"
bx x"
bx w"
bx v"
bx u"
bx t"
bx s"
bx r"
bx q"
bx p"
bx o"
bx n"
bx m"
bx l"
bx k"
bx j"
bx i"
bx h"
b0 g"
bx f"
bx e"
bx d"
bx c"
bx _"
bx ^"
bx ]"
bx \"
bx ["
bx Z"
bx Y"
bx X"
bx W"
bx V"
bx U"
bx T"
bx S"
bx R"
bx Q"
bx P"
bx O"
bx N"
bx M"
bx L"
bx K"
bx J"
bx I"
bx H"
bx G"
bx F"
bx E"
bx D"
bx C"
xB"
b0 A"
b0 @"
b0 ?"
b0 >"
b0 ="
b0 <"
b0 ;"
b0 :"
x9"
b0 8"
b0 7"
b0 6"
bx 5"
bx 4"
bx 3"
bx 2"
bx 1"
bx 0"
bx /"
bx ."
bx -"
bx ,"
bx +"
bx *"
bx )"
bx ("
bx '"
bx &"
bx %"
bx $"
bx #"
bx ""
b0 !"
bx ~
x}
bx |
b0 {
xz
xy
bx x
0w
0v
b0 u
b0 t
b0 s
b0 r
0q
bx p
bx o
b0 n
bx m
bx l
xk
0j
xi
bx h
0g
bx f
bx e
bx d
bx c
bx b
bx a
bx `
bx _
bx ^
x]
x\
bx [
xZ
xY
b11001000000000000000000000000000 X
bx W
bx V
bx U
bx T
bx S
bx R
bx Q
bx P
bx O
bx N
bx M
b0 L
b0 K
bx J
1I
b0 H
bx G
b0 F
bx E
bx D
xC
bx B
bx A
bx @
0?
0>
bx =
bx <
bx ;
bx :
bx 9
bx 8
bx 7
bx 6
bx 5
bx 4
bx 3
bx 2
bx 1
bx 0
bx /
bx .
bx -
bx ,
bx +
bx *
bx )
1(
bx '
0&
x%
bx $
bx #
x"
bx !
$end
#10
b100000000000 _"
b100000000000 \"
b100000000000 B
b100000000000 R
b100000000000 V
b100000000000 X"
b100 c"
b0 ]"
b0 @
b0 J
b0 a
b0 e"
b0 f"
b0 o"
b0 n"
b0 m"
b0 l"
b0 k"
b0 j"
b0 w"
b0 v"
b0 u"
b0 t"
b0 s"
b0 r"
b0 q"
b0 p"
b0 i"
b0 `
b0 +"
b0 x"
b0 _
b0 *"
b0 ["
b0 y"
b0 ^
b0 )"
b0 z"
b0 &#
b0 h"
b10000 !#
1&
#20
0&
#30
b10000 !#
1&
#40
0&
#50
b10000 !#
1&
#60
b1 g"
0&
0(
#70
1q
b100000000000 r
b100000000000 A"
b100000000000 ~"
b0 f
b0 ,"
b0 Q"
b0 Z"
b0 [
b0 ("
b0 V"
b0 o
b0 0"
b0 O"
0Y
b100000000000 ^"
b100000000000 Y"
b100000000000 x
b100000000000 5"
b100000000000 W"
b0 F"
b100000000000 H"
b0 C"
b0 D"
b0 J"
b0 K"
b0 L"
b0 E"
0B"
b0 I"
0"
0C
0i
b100000000000 d
b100000000000 ."
b100000000000 S"
b100000000000 $#
b0 b
b0 &"
b0 U"
b0 c
b0 '"
b0 T"
b0 '#
b0 e
b0 1"
b0 R"
b0 "#
1]
1\
b0 |
b0 2"
b0 N"
b0 ~
b0 3"
b0 M"
xZ
1y
0z
0k
0}
b100000000000 l
b100000000000 G"
b100000000000 K#
b100000000000 p
b100000000000 d"
b100000000000 I#
b1 f"
1&
#80
0&
#90
b1 u
b1 ="
b1 {"
b11111111111111111111000011110000 ^"
b1111000011110000 Y"
b1111000011110000 x
b1111000011110000 5"
b1111000011110000 W"
b1 e
b1 1"
b1 R"
b1 "#
b1111000011110000 H"
b111 C"
b1 J"
b1 K"
b1111000011110000 d
b1111000011110000 ."
b1111000011110000 S"
b1111000011110000 $#
1]
1\
xZ
1y
b1000001111000011110000 l
b1000001111000011110000 G"
b1000001111000011110000 K#
b11111111111111111111000011110000 _"
b1111000011110000 \"
b1000001111000011110000 p
b1000001111000011110000 d"
b1000001111000011110000 I#
b1000001111000011110000 B
b1000001111000011110000 R
b1000001111000011110000 V
b1000001111000011110000 X"
b1000 c"
b100000000000 ]"
b1111000011110000 r
b1111000011110000 A"
b1111000011110000 ~"
1q
b100 @
b100 J
b100 a
b100 e"
b0 `
b0 +"
b0 x"
b100000000000 _
b100000000000 *"
b100000000000 ["
b100000000000 y"
b100000000000 ^
b100000000000 )"
b100000000000 z"
b100000000000 &#
b100000000000 h"
1&
#100
0&
#110
b1 f
b1 ,"
b1 Q"
b1 Z"
b1 ~
b1 3"
b1 M"
b1 [
b1 ("
b1 V"
b1 F"
b1 L"
b1 E"
b1111000011110000 d
b1111000011110000 ."
b1111000011110000 S"
b1111000011110000 $#
b1 e
b1 1"
b1 R"
b1 "#
1]
1\
xZ
1y
b10001000001111000011110000 l
b10001000001111000011110000 G"
b10001000001111000011110000 K#
b10001000001111000011110000 p
b10001000001111000011110000 d"
b10001000001111000011110000 I#
b10001000001111000011110000 B
b10001000001111000011110000 R
b10001000001111000011110000 V
b10001000001111000011110000 X"
b11110000111100001111000011110000 r
b11110000111100001111000011110000 A"
b11110000111100001111000011110000 ~"
1q
b1 u
b1 ="
b1 {"
b1100 c"
b1111000011110000 `
b1111000011110000 +"
b1111000011110000 x"
b1111000011110000 i"
b1000 @
b1000 J
b1000 a
b1000 e"
1&
#120
0&
#130
1>
b11110000111100001111000011110000 F
b11110000111100001111000011110000 K
b11110000111100001111000011110000 {
b11110000111100001111000011110000 <"
b100000000000 H
b100000000000 L
b100000000000 !"
b100000000000 ;"
b0 ^"
b0 Y"
b0 x
b0 5"
b0 W"
1k
b1000001 f
b1000001 ,"
b1000001 Q"
b1000001 Z"
b10 o
b10 0"
b10 O"
b1000001 F"
b0 H"
b0 C"
b10 I"
b0 d
b0 ."
b0 S"
b0 $#
b1 e
b1 1"
b1 R"
b1 "#
0]
0\
b1 ~
b1 3"
b1 M"
xZ
0y
b10000010001000000000000000000000 l
b10000010001000000000000000000000 G"
b10000010001000000000000000000000 K#
b0 _"
b0 \"
b10000010001000000000000000000000 p
b10000010001000000000000000000000 d"
b10000010001000000000000000000000 I#
b10000010001000000000000000000000 B
b10000010001000000000000000000000 R
b10000010001000000000000000000000 V
b10000010001000000000000000000000 X"
b10000 c"
b0 r
b0 A"
b0 ~"
0q
b1 u
b1 ="
b1 {"
b1100 @
b1100 J
b1100 a
b1100 e"
b11110000111100001111000011110000 `
b11110000111100001111000011110000 +"
b11110000111100001111000011110000 x"
b11110000111100001111000011110000 i"
1&
#140
0&
#150
1q
1\
1]
1y
b10 f
b10 ,"
b10 Q"
b10 Z"
b10 [
b10 ("
b10 V"
b0 o
b0 0"
b0 O"
b0 H
b0 L
b0 !"
b0 ;"
b0 F
b0 K
b0 {
b0 <"
0>
b0 `
b0 +"
b0 x"
b10 u
b10 ="
b10 {"
b10 F"
b10 J"
b10 K"
b10 L"
b10 E"
b0 I"
b10 e
b10 1"
b10 R"
b10 "#
b10 ~
b10 3"
b10 M"
xZ
0k
b100010000000000000000000000 l
b100010000000000000000000000 G"
b100010000000000000000000000 K#
b100010000000000000000000000 p
b100010000000000000000000000 d"
b100010000000000000000000000 I#
b100010000000000000000000000 B
b100010000000000000000000000 R
b100010000000000000000000000 V
b100010000000000000000000000 X"
b10100 c"
b10000 @
b10000 J
b10000 a
b10000 e"
1&
#160
0&
#170
1q
b0 `
b0 +"
b0 x"
b11 u
b11 ="
b11 {"
b11 J"
b11 K"
b11 e
b11 1"
b11 R"
b11 "#
1]
1\
b10 ~
b10 3"
b10 M"
xZ
1y
b100011000000000000000000000 l
b100011000000000000000000000 G"
b100011000000000000000000000 K#
b100011000000000000000000000 p
b100011000000000000000000000 d"
b100011000000000000000000000 I#
b100011000000000000000000000 B
b100011000000000000000000000 R
b100011000000000000000000000 V
b100011000000000000000000000 X"
b11000 c"
b10100 @
b10100 J
b10100 a
b10100 e"
1&
#180
0&
#190
b11110000111100001111000011110000 G
b11110000111100001111000011110000 Q
b11110000111100001111000011110000 U
b11110000111100001111000011110000 W
b11110000111100001111000011110000 %"
b11110000111100001111000011110000 r
b11110000111100001111000011110000 A"
b11110000111100001111000011110000 ~"
1?
b100000000000 H
b100000000000 L
b100000000000 !"
b100000000000 ;"
1k
b1000000 f
b1000000 ,"
b1000000 Q"
b1000000 Z"
b0 [
b0 ("
b0 V"
b10 o
b10 0"
b10 O"
1q
b0 `
b0 +"
b0 x"
b100 u
b100 ="
b100 {"
b1000000 F"
b100 J"
b100 K"
b0 L"
b0 E"
b10 I"
b100 e
b100 1"
b100 R"
b100 "#
0]
0\
b0 ~
b0 3"
b0 M"
xZ
0y
b10000000100000000000000000000000 l
b10000000100000000000000000000000 G"
b10000000100000000000000000000000 K#
b10000000100000000000000000000000 p
b10000000100000000000000000000000 d"
b10000000100000000000000000000000 I#
b10000000100000000000000000000000 B
b10000000100000000000000000000000 R
b10000000100000000000000000000000 V
b10000000100000000000000000000000 X"
b11100 c"
b11000 @
b11000 J
b11000 a
b11000 e"
1&
#200
0&
#210
b100000 ^"
b100000 Y"
b100000 x
b100000 5"
b100000 W"
1\
b100000 d
b100000 ."
b100000 S"
b100000 $#
1]
1y
b0 f
b0 ,"
b0 Q"
b0 Z"
b0 o
b0 0"
b0 O"
b0 F"
b100000 H"
b101 J"
b101 K"
b0 I"
b101 e
b101 1"
b101 R"
b101 "#
xZ
0k
b101000000000000000100000 l
b101000000000000000100000 G"
b101000000000000000100000 K#
b100000 _"
b100000 \"
b101000000000000000100000 p
b101000000000000000100000 d"
b101000000000000000100000 I#
b101000000000000000100000 B
b101000000000000000100000 R
b101000000000000000100000 V
b101000000000000000100000 X"
b100000 c"
b0 H
b0 L
b0 !"
b0 ;"
0?
b100000 r
b100000 A"
b100000 ~"
1q
b101 u
b101 ="
b101 {"
b11100 @
b11100 J
b11100 a
b11100 e"
b0 `
b0 +"
b0 x"
b11110000111100001111000011110000 r"
1&
#220
0&
#230
b100000 ]"
b10 7"
b100000 @"
b100000 _
b100000 *"
b100000 ["
b100000 y"
b101 t
b101 >"
b101 |"
b0 ^"
b0 Y"
b0 x
b0 5"
b0 W"
b101 c
b101 '"
b101 T"
b101 '#
b11010 f
b11010 ,"
b11010 Q"
b11010 Z"
b10 ~
b10 3"
b10 M"
b1010 [
b1010 ("
b1010 V"
1Y
b11010 F"
b0 H"
b101 D"
b1110 J"
b1110 K"
b10 L"
b1010 E"
1B"
b0 d
b0 ."
b0 S"
b0 $#
b1110 e
b1110 1"
b1110 R"
b1110 "#
1]
1\
xZ
1y
b110101110010100000000000000000 l
b110101110010100000000000000000 G"
b110101110010100000000000000000 K#
b0 _"
b0 \"
b110101110010100000000000000000 p
b110101110010100000000000000000 d"
b110101110010100000000000000000 I#
b110101110010100000000000000000 B
b110101110010100000000000000000 R
b110101110010100000000000000000 V
b110101110010100000000000000000 X"
b100000 r
b100000 A"
b100000 ~"
1q
b1110 u
b1110 ="
b1110 {"
b100100 c"
b0 `
b0 +"
b0 x"
b100000 s"
b100000 @
b100000 J
b100000 a
b100000 e"
1&
#240
0&
#250
b100000000000 ]"
b101100 ^"
b101100 Y"
b101100 x
b101100 5"
b101100 W"
b101100 d
b101100 ."
b101100 S"
b101100 $#
1}
b1100001 f
b1100001 ,"
b1100001 Q"
b1100001 Z"
b1 [
b1 ("
b1 V"
b11 o
b11 0"
b11 O"
0Y
b1100001 F"
b101100 H"
b0 D"
b0 J"
b0 K"
b1 L"
b1 E"
0B"
b11 I"
b0 c
b0 '"
b0 T"
b0 '#
b0 e
b0 1"
b0 R"
b0 "#
1]
0\
b1 ~
b1 3"
b1 M"
xZ
0y
b11000010000000000000000000101100 l
b11000010000000000000000000101100 G"
b11000010000000000000000000101100 K#
b101100 _"
b101100 \"
b11000010000000000000000000101100 p
b11000010000000000000000000101100 d"
b11000010000000000000000000101100 I#
b11000010000000000000000000101100 B
b11000010000000000000000000101100 R
b11000010000000000000000000101100 V
b11000010000000000000000000101100 X"
b10 n
b10 8"
b10 ##
b0 @"
b0 r
b0 A"
b0 ~"
0q
b100000000000 _
b100000000000 *"
b100000000000 ["
b100000000000 y"
b0 t
b0 >"
b0 |"
b100000000000 `
b100000000000 +"
b100000000000 x"
b0 u
b0 ="
b0 {"
b101000 c"
b10 6"
b100100 @
b100100 J
b100100 a
b100100 e"
1&
#260
0&
#270
b11110000111100001111000011110000 ]"
b110 7"
b1 :"
1q
b11110000111100001111000011110000 _
b11110000111100001111000011110000 *"
b11110000111100001111000011110000 ["
b11110000111100001111000011110000 y"
b100 t
b100 >"
b100 |"
b0 `
b0 +"
b0 x"
b110 u
b110 ="
b110 {"
b1 ^"
b1 Y"
b1 x
b1 5"
b1 W"
1\
b100 c
b100 '"
b100 T"
b100 '#
b110 e
b110 1"
b110 R"
b110 "#
1y
b11011 f
b11011 ,"
b11011 Q"
b11011 Z"
b1011 [
b1011 ("
b1011 V"
b0 o
b0 0"
b0 O"
1Y
b11011 F"
b1 H"
b100 D"
b110 J"
b110 K"
b11 L"
b1011 E"
1B"
b0 I"
b1 d
b1 ."
b1 S"
b1 $#
1]
b11 ~
b11 3"
b11 M"
xZ
0}
b110110110010000000000000000001 l
b110110110010000000000000000001 G"
b110110110010000000000000000001 K#
b1 _"
b1 \"
b110110110010000000000000000001 p
b110110110010000000000000000001 d"
b110110110010000000000000000001 I#
b110110110010000000000000000001 B
b110110110010000000000000000001 R
b110110110010000000000000000001 V
b110110110010000000000000000001 X"
b101100 c"
b101000 @
b101000 J
b101000 a
b101000 e"
1&
#280
0&
#290
b1111000011110000111100001111000 r
b1111000011110000111100001111000 A"
b1111000011110000111100001111000 ~"
b101 f
b101 ,"
b101 Q"
b101 Z"
b101 [
b101 ("
b101 V"
0Y
b101 F"
b100 J"
b100 K"
b101 L"
b101 E"
0B"
b1 d
b1 ."
b1 S"
b1 $#
b100 c
b100 '"
b100 T"
b100 '#
b100 e
b100 1"
b100 R"
b100 "#
1]
1\
b101 ~
b101 3"
b101 M"
xZ
1y
b1010100010000000000000000001 l
b1010100010000000000000000001 G"
b1010100010000000000000000001 K#
b1010100010000000000000000001 p
b1010100010000000000000000001 d"
b1010100010000000000000000001 I#
b1010100010000000000000000001 B
b1010100010000000000000000001 R
b1010100010000000000000000001 V
b1010100010000000000000000001 X"
b110 n
b110 8"
b110 ##
b0 :"
1q
b11110000111100001111000011110000 _
b11110000111100001111000011110000 *"
b11110000111100001111000011110000 ["
b11110000111100001111000011110000 y"
b100 t
b100 >"
b100 |"
b11110000111100001111000011110000 `
b11110000111100001111000011110000 +"
b11110000111100001111000011110000 x"
b100 u
b100 ="
b100 {"
b110000 c"
b110 6"
b101100 @
b101100 J
b101100 a
b101100 e"
1&
#300
0&
#310
b0 ^"
b0 Y"
b0 x
b0 5"
b0 W"
b11010 f
b11010 ,"
b11010 Q"
b11010 Z"
b1010 [
b1010 ("
b1010 V"
1Y
b11010 F"
b0 H"
b110 D"
b1110 J"
b1110 K"
b10 L"
b1010 E"
1B"
b0 d
b0 ."
b0 S"
b0 $#
b110 c
b110 '"
b110 T"
b110 '#
b1110 e
b1110 1"
b1110 R"
b1110 "#
1]
1\
b10 ~
b10 3"
b10 M"
xZ
1y
b110101110011000000000000000000 l
b110101110011000000000000000000 G"
b110101110011000000000000000000 K#
b0 _"
b0 \"
b110101110011000000000000000000 p
b110101110011000000000000000000 d"
b110101110011000000000000000000 I#
b110101110011000000000000000000 B
b110101110011000000000000000000 R
b110101110011000000000000000000 V
b110101110011000000000000000000 X"
b0 ]"
b0 r
b0 A"
b0 ~"
1q
b110 t
b110 >"
b110 |"
b1110 u
b1110 ="
b1110 {"
b110100 c"
b0 `
b0 +"
b0 x"
b0 _
b0 *"
b0 ["
b0 y"
b1111000011110000111100001111000 r"
b110000 @
b110000 J
b110000 a
b110000 e"
1&
#320
0&
#330
b100000000000 ]"
1w
b1100 ^"
b1100 Y"
b1100 x
b1100 5"
b1100 W"
b1100 d
b1100 ."
b1100 S"
b1100 $#
1}
b1100001 f
b1100001 ,"
b1100001 Q"
b1100001 Z"
b1 [
b1 ("
b1 V"
b11 o
b11 0"
b11 O"
0Y
0q
b100000000000 _
b100000000000 *"
b100000000000 ["
b100000000000 y"
b0 t
b0 >"
b0 |"
b100000000000 `
b100000000000 +"
b100000000000 x"
b0 u
b0 ="
b0 {"
b1100001 F"
b1100 H"
b0 D"
b0 J"
b0 K"
b1 L"
b1 E"
0B"
b11 I"
b0 c
b0 '"
b0 T"
b0 '#
b0 e
b0 1"
b0 R"
b0 "#
1]
0\
b1 ~
b1 3"
b1 M"
xZ
0y
b11000010000000000000000000001100 l
b11000010000000000000000000001100 G"
b11000010000000000000000000001100 K#
b1100 _"
b1100 \"
b11000010000000000000000000001100 p
b11000010000000000000000000001100 d"
b11000010000000000000000000001100 I#
b11000010000000000000000000001100 B
b11000010000000000000000000001100 R
b11000010000000000000000000001100 V
b11000010000000000000000000001100 X"
b1000000 c"
b110100 @
b110100 J
b110100 a
b110100 e"
1&
#340
0&
