ucode_trying_again/dump.vcd
$date
	Sun Oct 26 15:37:08 2025
$end
$version
	Icarus Verilog
$end
$timescale
	1ps
$end
$scope module testbench $end
$var wire 1 ! halt_f $end
$var wire 32 " instruction_memory_v [31:0] $end
$var wire 2 # err_bits [1:0] $end
$var wire 32 $ data_memory_in_v [31:0] $end
$var reg 1 % clk $end
$var reg 1 & clk_en $end
$var reg 1 ' rst $end
$scope module topMod $end
$var wire 1 % clk $end
$var wire 1 & clk_en $end
$var wire 1 ! halt_f $end
$var wire 1 ' rst $end
$var wire 1 ( writeBit $end
$var wire 1 ) readBit $end
$var wire 32 * programCounter [31:0] $end
$var wire 32 + instruction_memory_v [31:0] $end
$var wire 32 , instruction [31:0] $end
$var wire 1 - halt $end
$var wire 2 . err_bits [1:0] $end
$var wire 32 / data_memory_in_v [31:0] $end
$var wire 32 0 dataOutMem [31:0] $end
$var wire 32 1 dataIn [31:0] $end
$var wire 32 2 addressFetch [31:0] $end
$scope module memMod $end
$var wire 1 3 instruction_memory_en $end
$var wire 1 % mem_Clk $end
$var wire 32 4 instruction_memory_a [31:0] $end
$var wire 1 - halt_f $end
$var wire 1 ( data_memory_write $end
$var wire 1 ) data_memory_read $end
$var wire 32 5 data_memory_out_v [31:0] $end
$var wire 32 6 data_memory_a [31:0] $end
$var reg 8 7 a [7:0] $end
$var reg 8 8 b [7:0] $end
$var reg 8 9 c [7:0] $end
$var reg 8 : d [7:0] $end
$var reg 32 ; data_memory_in_v [31:0] $end
$var reg 32 < instruction_memory_v [31:0] $end
$var integer 32 = fd [31:0] $end
$var integer 32 > i [31:0] $end
$upscope $end
$scope module scc $end
$var wire 1 % clk $end
$var wire 1 & clk_en $end
$var wire 32 ? dataIn [31:0] $end
$var wire 32 @ instruction [31:0] $end
$var wire 32 A memoryDataIn [31:0] $end
$var wire 1 ' rst $end
$var wire 1 ( writeFlag $end
$var wire 32 B ucode_inst [31:0] $end
$var wire 1 C specialEncoding $end
$var wire 1 D setFlags $end
$var wire 4 E secondLevelDecode [3:0] $end
$var wire 1 F regWrite $end
$var wire 1 G regRead $end
$var wire 32 H readDataSec [31:0] $end
$var wire 32 I readDataFirst [31:0] $end
$var wire 32 J readDataDest [31:0] $end
$var wire 32 K programCounter [31:0] $end
$var wire 4 L out_sourceSecReg [3:0] $end
$var wire 4 M out_sourceFirstReg [3:0] $end
$var wire 16 N out_imm [15:0] $end
$var wire 4 O out_destRegister [3:0] $end
$var wire 1 P mux_ctrl $end
$var wire 2 Q mul_type [1:0] $end
$var wire 1 R mul_trigger $end
$var wire 1 ) memoryRead $end
$var wire 1 S loadStore $end
$var wire 32 T instructionForID [31:0] $end
$var wire 1 - halt $end
$var wire 4 U flags_out [3:0] $end
$var wire 2 V firstLevelDecode [1:0] $end
$var wire 32 W filtered_instruction [31:0] $end
$var wire 1 X exe_writeToReg $end
$var wire 32 Y exe_writeData [31:0] $end
$var wire 4 Z exe_readRegSec [3:0] $end
$var wire 4 [ exe_readRegFirst [3:0] $end
$var wire 4 \ exe_readRegDest [3:0] $end
$var wire 1 ] exeOverride $end
$var wire 16 ^ exeData [15:0] $end
$var wire 1 _ dataRegisterImm $end
$var wire 1 ` dataRegister $end
$var wire 32 a dataOut [31:0] $end
$var wire 4 b branchInstruction [3:0] $end
$var wire 1 c branch $end
$var wire 3 d aluFunction [2:0] $end
$var wire 32 e addressIn [31:0] $end
$var reg 32 f data_memory_v [31:0] $end
$var reg 2 g err_bits [1:0] $end
$var reg 32 h instruction_memory_v [31:0] $end
$scope module EXE $end
$var wire 1 % clk $end
$var wire 16 i exeData [15:0] $end
$var wire 32 j memoryDataIn [31:0] $end
$var wire 1 ' rst $end
$var wire 1 C specialEncoding $end
$var wire 4 k sourceSecReg [3:0] $end
$var wire 4 l sourceFirstReg [3:0] $end
$var wire 1 D setFlags $end
$var wire 4 m secondLevelDecode [3:0] $end
$var wire 32 n readDataSec [31:0] $end
$var wire 32 o readDataFirst [31:0] $end
$var wire 32 p readDataDest [31:0] $end
$var wire 16 q imm [15:0] $end
$var wire 2 r firstLevelDecode [1:0] $end
$var wire 4 s destReg [3:0] $end
$var wire 4 t branchInstruction [3:0] $end
$var wire 3 u aluFunctions [2:0] $end
$var reg 33 v aluRegister [32:0] $end
$var reg 1 ] exeOverride $end
$var reg 4 w flags [3:0] $end
$var reg 4 x flags_next [3:0] $end
$var reg 4 y flags_out [3:0] $end
$var reg 32 z immExt [31:0] $end
$var reg 32 { memoryAddressOut [31:0] $end
$var reg 32 | memoryDataOut [31:0] $end
$var reg 1 ) memoryRead $end
$var reg 1 ( memoryWrite $end
$var reg 4 } readRegDest [3:0] $end
$var reg 4 ~ readRegFirst [3:0] $end
$var reg 4 !" readRegSec [3:0] $end
$var reg 33 "" tempDiff [32:0] $end
$var reg 32 #" writeData [31:0] $end
$var reg 1 X writeToReg $end
$upscope $end
$scope module ID $end
$var wire 1 % clk $end
$var wire 1 ' rst $end
$var wire 1 $" specialBit $end
$var wire 4 %" sourceSecReg [3:0] $end
$var wire 4 &" sourceFirstReg [3:0] $end
$var wire 4 '" secondLevelDecode [3:0] $end
$var wire 7 (" opcode [6:0] $end
$var wire 32 )" instruction [31:0] $end
$var wire 16 *" imm [15:0] $end
$var wire 2 +" firstLevelDecode [1:0] $end
$var wire 4 ," destReg [3:0] $end
$var wire 4 -" branchCondition [3:0] $end
$var wire 3 ." aluOperationCommands [2:0] $end
$var reg 3 /" aluFunction [2:0] $end
$var reg 1 c branch $end
$var reg 4 0" branchInstruction [3:0] $end
$var reg 1 ` dataRegister $end
$var reg 1 _ dataRegisterImm $end
$var reg 2 1" firstLevelDecode_out [1:0] $end
$var reg 1 - halt $end
$var reg 1 S loadStore $end
$var reg 1 R mul_trigger $end
$var reg 2 2" mul_type [1:0] $end
$var reg 4 3" out_destRegister [3:0] $end
$var reg 16 4" out_imm [15:0] $end
$var reg 4 5" out_sourceFirstReg [3:0] $end
$var reg 4 6" out_sourceSecReg [3:0] $end
$var reg 1 G regRead $end
$var reg 1 F regWrite $end
$var reg 4 7" secondLevelDecode_out [3:0] $end
$var reg 1 D setFlags $end
$var reg 1 C specialEncoding $end
$upscope $end
$scope module IF $end
$var wire 1 % clk $end
$var wire 16 8" exeData [15:0] $end
$var wire 1 ] exeOverride $end
$var wire 32 9" fetchedInstruction [31:0] $end
$var wire 16 :" imm16_exe [15:0] $end
$var wire 1 ' rst $end
$var wire 16 ;" imm16 [15:0] $end
$var wire 32 <" branchOffsetAddress_exe [31:0] $end
$var wire 32 =" branchOffsetAddress [31:0] $end
$var parameter 32 >" sFilter $end
$var parameter 32 ?" sIdle $end
$var reg 32 @" PC [31:0] $end
$var reg 32 A" PC_next [31:0] $end
$var reg 32 B" filteredInstruction [31:0] $end
$var reg 32 C" programCounter [31:0] $end
$var reg 2 D" state [1:0] $end
$var reg 2 E" stateNext [1:0] $end
$upscope $end
$scope module REGFILE $end
$var wire 1 % clk $end
$var wire 32 F" dbg_R0 [31:0] $end
$var wire 32 G" dbg_R1 [31:0] $end
$var wire 32 H" dbg_R10 [31:0] $end
$var wire 32 I" dbg_R11 [31:0] $end
$var wire 32 J" dbg_R12 [31:0] $end
$var wire 32 K" dbg_R13 [31:0] $end
$var wire 32 L" dbg_R14 [31:0] $end
$var wire 32 M" dbg_R15 [31:0] $end
$var wire 32 N" dbg_R2 [31:0] $end
$var wire 32 O" dbg_R3 [31:0] $end
$var wire 32 P" dbg_R4 [31:0] $end
$var wire 32 Q" dbg_R5 [31:0] $end
$var wire 32 R" dbg_R6 [31:0] $end
$var wire 32 S" dbg_R7 [31:0] $end
$var wire 32 T" dbg_R8 [31:0] $end
$var wire 32 U" dbg_R9 [31:0] $end
$var wire 32 V" out_rd [31:0] $end
$var wire 32 W" out_rs1 [31:0] $end
$var wire 32 X" out_rs2 [31:0] $end
$var wire 4 Y" rd [3:0] $end
$var wire 4 Z" rs1 [3:0] $end
$var wire 4 [" rs2 [3:0] $end
$var wire 1 ' rst $end
$var wire 1 X write $end
$var wire 32 \" writeData [31:0] $end
$var integer 32 ]" i [31:0] $end
$upscope $end
$scope module Ucode $end
$var wire 1 % clk $end
$var wire 4 ^" dest_reg [3:0] $end
$var wire 4 _" flags_in [3:0] $end
$var wire 16 `" immediate [15:0] $end
$var wire 2 a" mul_type [1:0] $end
$var wire 32 b" readDataSecond [31:0] $end
$var wire 1 ' rst $end
$var wire 4 c" source_reg [3:0] $end
$var wire 1 R start_mul $end
$var parameter 7 d" ADDS_OPCODE $end
$var parameter 7 e" ADD_OPCODE $end
$var parameter 7 f" MOV_OPCODE $end
$var parameter 2 g" MULI $end
$var parameter 2 h" MULR $end
$var parameter 2 i" MULSI $end
$var parameter 2 j" MULSR $end
$var parameter 7 k" SUB_OPCODE $end
$var parameter 3 l" sClear $end
$var parameter 3 m" sHalt $end
$var parameter 3 n" sIdle $end
$var parameter 3 o" sKeep_adding $end
$var parameter 3 p" sMov $end
$var reg 16 q" count_next [15:0] $end
$var reg 16 r" count_reg [15:0] $end
$var reg 4 s" flags_hold [3:0] $end
$var reg 1 P mux_ctrl $end
$var reg 32 t" output_instruction [31:0] $end
$var reg 32 u" register_decrementer_count [31:0] $end
$var reg 32 v" register_decrementer_count_next [31:0] $end
$var reg 3 w" state_next [2:0] $end
$var reg 3 x" state_reg [2:0] $end
$var reg 2 y" true_mul_type [1:0] $end
$var reg 4 z" true_source_reg [3:0] $end
$upscope $end
$scope module mux $end
$var wire 1 P control $end
$var wire 32 {" filtered_instruction [31:0] $end
$var wire 32 |" ucode_instruction [31:0] $end
$var reg 32 }" finalized_instruction [31:0] $end
$upscope $end
$upscope $end
$upscope $end
$upscope $end
$enddefinitions $end
$comment Show the parameter values. $end
$dumpall
b10 p"
b11 o"
b0 n"
b100 m"
b1 l"
b110010 k"
b11 j"
b10 i"
b1 h"
b0 g"
b0 f"
b110001 e"
b111001 d"
b0 ?"
b1 >"
$end
#0
$dumpvars
bx }"
b11001000000000000000000000000000 |"
bx {"
bx z"
bx y"
b0 x"
b0 w"
bx v"
bx u"
b11001000000000000000000000000000 t"
bx s"
b0 r"
b0 q"
bx c"
b0 b"
bx a"
bx `"
b0 _"
bx ^"
b10000 ]"
b0 \"
b0 ["
b0 Z"
b0 Y"
b0 X"
b0 W"
b0 V"
b0 U"
b0 T"
b0 S"
b0 R"
b0 Q"
b0 P"
b0 O"
b0 N"
b0 M"
b0 L"
b0 K"
b0 J"
b0 I"
b0 H"
b0 G"
b0 F"
b0 E"
b0 D"
b0 C"
bx B"
b100 A"
b0 @"
b11111111111111111111111111111100 ="
bx <"
b1111111111111100 ;"
bx :"
b11000001111111111111100 9"
bx 8"
bx 7"
bx 6"
bx 5"
bx 4"
bx 3"
bx 2"
bx 1"
bx 0"
bx /"
bx ."
bx -"
bx ,"
bx +"
bx *"
bx )"
bx ("
bx '"
bx &"
bx %"
x$"
b0 #"
b0 ""
b0 !"
b0 ~
b0 }
b0 |
b0 {
b0 z
b0 y
b0 x
b0 w
bx v
bx u
bx t
bx s
bx r
bx q
b0 p
b0 o
b0 n
bx m
bx l
bx k
bx j
bx i
bx h
bx g
bx f
b0 e
bx d
xc
bx b
b0 a
x`
x_
bx ^
0]
b0 \
b0 [
b0 Z
b0 Y
0X
bx W
bx V
b0 U
bx T
xS
xR
bx Q
0P
bx O
bx N
bx M
bx L
b0 K
b0 J
b0 I
b0 H
xG
xF
bx E
xD
xC
b11001000000000000000000000000000 B
bx A
b11000001111111111111100 @
bx ?
bx >
bx =
b11000001111111111111100 <
bx ;
bx :
bx 9
bx 8
bx 7
b0 6
b0 5
b0 4
13
b0 2
bx 1
b0 0
bx /
bx .
x-
b11000001111111111111100 ,
bx +
b0 *
0)
0(
1'
1&
1%
bx $
bx #
bx "
z!
$end
#5
0%
#10
b10000 ]"
1%
#15
0%
#20
b10000 ]"
1%
#25
0%
#30
b0 A"
b1 E"
0'
b10000 ]"
1%
#35
0%
#40
1X
b11111111111111111111111111111100 Y
b11111111111111111111111111111100 #"
b11111111111111111111111111111100 \"
b11 \
b11 }
b11 Y"
b0 E
b0 m
b0 7"
b0 V
b0 r
b0 1"
b0 ("
b1111111111111100 *"
b111 %"
b0 &"
b11 ,"
b11 -"
b0 ."
b0 '"
0$"
b0 +"
0-
0R
b11111111111111111111111111111100 <"
b1111111111111100 :"
b1111111111111100 ^
b1111111111111100 i
b1111111111111100 8"
b1111111111111100 N
b1111111111111100 q
b1111111111111100 4"
b1111111111111100 `"
b0 L
b0 k
b0 6"
b0 M
b0 l
b0 5"
b0 c"
b11 O
b11 s
b11 3"
b11 ^"
1G
1F
b0 b
b0 t
b0 0"
b0 d
b0 u
b0 /"
xD
0C
1_
0`
0S
0c
b11000001111111111111100 T
b11000001111111111111100 )"
b11000001111111111111100 }"
b11000001111111111111100 W
b11000001111111111111100 B"
b11000001111111111111100 {"
b100 A"
b1 D"
1%
#45
0%
#50
b11 *"
b0 %"
b1 ,"
b1 -"
b11 <"
b11 :"
b11 ^
b11 i
b11 8"
b11 N
b11 q
b11 4"
b11 `"
b1 O
b1 s
b1 3"
b1 ^"
1G
1F
xD
1_
b1000000000000000000011 T
b1000000000000000000011 )"
b1000000000000000000011 }"
b11 ="
b11 ;"
b1000000000000000000011 W
b1000000000000000000011 B"
b1000000000000000000011 {"
b1000000000000000000011 ,
b1000000000000000000011 <
b1000000000000000000011 @
b1000000000000000000011 9"
b11 Y
b11 #"
b11 \"
1X
b1 \
b1 }
b1 Y"
b1000 A"
b0 J
b0 p
b0 V"
b11111111111111111111111111111100 O"
b100 *
b100 4
b100 K
b100 C"
b100 @"
1%
#55
0%
#60
b1000 x
b11111111111111111111111111111111 v
b11 H
b11 n
b11 X"
b11 b"
b1 Z
b1 !"
b1 ["
b11111111111111111111111111111100 I
b11111111111111111111111111111100 o
b11111111111111111111111111111100 W"
b11 [
b11 ~
b11 Z"
b1 L
b1 k
b1 6"
b11 M
b11 l
b11 5"
b11 c"
1`
b1 d
b1 u
b1 /"
b1001 E
b1001 m
b1001 7"
b1 V
b1 r
b1 1"
b111001 ("
b10000000000000 *"
b1 %"
b11 &"
b100 ,"
b100 -"
b1 ."
b1001 '"
1$"
b1 +"
b10000000000000 <"
b10000000000000 :"
b10000000000000 ^
b10000000000000 i
b10000000000000 8"
b10000000000000 N
b10000000000000 q
b10000000000000 4"
b10000000000000 `"
b100 O
b100 s
b100 3"
b100 ^"
0G
0F
xD
0_
b1110010100001100010000000000000 T
b1110010100001100010000000000000 )"
b1110010100001100010000000000000 }"
b10000000000000 ="
b10000000000000 ;"
b1110010100001100010000000000000 W
b1110010100001100010000000000000 B"
b1110010100001100010000000000000 {"
b1110010100001100010000000000000 ,
b1110010100001100010000000000000 <
b1110010100001100010000000000000 @
b1110010100001100010000000000000 9"
b1100 A"
b11111111111111111111111111111111 Y
b11111111111111111111111111111111 #"
b11111111111111111111111111111111 \"
1X
b100 \
b100 }
b100 Y"
b1000 *
b1000 4
b1000 K
b1000 C"
b1000 @"
b0 J
b0 p
b0 V"
b11 G"
1%
#65
0%
#70
b1000 s"
b1 z"
b1 y"
b11111111111111111111111111111100 v"
b110000000000000 q"
b10 w"
b1 Q
b1 2"
b1 a"
1R
b0 E
b0 m
b0 7"
b110000 ("
b110000000000000 *"
b11 %"
b1 &"
b10 ,"
b10 -"
b0 ."
b0 '"
b110000000000000 <"
b110000000000000 :"
b110000000000000 ^
b110000000000000 i
b110000000000000 8"
b110000000000000 N
b110000000000000 q
b110000000000000 4"
b110000000000000 `"
b11 L
b11 k
b11 6"
b1 M
b1 l
b1 5"
b1 c"
b10 O
b10 s
b10 3"
b10 ^"
b0 d
b0 u
b0 /"
xD
1`
b1100000010000100110000000000000 T
b1100000010000100110000000000000 )"
b1100000010000100110000000000000 }"
b110000000000000 ="
b110000000000000 ;"
b1100000010000100110000000000000 W
b1100000010000100110000000000000 B"
b1100000010000100110000000000000 {"
b1100000010000100110000000000000 ,
b1100000010000100110000000000000 <
b1100000010000100110000000000000 @
b1100000010000100110000000000000 9"
b1000 U
b1000 y
b1000 _"
b0 Y
b0 #"
b0 \"
0X
b11111111111111111111111111111100 H
b11111111111111111111111111111100 n
b11111111111111111111111111111100 X"
b11111111111111111111111111111100 b"
b11 Z
b11 !"
b11 ["
b0 I
b0 o
b0 W"
b0 [
b0 ~
b0 Z"
b0 \
b0 }
b0 Y"
b10000 A"
b1000 w
b0 J
b0 p
b0 V"
b11111111111111111111111111111111 P"
b1100 *
b1100 4
b1100 K
b1100 C"
b1100 @"
1%
#75
0%
#80
b0 ="
b0 ;"
b11010000000000000000000000000000 W
b11010000000000000000000000000000 B"
b11010000000000000000000000000000 {"
b11010000000000000000000000000000 ,
b11010000000000000000000000000000 <
b11010000000000000000000000000000 @
b11010000000000000000000000000000 9"
1X
b10 \
b10 }
b10 Y"
1F
1G
1_
b0 V
b0 r
b0 1"
b0 H
b0 n
b0 X"
b0 b"
b0 Z
b0 !"
b0 ["
b0 ("
b0 *"
b0 %"
b0 &"
0$"
b0 +"
0R
b0 <"
b0 :"
b0 ^
b0 i
b0 8"
b0 N
b0 q
b0 4"
b0 `"
b0 L
b0 k
b0 6"
b0 M
b0 l
b0 5"
b0 c"
b10 O
b10 s
b10 3"
b10 ^"
xD
0`
b10000000000000000000000 T
b10000000000000000000000 )"
b10000000000000000000000 }"
b11 w"
1P
b10000000000000000000000 B
b10000000000000000000000 t"
b10000000000000000000000 |"
b10100 A"
b11111111111111111111111111111100 u"
b110000000000000 r"
b10 x"
b10000 *
b10000 4
b10000 K
b10000 C"
b10000 @"
1%
#85
0%
#90
bx ="
bx ;"
bx W
bx B"
bx {"
bx ,
bx <
bx @
bx 9"
b11 Y
b11 #"
b11 \"
b11 v
b11 H
b11 n
b11 X"
b11 b"
b1 Z
b1 !"
b1 ["
b10 [
b10 ~
b10 Z"
b1 L
b1 k
b1 6"
b10 M
b10 l
b10 5"
b10 c"
1`
b10000000000000 <"
b10000000000000 :"
b10000000000000 ^
b10000000000000 i
b10000000000000 8"
b10000000000000 N
b10000000000000 q
b10000000000000 4"
b10000000000000 `"
b1 d
b1 u
b1 /"
b1 E
b1 m
b1 7"
b1 V
b1 r
b1 1"
1X
b10 \
b10 }
b10 Y"
b110001 ("
b10000000000000 *"
b1 %"
b10 &"
b1 ."
b1 '"
1$"
b1 +"
b10 O
b10 s
b10 3"
b10 ^"
0G
0F
xD
0_
b1100010010001000010000000000000 T
b1100010010001000010000000000000 )"
b1100010010001000010000000000000 }"
b11111111111111111111111111111011 v"
1P
b1100010010001000010000000000000 B
b1100010010001000010000000000000 t"
b1100010010001000010000000000000 |"
b11000 A"
b11 x"
b10100 *
b10100 4
b10100 K
b10100 C"
b10100 @"
1%
#95
0%
#100
b11111111111111111111111111111010 v"
1P
b1100010010001000010000000000000 B
b1100010010001000010000000000000 t"
b1100010010001000010000000000000 |"
b11100 A"
b110 v
b110 Y
b110 #"
b110 \"
1X
b11 H
b11 n
b11 X"
b11 b"
b1 Z
b1 !"
b1 ["
b10 [
b10 ~
b10 Z"
b10 \
b10 }
b10 Y"
b11111111111111111111111111111011 u"
b11000 *
b11000 4
b11000 K
b11000 C"
b11000 @"
b11 J
b11 p
b11 V"
b11 I
b11 o
b11 W"
b11 N"
1%
#105
0%
#110
b11111111111111111111111111111001 v"
1P
b1100010010001000010000000000000 B
b1100010010001000010000000000000 t"
b1100010010001000010000000000000 |"
b1001 v
b1001 Y
b1001 #"
b1001 \"
1X
b11 H
b11 n
b11 X"
b11 b"
b1 Z
b1 !"
b1 ["
b10 [
b10 ~
b10 Z"
b10 \
b10 }
b10 Y"
b100000 A"
b11111111111111111111111111111010 u"
b110 J
b110 p
b110 V"
b110 I
b110 o
b110 W"
b110 N"
b11100 *
b11100 4
b11100 K
b11100 C"
b11100 @"
1%
#115
0%
#120
b11111111111111111111111111111000 v"
1P
b1100010010001000010000000000000 B
b1100010010001000010000000000000 t"
b1100010010001000010000000000000 |"
b100100 A"
b1100 v
b1100 Y
b1100 #"
b1100 \"
1X
b11 H
b11 n
b11 X"
b11 b"
b1 Z
b1 !"
b1 ["
b10 [
b10 ~
b10 Z"
b10 \
b10 }
b10 Y"
b11111111111111111111111111111001 u"
b100000 *
b100000 4
b100000 K
b100000 C"
b100000 @"
b1001 J
b1001 p
b1001 V"
b1001 I
b1001 o
b1001 W"
b1001 N"
1%
#125
0%
#130
b11111111111111111111111111110111 v"
1P
b1100010010001000010000000000000 B
b1100010010001000010000000000000 t"
b1100010010001000010000000000000 |"
b1111 v
b1111 Y
b1111 #"
b1111 \"
1X
b11 H
b11 n
b11 X"
b11 b"
b1 Z
b1 !"
b1 ["
b10 [
b10 ~
b10 Z"
b10 \
b10 }
b10 Y"
b101000 A"
b11111111111111111111111111111000 u"
b1100 J
b1100 p
b1100 V"
b1100 I
b1100 o
b1100 W"
b1100 N"
b100100 *
b100100 4
b100100 K
b100100 C"
b100100 @"
1%
#135
0%
#140
b11111111111111111111111111110110 v"
1P
b1100010010001000010000000000000 B
b1100010010001000010000000000000 t"
b1100010010001000010000000000000 |"
b101100 A"
b10010 v
b10010 Y
b10010 #"
b10010 \"
1X
b11 H
b11 n
b11 X"
b11 b"
b1 Z
b1 !"
b1 ["
b10 [
b10 ~
b10 Z"
b10 \
b10 }
b10 Y"
b11111111111111111111111111110111 u"
b101000 *
b101000 4
b101000 K
b101000 C"
b101000 @"
b1111 J
b1111 p
b1111 V"
b1111 I
b1111 o
b1111 W"
b1111 N"
1%
#145
0%
#150
b11111111111111111111111111110101 v"
1P
b1100010010001000010000000000000 B
b1100010010001000010000000000000 t"
b1100010010001000010000000000000 |"
b10101 v
b10101 Y
b10101 #"
b10101 \"
1X
b11 H
b11 n
b11 X"
b11 b"
b1 Z
b1 !"
b1 ["
b10 [
b10 ~
b10 Z"
b10 \
b10 }
b10 Y"
b110000 A"
b11111111111111111111111111110110 u"
b10010 J
b10010 p
b10010 V"
b10010 I
b10010 o
b10010 W"
b10010 N"
b101100 *
b101100 4
b101100 K
b101100 C"
b101100 @"
1%
#155
0%
#160
b11111111111111111111111111110100 v"
1P
b1100010010001000010000000000000 B
b1100010010001000010000000000000 t"
b1100010010001000010000000000000 |"
b110100 A"
b11000 v
b11000 Y
b11000 #"
b11000 \"
1X
b11 H
b11 n
b11 X"
b11 b"
b1 Z
b1 !"
b1 ["
b10 [
b10 ~
b10 Z"
b10 \
b10 }
b10 Y"
b11111111111111111111111111110101 u"
b110000 *
b110000 4
b110000 K
b110000 C"
b110000 @"
b10101 J
b10101 p
b10101 V"
b10101 I
b10101 o
b10101 W"
b10101 N"
1%
#165
0%
#170
b11111111111111111111111111110011 v"
1P
b1100010010001000010000000000000 B
b1100010010001000010000000000000 t"
b1100010010001000010000000000000 |"
b11011 v
b11011 Y
b11011 #"
b11011 \"
1X
b11 H
b11 n
b11 X"
b11 b"
b1 Z
b1 !"
b1 ["
b10 [
b10 ~
b10 Z"
b10 \
b10 }
b10 Y"
b111000 A"
b11111111111111111111111111110100 u"
b11000 J
b11000 p
b11000 V"
b11000 I
b11000 o
b11000 W"
b11000 N"
b110100 *
b110100 4
b110100 K
b110100 C"
b110100 @"
1%
#175
0%
#180
b11111111111111111111111111110010 v"
1P
b1100010010001000010000000000000 B
b1100010010001000010000000000000 t"
b1100010010001000010000000000000 |"
b111100 A"
b11110 v
b11110 Y
b11110 #"
b11110 \"
1X
b11 H
b11 n
b11 X"
b11 b"
b1 Z
b1 !"
b1 ["
b10 [
b10 ~
b10 Z"
b10 \
b10 }
b10 Y"
b11111111111111111111111111110011 u"
b111000 *
b111000 4
b111000 K
b111000 C"
b111000 @"
b11011 J
b11011 p
b11011 V"
b11011 I
b11011 o
b11011 W"
b11011 N"
1%
#185
0%
#190
b11111111111111111111111111110001 v"
1P
b1100010010001000010000000000000 B
b1100010010001000010000000000000 t"
b1100010010001000010000000000000 |"
b100001 v
b100001 Y
b100001 #"
b100001 \"
1X
b11 H
b11 n
b11 X"
b11 b"
b1 Z
b1 !"
b1 ["
b10 [
b10 ~
b10 Z"
b10 \
b10 }
b10 Y"
b1000000 A"
b11111111111111111111111111110010 u"
b11110 J
b11110 p
b11110 V"
b11110 I
b11110 o
b11110 W"
b11110 N"
b111100 *
b111100 4
b111100 K
b111100 C"
b111100 @"
1%
#195
0%
#200
b11111111111111111111111111110000 v"
1P
b1100010010001000010000000000000 B
b1100010010001000010000000000000 t"
b1100010010001000010000000000000 |"
b1000100 A"
b100100 v
b100100 Y
b100100 #"
b100100 \"
1X
b11 H
b11 n
b11 X"
b11 b"
b1 Z
b1 !"
b1 ["
b10 [
b10 ~
b10 Z"
b10 \
b10 }
b10 Y"
b11111111111111111111111111110001 u"
b1000000 *
b1000000 4
b1000000 K
b1000000 C"
b1000000 @"
b100001 J
b100001 p
b100001 V"
b100001 I
b100001 o
b100001 W"
b100001 N"
1%
#205
0%
#210
b11111111111111111111111111101111 v"
1P
b1100010010001000010000000000000 B
b1100010010001000010000000000000 t"
b1100010010001000010000000000000 |"
b100111 v
b100111 Y
b100111 #"
b100111 \"
1X
b11 H
b11 n
b11 X"
b11 b"
b1 Z
b1 !"
b1 ["
b10 [
b10 ~
b10 Z"
b10 \
b10 }
b10 Y"
b1001000 A"
b11111111111111111111111111110000 u"
b100100 J
b100100 p
b100100 V"
b100100 I
b100100 o
b100100 W"
b100100 N"
b1000100 *
b1000100 4
b1000100 K
b1000100 C"
b1000100 @"
1%
#215
0%
#220
b11111111111111111111111111101110 v"
1P
b1100010010001000010000000000000 B
b1100010010001000010000000000000 t"
b1100010010001000010000000000000 |"
b1001100 A"
b101010 v
b101010 Y
b101010 #"
b101010 \"
1X
b11 H
b11 n
b11 X"
b11 b"
b1 Z
b1 !"
b1 ["
b10 [
b10 ~
b10 Z"
b10 \
b10 }
b10 Y"
b11111111111111111111111111101111 u"
b1001000 *
b1001000 4
b1001000 K
b1001000 C"
b1001000 @"
b100111 J
b100111 p
b100111 V"
b100111 I
b100111 o
b100111 W"
b100111 N"
1%
#225
0%
#230
b11111111111111111111111111101101 v"
1P
b1100010010001000010000000000000 B
b1100010010001000010000000000000 t"
b1100010010001000010000000000000 |"
b101101 v
b101101 Y
b101101 #"
b101101 \"
1X
b11 H
b11 n
b11 X"
b11 b"
b1 Z
b1 !"
b1 ["
b10 [
b10 ~
b10 Z"
b10 \
b10 }
b10 Y"
b1010000 A"
b11111111111111111111111111101110 u"
b101010 J
b101010 p
b101010 V"
b101010 I
b101010 o
b101010 W"
b101010 N"
b1001100 *
b1001100 4
b1001100 K
b1001100 C"
b1001100 @"
1%
#235
0%
#240
b11111111111111111111111111101100 v"
1P
b1100010010001000010000000000000 B
b1100010010001000010000000000000 t"
b1100010010001000010000000000000 |"
b1010100 A"
b110000 v
b110000 Y
b110000 #"
b110000 \"
1X
b11 H
b11 n
b11 X"
b11 b"
b1 Z
b1 !"
b1 ["
b10 [
b10 ~
b10 Z"
b10 \
b10 }
b10 Y"
b11111111111111111111111111101101 u"
b1010000 *
b1010000 4
b1010000 K
b1010000 C"
b1010000 @"
b101101 J
b101101 p
b101101 V"
b101101 I
b101101 o
b101101 W"
b101101 N"
1%
#245
0%
#250
b11111111111111111111111111101011 v"
1P
b1100010010001000010000000000000 B
b1100010010001000010000000000000 t"
b1100010010001000010000000000000 |"
b110011 v
b110011 Y
b110011 #"
b110011 \"
1X
b11 H
b11 n
b11 X"
b11 b"
b1 Z
b1 !"
b1 ["
b10 [
b10 ~
b10 Z"
b10 \
b10 }
b10 Y"
b1011000 A"
b11111111111111111111111111101100 u"
b110000 J
b110000 p
b110000 V"
b110000 I
b110000 o
b110000 W"
b110000 N"
b1010100 *
b1010100 4
b1010100 K
b1010100 C"
b1010100 @"
1%
#255
0%
#260
b11111111111111111111111111101010 v"
1P
b1100010010001000010000000000000 B
b1100010010001000010000000000000 t"
b1100010010001000010000000000000 |"
b1011100 A"
b110110 v
b110110 Y
b110110 #"
b110110 \"
1X
b11 H
b11 n
b11 X"
b11 b"
b1 Z
b1 !"
b1 ["
b10 [
b10 ~
b10 Z"
b10 \
b10 }
b10 Y"
b11111111111111111111111111101011 u"
b1011000 *
b1011000 4
b1011000 K
b1011000 C"
b1011000 @"
b110011 J
b110011 p
b110011 V"
b110011 I
b110011 o
b110011 W"
b110011 N"
1%
#265
0%
#270
b11111111111111111111111111101001 v"
1P
b1100010010001000010000000000000 B
b1100010010001000010000000000000 t"
b1100010010001000010000000000000 |"
b111001 v
b111001 Y
b111001 #"
b111001 \"
1X
b11 H
b11 n
b11 X"
b11 b"
b1 Z
b1 !"
b1 ["
b10 [
b10 ~
b10 Z"
b10 \
b10 }
b10 Y"
b1100000 A"
b11111111111111111111111111101010 u"
b110110 J
b110110 p
b110110 V"
b110110 I
b110110 o
b110110 W"
b110110 N"
b1011100 *
b1011100 4
b1011100 K
b1011100 C"
b1011100 @"
1%
#275
0%
#280
b11111111111111111111111111101000 v"
1P
b1100010010001000010000000000000 B
b1100010010001000010000000000000 t"
b1100010010001000010000000000000 |"
b1100100 A"
b111100 v
b111100 Y
b111100 #"
b111100 \"
1X
b11 H
b11 n
b11 X"
b11 b"
b1 Z
b1 !"
b1 ["
b10 [
b10 ~
b10 Z"
b10 \
b10 }
b10 Y"
b11111111111111111111111111101001 u"
b1100000 *
b1100000 4
b1100000 K
b1100000 C"
b1100000 @"
b111001 J
b111001 p
b111001 V"
b111001 I
b111001 o
b111001 W"
b111001 N"
1%
#285
0%
